TP_CND/tp_volsurf/mesures_bak/DS0011.CSV

Memory Length,4000,
Trigger Level,2.000E-02,
Source,CH1,
Probe,1X,
Vertical Units,V,
Vertical Scale,2.000E-02,
Vertical Position,0.000E+00,
Horizontal Units,s,
Horizontal Scale,2.500E-05,
Horizontal Position,4.800E-05,
Horizontal Mode,Main,
Sampling Period,1.000E-07,
Firmware, V1.24,
Time, ,
Mode,Fast,
Waveform Data,
4,
4,
-2,
-2,
5,
8,
-2,
-2,
4,
2,
4,
-3,
-2,
5,
3,
-3,
-3,
-2,
2,
-2,
0,
4,
1,
1,
2,
0,
3,
-1,
2,
3,
2,
3,
2,
1,
1,
0,
2,
-1,
2,
4,
2,
0,
-2,
-2,
6,
4,
-4,
0,
-1,
-6,
-3,
-1,
4,
1,
-1,
2,
-1,
1,
2,
3,
1,
4,
0,
2,
5,
2,
0,
5,
0,
0,
3,
0,
2,
-2,
2,
1,
3,
-1,
0,
3,
2,
-1,
-5,
2,
-1,
4,
-2,
-3,
-1,
0,
-1,
0,
-1,
0,
2,
0,
-2,
0,
4,
-1,
-2,
2,
1,
-1,
2,
-4,
2,
-1,
0,
0,
1,
3,
3,
-2,
-3,
-1,
-2,
-1,
4,
4,
0,
-3,
3,
1,
2,
-6,
3,
2,
4,
-4,
0,
6,
3,
0,
0,
0,
1,
2,
3,
1,
1,
4,
4,
0,
2,
4,
4,
-4,
1,
-3,
2,
0,
-4,
-3,
0,
3,
4,
-4,
2,
-1,
5,
-5,
-9,
1,
0,
5,
1,
4,
2,
4,
0,
2,
1,
6,
-5,
-5,
-2,
6,
1,
-5,
-4,
0,
3,
3,
0,
-2,
-2,
5,
-1,
4,
2,
1,
2,
6,
-2,
2,
-1,
2,
0,
3,
2,
4,
-2,
0,
2,
5,
3,
2,
2,
4,
2,
0,
-2,
3,
0,
2,
4,
0,
-1,
-5,
2,
-1,
0,
-1,
-3,
5,
2,
2,
0,
-1,
0,
0,
0,
0,
1,
-2,
-1,
-2,
-2,
-2,
0,
0,
0,
5,
1,
-4,
0,
1,
4,
2,
2,
2,
3,
3,
1,
-1,
-1,
-1,
-2,
1,
0,
0,
-1,
2,
0,
2,
-1,
0,
2,
1,
-6,
2,
4,
3,
-2,
1,
4,
2,
0,
1,
3,
3,
0,
0,
0,
0,
2,
1,
-1,
2,
-2,
0,
0,
-1,
-1,
2,
-2,
0,
2,
-1,
1,
1,
-2,
-1,
5,
4,
3,
-3,
4,
-2,
-2,
-4,
3,
1,
0,
-1,
-4,
-2,
3,
0,
-1,
-2,
-2,
2,
3,
-2,
2,
1,
-1,
3,
-1,
-2,
1,
5,
-2,
1,
0,
5,
3,
-3,
5,
1,
1,
1,
2,
1,
-3,
5,
0,
-4,
0,
0,
1,
0,
-3,
2,
2,
5,
2,
0,
-1,
0,
3,
1,
4,
-1,
-1,
2,
5,
0,
0,
0,
0,
2,
2,
-3,
0,
-3,
2,
4,
3,
3,
-1,
0,
-5,
1,
1,
0,
2,
3,
-1,
-1,
0,
2,
4,
3,
2,
2,
0,
2,
0,
-2,
3,
5,
3,
0,
-4,
2,
-2,
2,
1,
2,
3,
0,
-2,
2,
-4,
3,
4,
0,
0,
-2,
1,
-1,
0,
1,
3,
0,
2,
-2,
1,
0,
2,
4,
-1,
1,
-2,
-2,
-1,
1,
3,
0,
-1,
0,
3,
0,
-1,
-2,
3,
1,
-2,
3,
-2,
2,
0,
5,
0,
0,
-1,
2,
0,
1,
0,
4,
0,
0,
1,
0,
0,
0,
-1,
1,
-1,
-3,
0,
4,
4,
2,
0,
-1,
4,
3,
2,
0,
1,
4,
2,
1,
0,
-1,
-1,
4,
-2,
-2,
0,
2,
2,
0,
1,
1,
3,
-1,
-1,
-4,
-1,
2,
-4,
0,
3,
4,
2,
-2,
0,
0,
3,
1,
3,
1,
0,
-1,
-1,
0,
2,
-2,
2,
2,
0,
-2,
0,
-1,
-1,
-4,
-4,
-1,
-2,
-1,
1,
-4,
0,
4,
2,
2,
-2,
4,
4,
2,
2,
4,
-2,
1,
2,
0,
-4,
6,
-1,
4,
2,
0,
-1,
0,
4,
1,
-2,
1,
0,
-1,
0,
2,
0,
2,
0,
4,
0,
-4,
-3,
0,
-2,
1,
4,
0,
-2,
0,
0,
3,
0,
3,
5,
3,
1,
-2,
-2,
5,
1,
-4,
0,
-2,
1,
4,
-2,
2,
3,
4,
3,
8,
0,
0,
1,
4,
-2,
0,
-2,
2,
0,
2,
1,
2,
-1,
-1,
4,
0,
2,
1,
-1,
1,
0,
-4,
3,
2,
2,
-1,
0,
3,
0,
0,
3,
0,
-1,
0,
0,
4,
4,
4,
3,
-1,
4,
4,
2,
0,
0,
0,
3,
5,
0,
-1,
-1,
0,
0,
-1,
3,
4,
4,
3,
0,
-3,
-1,
1,
-3,
4,
1,
0,
4,
0,
-1,
5,
2,
2,
0,
0,
2,
2,
0,
2,
3,
7,
3,
1,
2,
0,
1,
-2,
-2,
-1,
6,
0,
2,
2,
0,
-2,
2,
0,
-4,
0,
1,
4,
2,
2,
3,
2,
0,
0,
4,
0,
-1,
-2,
-2,
-2,
-5,
2,
-2,
-1,
-4,
0,
2,
3,
0,
5,
6,
2,
0,
6,
4,
0,
1,
0,
3,
1,
0,
-2,
3,
6,
-4,
0,
-2,
1,
4,
5,
2,
7,
3,
6,
1,
-3,
0,
4,
0,
-2,
-2,
2,
3,
-3,
1,
0,
8,
-1,
7,
6,
2,
0,
2,
-2,
0,
1,
4,
1,
0,
3,
0,
-1,
-2,
2,
4,
-1,
2,
-3,
2,
0,
0,
2,
1,
0,
2,
0,
1,
-6,
-2,
0,
0,
2,
1,
3,
0,
-1,
4,
0,
3,
4,
3,
2,
4,
-1,
2,
0,
2,
-1,
2,
2,
0,
-2,
-1,
4,
2,
0,
-2,
-2,
2,
1,
2,
2,
2,
4,
0,
0,
4,
3,
2,
2,
2,
1,
2,
-1,
0,
4,
3,
-1,
-5,
2,
1,
7,
3,
1,
0,
4,
3,
0,
-1,
1,
-2,
4,
-2,
1,
2,
-1,
-3,
3,
-1,
-2,
2,
0,
-1,
0,
1,
3,
0,
0,
0,
0,
2,
0,
-4,
2,
0,
1,
0,
-2,
2,
-2,
5,
3,
0,
4,
0,
-2,
-1,
5,
-1,
3,
1,
2,
1,
0,
-4,
4,
4,
-1,
0,
0,
0,
3,
2,
-2,
0,
0,
2,
2,
-5,
3,
-1,
-2,
4,
-2,
-5,
-2,
1,
1,
-4,
0,
1,
-2,
0,
-2,
0,
0,
3,
0,
0,
3,
4,
-1,
-1,
-4,
10,
2,
0,
0,
0,
3,
-4,
2,
1,
1,
6,
-1,
2,
2,
-5,
2,
-4,
1,
3,
-1,
-2,
-2,
6,
-1,
0,
4,
0,
5,
3,
0,
1,
3,
-2,
4,
3,
1,
-6,
-2,
0,
0,
-1,
-1,
4,
-1,
1,
-2,
-3,
4,
1,
3,
2,
1,
-3,
4,
1,
3,
4,
0,
0,
-2,
-1,
0,
1,
1,
4,
2,
0,
-3,
0,
-3,
2,
3,
-4,
2,
5,
4,
2,
2,
0,
-2,
2,
-4,
0,
1,
2,
1,
1,
-1,
3,
1,
-2,
4,
1,
-1,
-2,
1,
-1,
-3,
-1,
0,
-2,
3,
2,
2,
8,
-1,
3,
-4,
0,
-3,
1,
1,
3,
2,
0,
-1,
4,
5,
2,
1,
3,
5,
2,
-5,
0,
-2,
-4,
-3,
2,
0,
3,
3,
4,
4,
-3,
-3,
8,
2,
0,
0,
4,
-1,
1,
-6,
0,
4,
2,
-2,
0,
2,
2,
-1,
4,
0,
0,
-1,
0,
0,
-5,
4,
-1,
1,
4,
0,
0,
4,
2,
-3,
-2,
1,
5,
6,
0,
2,
1,
0,
2,
2,
4,
-1,
1,
-4,
0,
1,
6,
-1,
0,
4,
-4,
4,
-1,
2,
2,
7,
-1,
-1,
-4,
7,
0,
0,
0,
3,
5,
4,
0,
5,
3,
3,
-6,
0,
4,
2,
4,
-4,
4,
4,
0,
-2,
-2,
1,
0,
-1,
-3,
1,
2,
4,
-3,
0,
5,
2,
-5,
1,
3,
-2,
-2,
-5,
-2,
1,
0,
-4,
-2,
4,
0,
-2,
3,
9,
5,
-4,
2,
4,
0,
-2,
8,
2,
-1,
-3,
-1,
1,
5,
-1,
0,
0,
-1,
0,
0,
-2,
6,
3,
0,
4,
2,
4,
-1,
-1,
3,
1,
0,
1,
0,
-2,
1,
-2,
2,
-1,
2,
-4,
1,
4,
2,
-4,
2,
2,
2,
-2,
1,
-1,
2,
9,
2,
-4,
2,
3,
-5,
0,
4,
1,
-2,
1,
-2,
7,
0,
2,
-1,
2,
2,
1,
1,
-3,
2,
1,
0,
2,
2,
-1,
0,
-2,
0,
0,
2,
-2,
2,
0,
0,
-1,
0,
-4,
0,
-2,
0,
0,
0,
-3,
1,
4,
3,
0,
-4,
0,
1,
0,
1,
0,
2,
0,
4,
-2,
2,
7,
6,
6,
-2,
-2,
2,
3,
-1,
3,
-5,
0,
2,
-1,
0,
5,
2,
0,
2,
-1,
4,
4,
2,
1,
2,
5,
5,
-2,
0,
5,
2,
-2,
-4,
0,
5,
6,
-3,
3,
1,
2,
0,
-1,
0,
3,
-1,
4,
0,
5,
2,
-2,
-3,
-2,
2,
4,
-4,
3,
2,
0,
2,
-1,
7,
0,
0,
1,
0,
2,
0,
0,
2,
-1,
4,
0,
-2,
1,
6,
1,
-3,
4,
0,
8,
4,
-3,
0,
0,
0,
0,
3,
4,
3,
-1,
2,
-2,
3,
4,
-1,
0,
-4,
-4,
8,
0,
0,
5,
2,
-2,
1,
0,
-1,
1,
2,
0,
1,
-1,
2,
2,
0,
-2,
0,
0,
0,
5,
0,
-2,
3,
0,
3,
-1,
4,
0,
1,
2,
1,
-2,
1,
-2,
4,
0,
-5,
0,
3,
0,
0,
3,
-1,
2,
1,
-1,
-7,
0,
1,
1,
-3,
-2,
3,
-1,
2,
0,
-1,
2,
-3,
3,
0,
1,
0,
0,
4,
-4,
-5,
-2,
0,
5,
6,
-1,
3,
4,
5,
0,
0,
7,
2,
2,
-1,
0,
2,
4,
-2,
2,
5,
-3,
3,
2,
-2,
0,
0,
4,
5,
0,
2,
4,
-2,
-4,
-1,
1,
0,
0,
3,
0,
0,
3,
3,
1,
1,
-4,
2,
-4,
-3,
-3,
-1,
-2,
4,
0,
0,
0,
2,
12,
-12,
-8,
0,
-5,
-1,
-5,
2,
5,
2,
2,
2,
2,
-2,
4,
2,
1,
1,
-4,
1,
5,
0,
0,
-1,
3,
2,
1,
-1,
4,
-2,
1,
3,
0,
0,
-3,
-1,
8,
3,
2,
2,
0,
4,
0,
2,
3,
1,
2,
-8,
3,
3,
2,
1,
0,
4,
4,
-1,
1,
0,
4,
6,
-1,
2,
-2,
5,
-4,
2,
0,
0,
0,
2,
0,
1,
0,
-1,
2,
3,
0,
-4,
4,
5,
-1,
3,
2,
3,
0,
0,
-3,
0,
2,
-5,
0,
-5,
2,
4,
-1,
0,
0,
0,
4,
0,
1,
-3,
-2,
-1,
0,
0,
-1,
4,
-3,
1,
-1,
0,
0,
2,
6,
-2,
1,
4,
4,
-2,
6,
-1,
-3,
0,
4,
2,
0,
-2,
6,
3,
2,
4,
-2,
4,
4,
5,
0,
-2,
1,
0,
-1,
2,
1,
2,
2,
1,
0,
4,
2,
-1,
4,
0,
-5,
4,
1,
1,
-1,
2,
5,
4,
2,
4,
3,
1,
0,
1,
5,
1,
-1,
2,
0,
0,
2,
4,
2,
-3,
4,
4,
4,
-1,
-2,
6,
2,
3,
1,
2,
3,
0,
2,
4,
-1,
4,
3,
-4,
1,
3,
-1,
1,
-3,
-3,
4,
5,
0,
4,
4,
-2,
0,
-2,
0,
-2,
2,
2,
1,
4,
2,
-2,
0,
0,
-4,
1,
0,
2,
-4,
-5,
3,
5,
0,
-4,
4,
3,
5,
3,
3,
3,
3,
1,
3,
2,
0,
3,
1,
1,
1,
0,
0,
4,
4,
-1,
3,
1,
-4,
2,
-4,
-3,
6,
0,
1,
0,
0,
0,
-1,
-7,
-1,
4,
4,
-2,
0,
6,
3,
-5,
0,
-1,
0,
4,
-2,
5,
-1,
0,
-2,
4,
2,
0,
1,
-3,
0,
6,
6,
-1,
-2,
3,
-2,
8,
-3,
-2,
1,
6,
7,
3,
0,
-4,
-2,
-3,
6,
2,
-4,
2,
0,
4,
-4,
-1,
-5,
0,
3,
0,
-1,
0,
-2,
2,
0,
1,
1,
2,
-1,
-3,
-4,
6,
5,
4,
-4,
-4,
8,
5,
0,
-5,
2,
11,
-2,
-10,
-5,
9,
5,
-2,
-10,
0,
12,
13,
-10,
-14,
-6,
11,
17,
-2,
-13,
-2,
7,
2,
-9,
-2,
12,
5,
-15,
-12,
13,
20,
-1,
-21,
-14,
20,
21,
2,
-16,
-14,
8,
16,
13,
2,
-17,
-18,
6,
24,
20,
-8,
-23,
-4,
9,
9,
5,
-5,
-12,
-3,
17,
12,
-6,
-15,
-2,
15,
8,
-6,
-10,
9,
12,
0,
-16,
-4,
18,
20,
-6,
-11,
-6,
12,
12,
-2,
-13,
-10,
15,
15,
-3,
-20,
-2,
8,
12,
0,
-11,
-12,
6,
20,
13,
-16,
-24,
2,
25,
16,
-13,
-23,
-8,
20,
21,
-1,
-23,
-12,
3,
18,
13,
-4,
-20,
-12,
19,
31,
-8,
-47,
-23,
35,
47,
-4,
-50,
-31,
27,
40,
12,
-23,
-27,
-1,
22,
20,
-12,
-21,
4,
16,
5,
-14,
-13,
17,
27,
-2,
-27,
-20,
23,
36,
-12,
-35,
-1,
32,
11,
-20,
-8,
24,
2,
-29,
-2,
28,
13,
-24,
-24,
21,
28,
-6,
-32,
-1,
26,
10,
-17,
-13,
15,
10,
-12,
-6,
17,
15,
-19,
-26,
12,
34,
4,
-24,
-15,
17,
23,
-1,
-18,
-1,
8,
13,
-6,
-9,
8,
12,
-5,
-17,
1,
24,
14,
-10,
-13,
2,
19,
13,
-10,
-16,
-4,
11,
20,
0,
-18,
-10,
19,
18,
-2,
-13,
-7,
11,
19,
1,
-11,
-10,
-1,
4,
8,
-2,
-13,
-6,
4,
10,
-1,
-8,
-4,
8,
3,
-5,
-4,
9,
-1,
-8,
-1,
2,
-3,
-1,
7,
10,
-1,
-2,
-3,
-3,
0,
0,
5,
1,
-3,
-10,
0,
15,
10,
-6,
-23,
0,
21,
6,
-12,
-13,
13,
20,
-5,
-28,
-12,
16,
23,
-5,
-22,
-13,
9,
36,
13,
-31,
-42,
2,
61,
29,
-46,
-59,
12,
60,
26,
-49,
-42,
25,
52,
-3,
-51,
-21,
40,
27,
-23,
-39,
16,
45,
6,
-30,
-15,
22,
21,
-12,
-22,
-2,
25,
12,
-10,
-19,
-1,
26,
17,
-12,
-22,
-1,
26,
13,
-15,
-13,
9,
16,
-6,
-12,
5,
21,
0,
-24,
-7,
16,
16,
-11,
-14,
0,
10,
10,
4,
0,
3,
-4,
-6,
14,
12,
-9,
-14,
3,
21,
4,
-13,
-5,
10,
15,
2,
-6,
-6,
-1,
4,
9,
0,
-17,
-6,
12,
23,
-4,
-30,
-9,
27,
22,
-23,
-34,
8,
34,
9,
-32,
-22,
26,
37,
-8,
-38,
-4,
34,
17,
-18,
-14,
18,
12,
-14,
0,
10,
-4,
-14,
4,
19,
4,
-20,
-8,
18,
16,
-10,
-22,
5,
27,
3,
-26,
-12,
25,
20,
-17,
-16,
14,
15,
-6,
-12,
2,
18,
-7,
-11,
4,
10,
-2,
-10,
8,
12,
-4,
-5,
2,
10,
3,
-1,
2,
5,
2,
-7,
-6,
9,
17,
-11,
-12,
11,
21,
-7,
-20,
2,
26,
6,
-24,
-9,
20,
14,
-7,
-15,
4,
10,
-1,
4,
8,
-2,
-17,
4,
26,
11,
-25,
-19,
15,
29,
0,
-22,
-11,
23,
24,
-5,
-22,
-4,
21,
17,
-9,
-18,
7,
15,
2,
-10,
-11,
10,
9,
0,
-13,
-1,
10,
6,
-5,
-4,
7,
6,
3,
-6,
0,
7,
5,
4,
-10,
-15,
7,
16,
-6,
-17,
4,
26,
8,
-16,
-2,
16,
13,
-12,
-10,
14,
12,
-2,
-14,
7,
11,
-6,
-13,
-2,
16,
6,
-10,
-13,
16,
18,
-5,
-16,
-2,
13,
8,
-2,
-16,
-2,
15,
8,
-10,
-10,
4,
16,
-2,
-12,
-7,
10,
10,
1,
-9,
-4,
5,
7,
-1,
-8,
-4,
6,
-1,
-5,
-4,
-1,
2,
1,
-1,
-7,
7,
7,
-5,
-2,
1,
10,
0,
-8,
-1,
4,
4,
0,
-6,
2,
13,
-2,
-8,
-7,
8,
8,
-2,
-8,
3,
1,
4,
0,
0,
3,
3,
0,
-3,
0,
-2,
-2,
2,
4,
4,
4,
-10,
3,
10,
5,
-3,
-4,
1,
4,
4,
-2,
-6,
-1,
-1,
6,
1,
-6,
-5,
8,
8,
4,
-11,
-1,
12,
4,
-9,
-4,
8,
10,
0,
-3,
-4,
4,
1,
0,
1,
-4,
8,
-4,
-3,
4,
4,
0,
-4,
2,
6,
8,
-8,
-3,
5,
5,
-2,
-3,
-2,
8,
4,
-2,
-2,
3,
3,
-3,
4,
-1,
0,
-4,
2,
4,
-2,
1,
-3,
4,
5,
4,
-1,
2,
2,
4,
-2,
-3,
-3,
6,
3,
2,
4,
2,
-1,
-2,
0,
2,
0,
-4,
4,
5,
3,
-2,
0,
-4,
-6,
-2,
3,
-2,
1,
2,
0,
0,
1,
-2,
-1,
5,
-1,
-6,
-1,
3,
-2,
-1,
4,
3,
2,
1,
0,
3,
1,
1,
2,
-2,
2,
6,
0,
-5,
-1,
10,
-1,
-2,
0,
6,
8,
3,
-4,
8,
5,
2,
-5,
-3,
2,
3,
-5,
-5,
2,
2,
2,
-3,
0,
5,
-3,
-5,
-1,
2,
2,
1,
-2,
-4,
3,
4,
3,
2,
0,
-4,
6,
3,
1,
-6,
3,
4,
6,
-6,
0,
0,
2,
-4,
-2,
4,
1,
2,
3,
-3,
2,
0,
0,
-8,
1,
2,
0,
-5,
-4,
3,
-3,
-3,
2,
8,
4,
-4,
-6,
3,
6,
0,
-1,
7,
6,
0,
-2,
-5,
2,
0,
-2,
-4,
-2,
-1,
2,
-1,
-1,
0,
2,
1,
-3,
2,
-1,
-2,
-1,
1,
3,
4,
-2,
1,
4,
-5,
0,
-2,
2,
1,
-3,
5,
-1,
0,
4,
8,
-1,
1,
2,
4,
6,
2,
-4,
6,
6,
2,
-3,
0,
0,
6,
2,
-8,
1,
5,
7,
-2,
-2,
4,
6,
4,
-6,
0,
6,
3,
-3,
-1,
-1,
1,
1,
1,
4,
2,
-1,
0,
-2,
2,
5,
-2,
0,
2,
4,
5,
-4,
-4,
8,
7,
-3,
-4,
-3,
6,
4,
-1,
-8,
6,
2,
0,
-3,
-4,
5,
4,
2,
-2,
-1,
0,
3,
4,
-3,
-2,
4,
2,
-1,
0,
4,
3,
-2,
0,
5,
8,
1,
-6,
2,
8,
9,
3,
-3,
2,
4,
4,
1,
-1,
2,
0,
2,
2,
-1,
-4,
0,
-3,
1,
2,
2,
-2,
-4,
4,
5,
-4,
-3,
2,
5,
1,
2,
0,
5,
2,
1,
-2,
-2,
2,
0,
2,
-8,
-5,
4,
-2,
1,
0,
-1,
1,
-2,
-3,
-6,
-4,
3,
8,
-2,
-8,
1,
6,
1,
-6,
0,
8,
4,
-8,
-4,
0,
10,
4,
-9,
-4,
7,
4,
2,
-6,
-1,
4,
4,
1,
-5,
2,
0,
-1,
6,
5,
2,
-3,
-2,
4,
4,
0,
0,
4,
-1,
5,
4,
3,
0,
-3,
4,
9,
0,
-6,
-1,
4,
-1,
-7,
-3,
6,
11,
-4,
-2,
2,
11,
5,
-4,
-3,
6,
7,
0,
-6,
0,
9,
0,
-11,
-2,
3,
6,
-2,
-2,
2,
5,
0,
0,
0,
-3,
5,
4,
-1,
-7,
-3,
4,
4,
-5,
-4,
0,
6,
3,
-4,
0,
5,
2,
-5,
-2,
6,
4,
8,
-4,
0,
3,
-2,
-3,
-2,
6,
0,
3,
-2,
-1,
8,
2,
-11,
4,
2,
5,
0,
-3,
2,
5,
0,
-1,
3,
-3,
5,
-2,
-3,
4,
4,
5,
-1,
0,
-2,
11,
6,
-1,
-2,
4,
4,
2,
-5,
-2,
4,
3,
0,
-2,
-1,
4,
3,
1,
-8,
0,
6,
3,
0,
3,
3,
7,
0,
-3,
-1,
3,
4,
1,
2,
-5,
5,
5,
-4,
0,
0,
0,
-1,
-3,
2,
1,
1,
-3,
4,
-3,
-1,
4,
7,
-2,
-7,
-3,
5,
4,
1,
-4,
2,
6,
0,
0,
5,
0,
0,
-1,
5,
2,
-6,
0,
4,
4,
2,
-4,
-3,
8,
4,
-1,
-1,
-3,
5,
0,
0,
-2,
4,
2,
0,
0,
-3,
4,
8,
3,
-5,
-3,
2,
4,
1,
-6,
0,
2,
3,
-1,
-4,
4,
7,
9,
1,
-4,
6,
8,
2,
-8,
0,
3,
6,
0,
-1,
-3,
1,
6,
-1,
-7,
-2,
12,
0,
-5,
0,
6,
8,
0,
-5,
-1,
6,
1,
-3,
-1,
6,
4,
-2,
-2,
1,
-1,
0,
2,
-2,
8,
3,
-2,
2,
-2,
0,
-4,
-5,
4,
0,
3,
1,
-4,
0,
2,
2,
-1,
0,
6,
4,
3,
1,
0,
1,
2,
0,
0,
1,
0,
3,
2,
4,
-1,
-6,
-3,
6,
2,
0,
0,
2,
-1,
4,
3,
2,
-1,
3,
3,
6,
-2,
0,
3,
1,
4,
0,
-8,
5,
5,
-1,
-1,
2,
4,
-2,
-6,
-2,
-4,
6,
-3,
-4,
-2,
4,
4,
6,
-3,
-1,
3,
-2,
-2,
2,
-2,
4,
1,
-2,
3,
2,
2,
0,
-1,
4,
0,
4,
0,
-1,
0,
1,
7,
0,
-4,
-4,
5,
12,
-6,
-5,
-4,
3,
2,
1,
-3,
-4,
6,
4,
0,
-1,
0,
1,
7,
-2,
-3,
0,
6,
7,
1,
-11,
-2,
10,
1,
-2,
-2,
6,
-2,
-5,
-3,
4,
-1,
-1,
-5,
-4,
10,
0,
-8,
2,
-2,
4,
3,
-5,
-2,
4,
8,
5,
-4,
-2,
6,
2,
-2,
-4,
4,
6,
0,
-3,
-1,
5,
8,
0,
-2,
-4,
7,
6,
1,
-1,
-1,
2,
2,
-2,
0,
3,
4,
3,
2,
-5,
2,
-6,
2,
2,
2,
1,
2,
6,
-2,
-2,
-1,
2,
3,
-2,
-2,
1,
1,
2,
-6,
4,
3,
4,
-4,
-6,
4,
4,
6,
-3,
-3,
-1,
6,
-1,
-3,
0,
3,
7,
4,
0,
-7,
0,
4,
1,
2,
4,
2,
-1,
5,
-3,
0,
5,
2,
-4,
1,
4,
1,
0,
-1,
-2,
4,
6,
-4,
-6,
4,
2,
4,
-1,
1,
0,
1,
0,
0,
0,
2,
2,
4,
0,
0,
1,
3,
2,
3,
-1,
3,
2,
0,
-4,
-1,
-1,
0,
2,
0,
6,
2,
-6,
-5,
-1,
11,
5,
-7,
-7,
4,
7,
-2,
-7,
-2,
8,
8,
-6,
-8,
-3,
6,
6,
-2,
-3,
0,
0,
-4,
0,
4,
10,
-4,
-8,
-3,
4,
4,
-2,
-5,
-3,
2,
4,
-1,
-2,
3,
4,
6,
0,
-3,
3,
7,
-1,
2,
-2,
2,
5,
-4,
2,
5,
6,
-1,
-7,
-1,
11,
4,
-2,
-6,
6,
10,
2,
-4,
0,
3,
3,
-4,
-3,
3,
2,
-5,
-1,
3,
6,
-1,
-4,
0,
7,
-2,
-4,
0,
5,
5,
-2,
1,
2,
2,
-3,
-1,
-1,
0,
1,
3,
6,
1,
0,
1,
2,
2,
-1,
4,
2,
-2,
-1,
-2,
0,
6,
1,
-3,
1,
0,
2,
0,
-2,
4,
4,
0,
-2,
0,
2,
-2,
-3,
4,
2,
0,
-2,
3,
4,
-2,
-4,
0,
6,
0,
0,
0,
2,
3,
3,
-3,
1,
2,
3,
1,
6,
-1,
-1,
0,
0,
1,
0,
-3,
6,
11,
2,
1,
0,
0,
2,
3,
-1,
-1,
2,
0,
3,
-1,
0,
-2,
2,
2,
2,
3,
2,
-1,
0,
3,
2,
-2,
-4,
-3,
11,
4,
-1,
0,
-4,
6,
-1,
0,
0,
1,
4,
2,
-3,
2,
-2,
1,
-4,
0,
0,
6,
5,
0,
-2,
5,
1,
-2,
0,
-3,
8,
0,
-4,
1,
2,
4,
2,
-1,
4,
6,
1,
2,
1,
5,
8,
2,
-8,
-2,
6,
5,
-6,
0,
-2,
6,
3,
-1,
0,
-5,
4,
4,
4,
2,
0,
-2,
4,
5,
-6,
5,
-2,
2,
-2,
0,
-4,
1,
0,
-4,
3,
4,
0,
-4,
3,
3,
4,
-2,
-4,
4,
2,
4,
-1,
-1,
0,
0,
4,
-2,
-4,
-2,
6,
0,
0,
-6,
2,
10,
4,
-8,
2,
6,
4,
-4,
-1,
2,
2,
-2,
0,
4,
3,
4,
0,
3,
0,
-4,
-2,
-4,
4,
0,
0,
-4,
4,
4,
-4,
-4,
-2,
6,
0,
-2,
-2,
-2,
6,
1,
-3,
3,
2,
0,
-4,
-4,
-1,
4,
3,
-2,
2,
7,
-1,
0,
1,
0,
2,
0,
2,
-1,
2,
4,
-4,
-3,
-2,
4,
0,
5,
4,
0,
-6,
5,
0,
0,
-5,
-3,
0,
1,
1,
2,
0,
-3,
3,
4,
0,
-1,
0,
0,
7,
0,
-1,
-2,
4,
4,
0,
2,
1,
3,
2,
3,
0,
4,
0,
0,
0,
3,
3,
1,
-3,
3,
2,
5,
-4,
-5,
2,
4,
0,
-2,
-1,
2,
0,
1,
0,
-1,
-4,
4,
8,
4,
-6,
4,
4,
3,
0,
-4,
3,
2,
2,
-1,
2,
1,
4,
0,
-2,
6,
-1,
-2,
6,
3,
-6,
-1,
4,
6,
0,
-4,
-2,
9,
5,
-9,
-2,
5,
5,
-2,
0,
0,
3,
2,
-2,
-1,
0,
2,
-2,
0,
2,
8,
4,
-8,
1,
3,
2,
-2,
-2,
0,
4,
0,
0,
0,
3,
-3,
5,
5,
2,
4,
1,
6,
4,
2,
-2,
-1,
3,
4,
-3,
0,
3,
0,
-1,
-2,
-2,
-1,
0,
1,
2,
3,
-4,
2,
-5,
4,
-4,
-2,
4,
2,
3,
0,
0,
2,
2,
3,
-4,
-2,
0,
4,
2,
0,
-3,
0,
6,
-6,
0,
1,
2,
-4,
-2,
10,
-2,
-4,
-3,
0,
5,
3,
2,
-3,
1,
6,
-3,
0,
0,
0,
4,
0,
3,
2,
0,
1,
4,
2,
0,
4,
-1,
-3,
0,
2,
4,
0,
-4,
-2,
0,
4,
-1,
0,
0,
7,
2,
0,
4,
4,
-1,
3,
2,
5,
-4,
1,
-1,
0,
-1,
-1,
-2,
0,
-1,
0,
2,
2,
0,
0,
1,
2,
2,
2,
3,
4,
0,
-2,
-1,
4,
7,
2,
-1,
2,
2,
5,
2,
-2,
0,
0,
2,
0,
-1,
1,
1,
2,
2,
-4,
5,
