TP_CND/tp_volsurf/mesures_bak/DS0004.CSV

Memory Length,4000,
Trigger Level,-3.000E-02,
Source,CH1,
Probe,1X,
Vertical Units,V,
Vertical Scale,1.000E-01,
Vertical Position,-1.600E-02,
Horizontal Units,s,
Horizontal Scale,5.000E-06,
Horizontal Position,1.920E-05,
Horizontal Mode,Main,
Sampling Period,2.000E-08,
Firmware, V1.24,
Time, ,
Mode,Fast,
Waveform Data,
4,
4,
4,
1,
3,
2,
2,
3,
2,
3,
2,
2,
0,
2,
2,
2,
2,
3,
2,
3,
2,
4,
2,
4,
3,
4,
4,
3,
2,
4,
3,
2,
2,
3,
2,
2,
2,
2,
3,
2,
0,
2,
1,
2,
2,
1,
3,
2,
4,
3,
3,
3,
4,
4,
4,
3,
2,
3,
3,
3,
2,
2,
2,
2,
1,
2,
1,
1,
2,
3,
2,
4,
3,
2,
3,
3,
4,
5,
3,
4,
2,
3,
2,
3,
2,
2,
2,
1,
2,
2,
3,
2,
2,
2,
2,
2,
2,
4,
2,
2,
4,
3,
3,
2,
2,
3,
2,
2,
2,
3,
3,
2,
3,
2,
2,
4,
2,
2,
3,
2,
3,
2,
3,
2,
2,
1,
2,
2,
2,
0,
2,
2,
2,
3,
1,
4,
2,
1,
3,
3,
4,
4,
2,
4,
3,
2,
3,
2,
3,
3,
2,
2,
2,
2,
1,
2,
3,
2,
2,
1,
3,
3,
2,
4,
3,
3,
3,
3,
4,
3,
3,
3,
3,
4,
3,
2,
2,
1,
4,
3,
3,
2,
2,
2,
2,
1,
1,
2,
3,
2,
2,
2,
3,
3,
3,
2,
3,
3,
3,
4,
2,
3,
2,
3,
3,
4,
4,
2,
2,
2,
2,
3,
2,
2,
3,
3,
1,
3,
2,
2,
3,
3,
4,
4,
4,
2,
2,
3,
2,
2,
3,
2,
3,
3,
3,
3,
2,
3,
3,
4,
2,
3,
3,
2,
3,
2,
2,
3,
2,
2,
2,
2,
2,
2,
2,
3,
3,
4,
1,
3,
2,
3,
2,
3,
2,
4,
3,
3,
3,
3,
3,
3,
4,
2,
2,
2,
3,
2,
3,
1,
2,
2,
0,
3,
2,
3,
2,
0,
2,
1,
3,
3,
4,
3,
3,
4,
2,
4,
3,
3,
3,
3,
3,
3,
2,
3,
1,
1,
2,
0,
0,
2,
3,
1,
4,
2,
4,
2,
3,
4,
3,
4,
4,
2,
4,
2,
2,
2,
2,
2,
1,
2,
2,
2,
2,
2,
0,
2,
2,
3,
2,
2,
4,
3,
2,
4,
2,
3,
3,
4,
0,
2,
2,
1,
2,
2,
2,
3,
3,
2,
4,
3,
4,
3,
3,
2,
2,
3,
2,
3,
2,
1,
1,
2,
1,
2,
0,
1,
0,
2,
2,
4,
4,
3,
3,
4,
3,
4,
2,
4,
2,
2,
2,
2,
0,
1,
0,
1,
2,
2,
2,
3,
2,
2,
4,
3,
3,
4,
3,
4,
3,
4,
4,
3,
2,
2,
2,
2,
1,
1,
1,
1,
2,
1,
2,
2,
2,
1,
3,
3,
3,
2,
3,
4,
3,
4,
4,
3,
2,
4,
2,
3,
2,
2,
2,
1,
3,
1,
1,
2,
2,
3,
3,
3,
3,
3,
3,
3,
3,
4,
3,
2,
2,
2,
1,
1,
2,
2,
2,
0,
3,
0,
2,
4,
2,
2,
3,
2,
3,
3,
2,
4,
2,
2,
3,
2,
3,
2,
3,
1,
2,
1,
3,
1,
2,
1,
3,
2,
2,
2,
4,
4,
2,
3,
4,
3,
2,
3,
3,
1,
1,
2,
2,
2,
2,
3,
2,
3,
3,
2,
2,
0,
2,
2,
1,
3,
2,
3,
2,
2,
3,
3,
1,
2,
3,
2,
1,
2,
2,
2,
3,
3,
2,
4,
3,
2,
2,
2,
2,
2,
3,
3,
2,
3,
1,
2,
3,
2,
2,
2,
2,
2,
2,
3,
2,
2,
2,
2,
3,
3,
2,
2,
2,
2,
3,
4,
2,
2,
2,
3,
3,
3,
2,
3,
3,
3,
2,
2,
2,
2,
1,
2,
2,
3,
2,
2,
3,
2,
0,
3,
2,
1,
3,
3,
3,
2,
4,
3,
3,
3,
4,
4,
3,
3,
4,
2,
3,
4,
3,
2,
2,
2,
2,
2,
2,
1,
2,
2,
2,
3,
1,
4,
1,
2,
4,
3,
4,
4,
3,
3,
2,
2,
3,
3,
1,
2,
3,
2,
2,
2,
3,
2,
3,
2,
2,
3,
2,
3,
2,
3,
2,
2,
3,
3,
2,
2,
3,
1,
2,
1,
3,
2,
1,
3,
2,
2,
2,
3,
2,
3,
3,
2,
4,
3,
3,
2,
2,
3,
3,
3,
2,
3,
2,
1,
2,
3,
2,
2,
1,
1,
2,
3,
1,
2,
3,
3,
3,
3,
4,
2,
4,
3,
2,
3,
4,
3,
3,
2,
2,
2,
2,
2,
1,
3,
1,
3,
3,
2,
2,
3,
4,
4,
2,
4,
2,
3,
2,
3,
1,
3,
2,
2,
3,
2,
2,
3,
1,
3,
2,
2,
2,
2,
3,
2,
4,
3,
2,
2,
3,
2,
2,
3,
4,
3,
3,
3,
2,
3,
2,
2,
2,
2,
2,
3,
1,
3,
1,
1,
3,
2,
2,
2,
4,
4,
4,
3,
2,
2,
3,
2,
4,
2,
2,
2,
2,
2,
2,
2,
2,
2,
1,
2,
2,
3,
2,
4,
3,
2,
3,
2,
3,
2,
2,
2,
3,
3,
2,
2,
1,
2,
1,
2,
3,
2,
2,
2,
2,
3,
3,
4,
3,
3,
3,
3,
3,
2,
2,
3,
2,
3,
2,
3,
1,
2,
2,
2,
3,
2,
2,
2,
3,
3,
2,
2,
3,
4,
1,
3,
2,
3,
2,
2,
3,
2,
4,
2,
2,
2,
2,
2,
2,
2,
3,
3,
3,
3,
3,
3,
3,
4,
2,
2,
2,
2,
2,
2,
2,
2,
3,
2,
1,
2,
2,
2,
3,
3,
3,
3,
4,
3,
3,
4,
3,
2,
3,
3,
2,
2,
3,
1,
4,
1,
3,
3,
1,
2,
1,
2,
2,
2,
4,
3,
2,
3,
3,
1,
2,
2,
1,
2,
2,
2,
2,
2,
0,
1,
2,
2,
2,
3,
3,
2,
3,
2,
3,
4,
4,
3,
3,
4,
3,
2,
3,
1,
1,
2,
2,
1,
2,
2,
2,
1,
2,
2,
0,
3,
3,
4,
4,
3,
4,
3,
4,
3,
2,
3,
1,
1,
2,
2,
2,
2,
0,
2,
0,
2,
3,
2,
3,
3,
2,
3,
4,
3,
4,
4,
3,
3,
3,
2,
2,
2,
1,
1,
2,
2,
2,
2,
1,
1,
1,
2,
2,
2,
3,
2,
3,
4,
3,
3,
3,
2,
3,
2,
2,
2,
3,
4,
2,
4,
2,
2,
4,
3,
4,
3,
3,
2,
1,
4,
2,
2,
10,
41,
35,
14,
-19,
-18,
-73,
25,
-7,
5,
-7,
5,
-1,
0,
5,
0,
5,
2,
4,
4,
2,
3,
2,
2,
3,
0,
2,
2,
3,
4,
2,
4,
4,
4,
4,
4,
3,
3,
2,
2,
2,
1,
2,
2,
4,
1,
2,
3,
1,
4,
4,
1,
3,
3,
3,
3,
2,
4,
3,
4,
3,
2,
2,
2,
2,
2,
1,
3,
1,
2,
4,
1,
3,
3,
4,
5,
3,
2,
3,
4,
2,
2,
3,
2,
3,
2,
1,
0,
1,
3,
1,
1,
4,
1,
3,
4,
2,
4,
3,
3,
3,
4,
4,
2,
2,
3,
3,
1,
1,
3,
2,
2,
2,
3,
2,
2,
2,
2,
2,
4,
3,
2,
2,
3,
2,
3,
3,
3,
4,
4,
4,
3,
3,
1,
2,
2,
2,
2,
2,
2,
2,
3,
2,
2,
3,
2,
2,
4,
3,
3,
3,
2,
3,
2,
3,
2,
2,
2,
1,
2,
2,
1,
2,
2,
2,
2,
3,
2,
3,
2,
4,
4,
4,
3,
2,
3,
3,
1,
4,
2,
2,
2,
1,
2,
2,
1,
1,
2,
2,
1,
2,
2,
2,
3,
4,
4,
2,
3,
3,
3,
4,
3,
3,
2,
3,
2,
3,
2,
3,
2,
0,
1,
2,
2,
2,
2,
2,
2,
2,
3,
2,
2,
2,
2,
3,
2,
2,
3,
2,
3,
2,
2,
3,
2,
3,
1,
1,
2,
3,
2,
2,
4,
3,
2,
2,
2,
2,
2,
3,
1,
2,
0,
1,
2,
3,
2,
2,
4,
3,
2,
2,
3,
2,
2,
4,
2,
4,
2,
3,
2,
2,
1,
2,
2,
2,
2,
3,
1,
3,
3,
3,
3,
2,
3,
2,
3,
1,
2,
2,
1,
2,
1,
1,
1,
2,
3,
2,
3,
3,
2,
3,
3,
2,
3,
3,
3,
3,
0,
3,
2,
2,
2,
2,
2,
2,
1,
2,
2,
2,
2,
2,
3,
1,
3,
4,
3,
4,
3,
4,
4,
2,
2,
2,
2,
3,
1,
1,
0,
2,
1,
3,
1,
0,
1,
2,
2,
4,
2,
3,
3,
3,
3,
3,
3,
3,
3,
3,
2,
2,
4,
3,
2,
2,
2,
3,
2,
3,
2,
2,
2,
2,
3,
2,
3,
2,
3,
2,
3,
2,
1,
1,
3,
3,
3,
3,
2,
3,
2,
3,
3,
3,
2,
3,
2,
2,
4,
3,
1,
1,
3,
3,
2,
1,
2,
2,
1,
2,
2,
2,
2,
2,
3,
2,
2,
1,
2,
2,
1,
2,
0,
3,
3,
3,
3,
3,
3,
3,
4,
3,
3,
3,
2,
2,
2,
3,
1,
1,
2,
1,
0,
1,
2,
1,
3,
1,
1,
2,
2,
3,
4,
4,
3,
4,
4,
4,
4,
3,
2,
4,
2,
2,
3,
2,
2,
3,
2,
2,
0,
2,
0,
2,
1,
3,
1,
3,
2,
1,
3,
1,
3,
2,
2,
3,
2,
3,
3,
2,
2,
3,
3,
2,
2,
2,
3,
2,
1,
3,
1,
3,
1,
2,
1,
2,
3,
3,
1,
2,
1,
2,
2,
2,
2,
3,
2,
2,
3,
2,
4,
2,
3,
3,
1,
3,
2,
3,
2,
1,
4,
1,
3,
3,
2,
3,
2,
2,
2,
2,
3,
3,
2,
3,
2,
2,
2,
2,
3,
2,
2,
1,
3,
3,
2,
3,
3,
2,
4,
2,
3,
3,
3,
4,
2,
4,
3,
3,
2,
3,
3,
2,
1,
2,
2,
1,
0,
1,
2,
0,
2,
1,
2,
3,
3,
4,
2,
4,
3,
4,
4,
4,
2,
2,
2,
2,
1,
1,
2,
0,
1,
2,
1,
1,
2,
3,
3,
1,
2,
3,
4,
4,
4,
3,
4,
4,
3,
3,
3,
3,
2,
2,
1,
1,
1,
3,
2,
2,
2,
2,
3,
4,
4,
3,
2,
3,
3,
2,
3,
2,
3,
4,
1,
1,
2,
2,
2,
2,
2,
3,
3,
3,
2,
3,
2,
4,
3,
2,
2,
2,
2,
3,
2,
2,
1,
1,
1,
2,
0,
2,
2,
2,
2,
3,
2,
3,
4,
3,
3,
3,
2,
2,
2,
2,
2,
1,
2,
3,
0,
1,
2,
0,
2,
2,
3,
2,
3,
3,
3,
4,
3,
3,
3,
3,
4,
2,
4,
4,
2,
2,
2,
3,
2,
2,
3,
0,
0,
2,
2,
2,
2,
3,
3,
4,
2,
3,
3,
3,
3,
3,
3,
3,
4,
2,
2,
2,
1,
2,
2,
0,
3,
0,
3,
4,
2,
3,
4,
2,
4,
4,
3,
4,
3,
2,
2,
2,
2,
2,
2,
2,
0,
2,
3,
0,
1,
2,
2,
3,
2,
2,
2,
2,
3,
3,
4,
3,
3,
2,
3,
2,
2,
2,
2,
2,
2,
1,
2,
1,
2,
2,
2,
2,
2,
4,
2,
2,
3,
4,
3,
3,
3,
3,
2,
4,
4,
3,
4,
2,
3,
2,
2,
2,
2,
2,
1,
2,
2,
2,
3,
1,
2,
4,
1,
2,
4,
3,
3,
3,
3,
3,
2,
2,
3,
1,
3,
3,
3,
2,
3,
3,
3,
3,
2,
2,
2,
3,
1,
1,
3,
1,
2,
3,
3,
4,
3,
3,
1,
2,
2,
3,
2,
2,
2,
2,
3,
2,
3,
3,
1,
4,
3,
2,
4,
4,
4,
2,
2,
3,
3,
3,
2,
3,
3,
2,
4,
2,
2,
3,
1,
4,
2,
2,
2,
3,
2,
3,
3,
4,
4,
2,
4,
4,
4,
2,
1,
4,
2,
3,
2,
0,
2,
1,
2,
2,
2,
3,
3,
2,
3,
3,
3,
3,
3,
3,
4,
3,
2,
2,
2,
1,
2,
0,
2,
2,
2,
2,
3,
3,
3,
2,
4,
4,
4,
4,
4,
2,
3,
3,
2,
2,
3,
2,
3,
3,
2,
4,
3,
0,
4,
1,
3,
4,
3,
3,
2,
4,
3,
4,
3,
3,
3,
3,
4,
3,
2,
2,
1,
1,
3,
3,
3,
3,
3,
3,
2,
3,
3,
2,
4,
4,
3,
2,
3,
2,
3,
1,
2,
2,
2,
2,
1,
1,
1,
2,
3,
4,
3,
4,
4,
4,
4,
3,
4,
4,
3,
4,
4,
1,
3,
2,
2,
1,
2,
3,
1,
1,
1,
0,
1,
2,
4,
4,
3,
4,
3,
4,
3,
3,
4,
3,
5,
3,
2,
4,
3,
2,
2,
1,
1,
1,
2,
0,
2,
2,
2,
2,
2,
2,
2,
3,
2,
2,
4,
4,
5,
2,
4,
3,
2,
2,
3,
3,
3,
3,
2,
3,
3,
2,
2,
3,
4,
4,
3,
4,
2,
3,
2,
2,
3,
2,
2,
2,
2,
1,
1,
2,
2,
1,
1,
2,
2,
3,
3,
4,
4,
4,
4,
4,
3,
3,
2,
1,
3,
2,
1,
2,
2,
2,
2,
1,
0,
1,
3,
3,
3,
3,
4,
4,
4,
3,
4,
3,
4,
4,
1,
2,
2,
2,
2,
2,
1,
0,
0,
2,
2,
1,
3,
4,
2,
3,
4,
3,
4,
4,
3,
2,
4,
3,
4,
2,
2,
2,
2,
3,
1,
2,
0,
1,
1,
2,
0,
3,
2,
2,
2,
4,
4,
3,
4,
3,
4,
2,
3,
4,
2,
3,
3,
1,
3,
4,
2,
2,
1,
1,
2,
3,
3,
4,
2,
4,
3,
2,
2,
2,
2,
2,
1,
2,
1,
2,
2,
1,
2,
2,
2,
2,
2,
2,
4,
2,
3,
2,
2,
2,
3,
3,
3,
3,
1,
2,
2,
2,
2,
3,
3,
2,
2,
3,
3,
3,
3,
3,
4,
3,
2,
3,
2,
2,
1,
2,
1,
1,
1,
1,
2,
2,
2,
4,
3,
3,
4,
3,
3,
4,
3,
4,
3,
2,
3,
2,
3,
1,
1,
2,
3,
1,
1,
0,
2,
2,
2,
2,
3,
3,
4,
2,
4,
3,
2,
4,
4,
4,
2,
2,
1,
2,
1,
2,
1,
1,
2,
0,
2,
2,
1,
2,
2,
3,
2,
4,
4,
4,
4,
4,
4,
4,
2,
3,
4,
2,
2,
0,
0,
3,
0,
1,
2,
2,
1,
1,
1,
4,
2,
2,
4,
3,
4,
2,
4,
4,
3,
2,
2,
1,
3,
1,
1,
2,
1,
1,
2,
2,
3,
2,
2,
4,
3,
3,
3,
3,
4,
2,
4,
3,
2,
1,
2,
3,
2,
1,
3,
2,
2,
0,
1,
2,
2,
2,
2,
3,
3,
3,
4,
4,
2,
3,
3,
3,
2,
3,
1,
3,
2,
4,
2,
2,
2,
3,
2,
2,
0,
3,
2,
2,
1,
2,
2,
4,
3,
2,
2,
3,
4,
4,
3,
2,
2,
2,
2,
1,
2,
1,
2,
2,
2,
2,
0,
3,
3,
2,
2,
3,
3,
4,
1,
2,
2,
1,
3,
1,
1,
2,
0,
2,
4,
4,
4,
3,
5,
6,
7,
9,
6,
8,
8,
4,
5,
3,
0,
-2,
-4,
-6,
-8,
-9,
-10,
-8,
-8,
-5,
-4,
-2,
3,
5,
9,
12,
15,
16,
15,
15,
14,
13,
12,
10,
6,
2,
-1,
-4,
-8,
-10,
-12,
-12,
-12,
-12,
-10,
-8,
-5,
-1,
1,
6,
8,
11,
11,
12,
14,
14,
13,
12,
11,
9,
5,
4,
2,
0,
-3,
-5,
-8,
-6,
-8,
-7,
-7,
-5,
-2,
0,
2,
4,
6,
8,
9,
10,
11,
10,
8,
7,
7,
5,
2,
1,
0,
-3,
-4,
-6,
-5,
-5,
-4,
-1,
0,
0,
3,
4,
5,
6,
7,
8,
9,
8,
6,
5,
4,
4,
2,
0,
0,
0,
-1,
-1,
-1,
0,
0,
1,
1,
2,
3,
4,
4,
4,
4,
4,
4,
6,
4,
3,
3,
2,
1,
1,
0,
0,
0,
0,
0,
0,
0,
1,
2,
4,
3,
4,
4,
3,
4,
6,
4,
4,
3,
3,
2,
3,
2,
1,
1,
1,
1,
1,
1,
1,
0,
0,
1,
1,
0,
2,
2,
2,
4,
3,
4,
4,
5,
5,
3,
4,
4,
3,
2,
3,
1,
1,
0,
-1,
0,
-2,
-2,
-1,
-1,
-2,
0,
0,
1,
3,
5,
7,
8,
11,
12,
14,
14,
16,
14,
14,
10,
6,
2,
-4,
-9,
-14,
-20,
-24,
-26,
-25,
-24,
-23,
-16,
-11,
0,
8,
16,
26,
31,
36,
40,
40,
38,
36,
29,
20,
11,
1,
-8,
-18,
-25,
-32,
-35,
-37,
-35,
-31,
-26,
-18,
-10,
-1,
8,
17,
24,
31,
34,
35,
36,
34,
29,
22,
15,
6,
-2,
-10,
-17,
-20,
-24,
-27,
-27,
-24,
-20,
-15,
-8,
-2,
5,
12,
18,
22,
27,
29,
27,
25,
21,
18,
12,
6,
-2,
-5,
-11,
-15,
-18,
-18,
-18,
-16,
-13,
-10,
-6,
0,
5,
9,
12,
16,
16,
18,
17,
15,
13,
9,
5,
3,
0,
-5,
-5,
-8,
-8,
-8,
-8,
-5,
-5,
-1,
1,
4,
6,
7,
9,
12,
9,
10,
8,
8,
5,
4,
2,
1,
-1,
-1,
-2,
-4,
-4,
-4,
-3,
0,
0,
1,
4,
3,
5,
8,
8,
6,
7,
5,
6,
4,
3,
3,
3,
0,
0,
0,
0,
-2,
0,
0,
-1,
2,
2,
2,
3,
4,
4,
4,
4,
6,
5,
4,
4,
4,
3,
2,
2,
2,
0,
2,
2,
0,
1,
2,
2,
1,
3,
1,
4,
3,
3,
3,
3,
3,
4,
4,
3,
4,
3,
2,
3,
2,
2,
3,
2,
2,
3,
2,
3,
2,
2,
2,
1,
2,
2,
1,
2,
3,
1,
1,
2,
3,
3,
2,
2,
3,
3,
2,
3,
2,
4,
3,
4,
4,
3,
2,
3,
3,
3,
4,
4,
3,
2,
4,
1,
2,
2,
2,
0,
2,
1,
1,
1,
1,
2,
0,
2,
-1,
2,
1,
1,
1,
2,
3,
4,
4,
4,
5,
4,
4,
3,
4,
4,
4,
3,
3,
3,
1,
2,
2,
2,
1,
0,
1,
0,
0,
0,
0,
2,
0,
2,
3,
3,
3,
3,
3,
4,
4,
4,
4,
4,
4,
3,
4,
3,
3,
2,
0,
2,
1,
1,
0,
0,
1,
-1,
2,
1,
2,
2,
3,
3,
3,
3,
2,
3,
3,
2,
4,
2,
2,
1,
1,
1,
2,
1,
2,
1,
2,
0,
3,
3,
2,
3,
3,
4,
3,
3,
4,
4,
4,
3,
2,
3,
3,
2,
2,
0,
0,
0,
1,
2,
0,
2,
2,
1,
3,
3,
4,
4,
4,
4,
4,
2,
3,
4,
2,
3,
3,
2,
2,
2,
2,
1,
1,
0,
1,
1,
2,
1,
2,
3,
2,
2,
4,
4,
4,
3,
3,
4,
2,
3,
3,
0,
3,
3,
2,
2,
2,
3,
4,
2,
3,
2,
3,
3,
2,
2,
2,
2,
0,
1,
3,
0,
1,
2,
2,
2,
1,
1,
4,
4,
2,
5,
5,
4,
4,
3,
4,
4,
2,
2,
2,
0,
1,
0,
0,
-1,
0,
1,
0,
2,
2,
3,
3,
4,
4,
4,
5,
4,
6,
4,
4,
4,
3,
2,
2,
2,
1,
1,
0,
0,
0,
0,
1,
2,
2,
2,
2,
4,
3,
4,
4,
4,
4,
3,
4,
4,
2,
2,
3,
2,
2,
0,
1,
0,
1,
2,
1,
2,
2,
1,
2,
2,
3,
3,
2,
4,
2,
3,
4,
3,
2,
2,
4,
4,
3,
2,
3,
2,
1,
3,
3,
0,
3,
1,
2,
2,
3,
3,
3,
3,
4,
3,
4,
3,
2,
2,
2,
1,
2,
3,
2,
2,
2,
2,
2,
2,
1,
3,
2,
3,
2,
2,
2,
2,
2,
1,
2,
3,
2,
2,
2,
2,
2,
2,
2,
3,
2,
2,
2,
2,
2,
0,
2,
3,
2,
1,
2,
0,
2,
2,
1,
3,
4,
3,
3,
4,
3,
4,
2,
4,
4,
4,
4,
3,
2,
4,
2,
1,
2,
1,
2,
1,
3,
2,
1,
1,
0,
1,
1,
2,
3,
3,
2,
3,
2,
3,
3,
3,
4,
3,
4,
2,
4,
3,
4,
2,
2,
2,
0,
2,
2,
1,
2,
0,
2,
1,
1,
1,
2,
2,
2,
2,
3,
4,
4,
5,
4,
4,
4,
3,
3,
4,
1,
2,
2,
1,
1,
1,
1,
1,
0,
0,
1,
2,
2,
3,
2,
3,
3,
4,
4,
3,
4,
4,
3,
3,
4,
3,
2,
3,
2,
3,
3,
1,
3,
2,
2,
2,
2,
2,
4,
2,
3,
2,
1,
2,
2,
2,
1,
2,
2,
2,
3,
3,
2,
2,
3,
2,
3,
2,
4,
3,
3,
2,
3,
4,
3,
2,
2,
2,
1,
2,
0,
2,
2,
1,
1,
2,
2,
2,
2,
2,
4,
3,
4,
4,
4,
3,
4,
4,
3,
3,
2,
3,
2,
2,
1,
0,
0,
1,
2,
3,
1,
1,
2,
2,
3,
3,
3,
3,
2,
3,
3,
1,
3,
3,
0,
2,
1,
1,
0,
1,
2,
2,
2,
2,
4,
4,
4,
5,
4,
5,
4,
4,
4,
3,
3,
2,
2,
1,
0,
0,
0,
-1,
-1,
1,
0,
2,
1,
2,
3,
2,
4,
6,
4,
5,
5,
6,
4,
4,
4,
2,
2,
1,
2,
1,
-1,
0,
0,
0,
1,
1,
3,
1,
2,
4,
3,
5,
4,
4,
4,
5,
3,
3,
2,
1,
2,
1,
2,
1,
1,
0,
1,
0,
0,
2,
2,
4,
4,
3,
3,
4,
3,
4,
4,
3,
3,
4,
2,
1,
2,
2,
0,
-1,
1,
0,
2,
3,
2,
2,
3,
3,
4,
3,
4,
4,
3,
5,
4,
3,
4,
2,
2,
3,
2,
1,
2,
1,
0,
0,
0,
2,
1,
2,
1,
3,
3,
2,
3,
3,
3,
4,
4,
4,
4,
3,
3,
2,
3,
0,
2,
1,
2,
1,
1,
3,
2,
3,
1,
1,
3,
2,
3,
3,
2,
4,
3,
2,
2,
2,
2,
2,
2,
2,
2,
1,
3,
2,
1,
3,
3,
2,
3,
3,
3,
3,
4,
3,
3,
2,
3,
3,
3,
3,
3,
3,
2,
2,
2,
2,
2,
2,
2,
2,
2,
3,
2,
2,
4,
2,
3,
3,
3,
2,
2,
4,
2,
3,
2,
1,
2,
2,
1,
2,
2,
2,
2,
2,
4,
2,
4,
3,
4,
4,
3,
4,
3,
2,
4,
3,
2,
2,
0,
0,
1,
2,
2,
1,
2,
3,
1,
2,
3,
2,
4,
3,
4,
3,
3,
2,
2,
4,
2,
2,
3,
0,
2,
3,
2,
2,
2,
2,
3,
2,
3,
3,
3,
2,
3,
3,
2,
3,
3,
3,
0,
2,
2,
2,
2,
2,
1,
2,
3,
2,
2,
4,
3,
2,
4,
4,
4,
2,
4,
4,
2,
4,
4,
2,
1,
2,
3,
2,
2,
2,
1,
2,
2,
1,
1,
2,
2,
2,
3,
2,
2,
3,
4,
3,
3,
3,
4,
4,
3,
4,
4,
2,
2,
3,
2,
2,
2,
2,
2,
1,
2,
0,
2,
3,
0,
2,
2,
1,
2,
3,
3,
3,
3,
3,
4,
3,
4,
4,
3,
4,
3,
3,
3,
3,
3,
2,
3,
2,
3,
2,
2,
1,
1,
3,
2,
2,
2,
2,
3,
2,
3,
4,
4,
2,
4,
4,
3,
4,
3,
3,
2,
4,
3,
2,
2,
2,
2,
3,
0,
2,
2,
2,
2,
3,
2,
2,
3,
4,
2,
3,
3,
3,
2,
2,
4,
4,
2,
3,
3,
1,
3,
3,
1,
3,
4,
2,
2,
3,
3,
3,
2,
2,
2,
3,
2,
3,
3,
3,
2,
4,
2,
3,
2,
3,
2,
2,
2,
2,
1,
1,
2,
1,
2,
2,
2,
3,
3,
3,
2,
1,
2,
4,
2,
2,
3,
2,
2,
2,
2,
2,
2,
1,
3,
2,
2,
4,
3,
3,
4,
4,
4,
4,
3,
4,
4,
2,
4,
3,
1,
2,
0,
2,
0,
2,
0,
0,
-1,
0,
1,
0,
2,
2,
3,
4,
4,
2,
4,
3,
4,
4,
5,
4,
5,
4,
3,
3,
2,
2,
2,
0,
2,
2,
2,
-1,
-1,
0,
0,
2,
2,
3,
2,
2,
4,
3,
4,
4,
4,
4,
3,
4,
3,
4,
3,
3,
