TP_CND/tp_volsurf/mesures_bak/DS0008.CSV

Memory Length,4000,
Trigger Level,2.000E-02,
Source,CH1,
Probe,1X,
Vertical Units,V,
Vertical Scale,5.000E-02,
Vertical Position,0.000E+00,
Horizontal Units,s,
Horizontal Scale,5.000E-06,
Horizontal Position,8.080E-05,
Horizontal Mode,Main,
Sampling Period,2.000E-08,
Firmware, V1.24,
Time, ,
Mode,Fast,
Waveform Data,
2,
2,
1,
-5,
-5,
-4,
-5,
-5,
-4,
1,
3,
6,
7,
9,
14,
16,
16,
16,
18,
16,
14,
11,
9,
8,
3,
3,
0,
-2,
-1,
-4,
-2,
-3,
-2,
-1,
1,
4,
5,
8,
11,
15,
15,
17,
17,
16,
16,
14,
11,
10,
8,
7,
5,
4,
3,
1,
2,
2,
2,
2,
4,
5,
6,
8,
10,
9,
8,
10,
10,
11,
11,
11,
11,
10,
9,
7,
5,
5,
7,
6,
5,
4,
4,
5,
6,
7,
6,
8,
8,
9,
8,
6,
8,
8,
8,
8,
6,
6,
4,
6,
4,
6,
6,
7,
8,
6,
4,
4,
6,
5,
6,
8,
6,
5,
7,
7,
8,
5,
5,
5,
6,
4,
4,
4,
2,
6,
4,
4,
5,
4,
4,
3,
6,
5,
5,
4,
4,
6,
5,
4,
7,
5,
6,
5,
5,
4,
4,
4,
6,
6,
6,
6,
9,
9,
10,
9,
10,
10,
10,
8,
10,
9,
7,
8,
7,
6,
6,
2,
4,
6,
5,
4,
4,
10,
7,
7,
8,
8,
8,
8,
11,
11,
10,
10,
8,
10,
10,
11,
8,
10,
8,
7,
10,
8,
6,
8,
8,
7,
7,
6,
5,
4,
6,
8,
6,
8,
8,
8,
8,
8,
9,
8,
9,
9,
9,
10,
8,
6,
6,
7,
8,
4,
7,
6,
4,
4,
5,
7,
6,
4,
4,
8,
6,
8,
6,
7,
8,
8,
6,
11,
8,
6,
7,
6,
6,
6,
7,
6,
7,
4,
6,
5,
6,
6,
5,
8,
8,
6,
9,
8,
6,
8,
8,
9,
10,
8,
8,
8,
8,
7,
7,
6,
6,
8,
6,
7,
5,
4,
6,
6,
5,
6,
6,
4,
6,
6,
8,
4,
8,
5,
4,
7,
7,
6,
9,
7,
8,
8,
6,
8,
6,
6,
4,
6,
6,
5,
6,
7,
7,
8,
8,
7,
6,
9,
10,
8,
7,
9,
10,
8,
8,
8,
7,
9,
7,
7,
8,
4,
6,
7,
8,
5,
6,
8,
8,
6,
8,
9,
8,
8,
8,
8,
9,
9,
8,
8,
6,
9,
7,
8,
6,
8,
6,
6,
5,
6,
7,
8,
5,
8,
6,
6,
5,
8,
4,
8,
6,
6,
4,
6,
8,
6,
8,
7,
6,
6,
8,
8,
6,
7,
6,
7,
6,
4,
5,
6,
5,
6,
5,
4,
6,
6,
6,
6,
4,
8,
9,
9,
6,
10,
8,
8,
6,
6,
8,
4,
6,
7,
4,
6,
4,
5,
4,
4,
6,
2,
5,
5,
6,
7,
8,
8,
6,
8,
9,
8,
9,
8,
6,
9,
4,
6,
8,
7,
7,
8,
8,
6,
5,
6,
8,
6,
7,
8,
8,
6,
8,
7,
9,
8,
8,
8,
8,
8,
10,
7,
7,
6,
6,
9,
5,
7,
6,
4,
6,
5,
8,
8,
8,
9,
10,
8,
8,
8,
9,
10,
8,
9,
10,
8,
8,
5,
8,
6,
7,
6,
5,
4,
5,
6,
8,
5,
8,
5,
8,
9,
8,
8,
7,
8,
7,
8,
6,
6,
6,
8,
7,
5,
8,
5,
6,
8,
6,
7,
7,
5,
4,
8,
7,
6,
6,
9,
7,
8,
8,
8,
8,
8,
10,
8,
8,
8,
8,
10,
8,
8,
4,
4,
4,
6,
3,
4,
4,
5,
4,
4,
4,
4,
5,
6,
8,
7,
8,
9,
9,
9,
8,
7,
9,
8,
7,
8,
5,
7,
4,
6,
6,
5,
5,
5,
8,
6,
5,
7,
8,
6,
7,
8,
7,
5,
6,
6,
5,
8,
5,
6,
8,
8,
9,
8,
6,
8,
9,
9,
9,
8,
8,
6,
8,
5,
4,
6,
4,
4,
3,
3,
7,
5,
6,
7,
8,
8,
8,
10,
7,
11,
9,
9,
7,
8,
6,
6,
5,
8,
4,
7,
5,
6,
6,
6,
8,
6,
8,
6,
6,
6,
8,
8,
7,
8,
5,
8,
8,
6,
6,
6,
6,
5,
6,
7,
6,
5,
5,
7,
6,
5,
8,
5,
6,
4,
6,
6,
4,
4,
5,
4,
6,
5,
6,
7,
5,
8,
4,
8,
4,
8,
8,
8,
8,
8,
8,
5,
5,
7,
4,
5,
6,
4,
7,
6,
5,
6,
5,
8,
7,
6,
7,
8,
8,
6,
7,
6,
7,
6,
7,
8,
8,
6,
6,
5,
6,
5,
6,
6,
6,
6,
7,
8,
7,
6,
8,
7,
8,
8,
9,
8,
9,
9,
10,
7,
8,
7,
8,
6,
8,
5,
6,
8,
4,
5,
6,
4,
5,
8,
8,
6,
7,
7,
8,
6,
8,
6,
8,
10,
6,
7,
8,
8,
6,
6,
7,
8,
7,
8,
7,
7,
8,
8,
7,
8,
8,
7,
7,
9,
9,
7,
8,
7,
7,
6,
7,
8,
8,
6,
6,
7,
7,
8,
7,
10,
6,
8,
8,
9,
8,
8,
6,
9,
8,
7,
8,
7,
6,
8,
8,
5,
6,
6,
5,
6,
7,
7,
6,
7,
7,
8,
8,
8,
8,
7,
8,
8,
6,
8,
8,
11,
6,
8,
6,
6,
6,
7,
8,
5,
6,
5,
6,
6,
7,
8,
6,
7,
8,
8,
6,
9,
4,
8,
8,
7,
9,
8,
7,
6,
4,
8,
6,
7,
8,
5,
7,
6,
8,
6,
7,
8,
7,
9,
8,
8,
8,
6,
7,
5,
7,
6,
5,
6,
7,
8,
5,
7,
7,
6,
6,
8,
6,
8,
8,
8,
6,
8,
7,
8,
8,
6,
10,
5,
7,
7,
8,
8,
9,
6,
6,
6,
7,
8,
6,
7,
7,
8,
8,
8,
8,
6,
7,
7,
8,
4,
9,
7,
8,
6,
7,
8,
5,
6,
7,
7,
8,
7,
6,
7,
8,
7,
8,
6,
8,
8,
8,
6,
8,
6,
7,
6,
8,
4,
5,
5,
5,
7,
6,
6,
8,
7,
8,
7,
7,
6,
8,
9,
10,
8,
9,
6,
7,
7,
6,
7,
7,
6,
7,
6,
6,
4,
6,
8,
4,
6,
5,
6,
7,
6,
6,
6,
8,
5,
5,
8,
6,
8,
6,
8,
8,
7,
8,
8,
7,
9,
6,
6,
4,
8,
8,
7,
5,
8,
6,
4,
5,
7,
7,
8,
7,
5,
7,
8,
8,
7,
7,
8,
8,
7,
6,
7,
8,
7,
6,
6,
9,
7,
6,
6,
7,
8,
8,
8,
6,
8,
7,
10,
8,
9,
6,
8,
8,
7,
8,
8,
7,
10,
5,
6,
6,
6,
10,
5,
8,
7,
10,
8,
8,
6,
9,
8,
7,
8,
4,
8,
6,
7,
8,
8,
6,
6,
4,
6,
4,
7,
3,
6,
7,
7,
7,
9,
9,
6,
8,
8,
8,
6,
6,
8,
5,
6,
8,
6,
5,
8,
6,
4,
7,
8,
6,
5,
6,
5,
8,
8,
6,
8,
4,
6,
6,
8,
6,
6,
8,
8,
6,
8,
6,
8,
7,
8,
8,
8,
8,
6,
9,
8,
6,
6,
5,
5,
4,
6,
5,
4,
6,
6,
6,
5,
8,
8,
9,
7,
8,
9,
6,
11,
6,
10,
8,
7,
6,
5,
8,
4,
6,
4,
4,
6,
4,
5,
5,
8,
8,
8,
8,
8,
9,
7,
8,
8,
8,
8,
8,
8,
6,
6,
6,
4,
6,
5,
5,
5,
5,
6,
5,
6,
7,
8,
9,
6,
8,
7,
7,
6,
6,
7,
4,
7,
7,
7,
5,
7,
6,
7,
6,
5,
6,
6,
8,
8,
7,
7,
9,
8,
7,
6,
8,
6,
7,
6,
5,
8,
8,
8,
9,
7,
7,
8,
8,
8,
7,
8,
9,
6,
9,
7,
7,
8,
7,
7,
6,
6,
7,
9,
6,
6,
5,
5,
5,
6,
7,
5,
6,
5,
5,
6,
8,
6,
5,
6,
6,
6,
7,
8,
6,
5,
6,
6,
6,
8,
7,
7,
7,
6,
8,
9,
7,
6,
10,
8,
7,
7,
8,
5,
8,
6,
8,
6,
7,
6,
5,
6,
4,
6,
8,
7,
6,
7,
8,
8,
8,
10,
11,
9,
10,
10,
7,
8,
9,
6,
6,
4,
7,
4,
5,
4,
4,
4,
4,
5,
7,
8,
8,
7,
6,
10,
8,
11,
10,
9,
10,
6,
8,
5,
8,
4,
4,
8,
4,
4,
4,
4,
4,
6,
6,
8,
7,
6,
8,
10,
11,
10,
9,
10,
6,
7,
6,
7,
6,
4,
4,
3,
4,
5,
3,
4,
5,
6,
6,
5,
9,
8,
7,
8,
8,
10,
8,
8,
9,
8,
7,
6,
5,
6,
6,
4,
6,
4,
8,
4,
6,
8,
7,
6,
5,
8,
8,
9,
8,
8,
8,
6,
9,
6,
8,
4,
8,
6,
6,
7,
6,
6,
5,
6,
6,
6,
6,
4,
8,
7,
7,
6,
8,
7,
5,
9,
9,
8,
8,
8,
7,
10,
6,
6,
8,
5,
7,
5,
5,
4,
4,
7,
4,
4,
4,
7,
7,
6,
10,
7,
8,
9,
8,
8,
10,
8,
7,
6,
7,
5,
6,
6,
5,
4,
6,
4,
5,
7,
9,
4,
8,
6,
6,
8,
8,
7,
11,
8,
10,
8,
6,
5,
6,
7,
5,
4,
6,
4,
5,
8,
7,
5,
6,
8,
8,
8,
8,
8,
8,
8,
8,
8,
7,
7,
6,
7,
6,
6,
5,
3,
6,
5,
8,
6,
8,
5,
8,
8,
7,
10,
10,
7,
9,
7,
7,
6,
5,
4,
6,
4,
3,
2,
4,
6,
6,
6,
8,
8,
6,
9,
9,
10,
8,
10,
7,
10,
10,
6,
5,
6,
8,
5,
4,
5,
4,
4,
6,
4,
6,
4,
7,
7,
8,
6,
9,
9,
9,
8,
8,
9,
8,
8,
8,
8,
6,
8,
8,
5,
6,
4,
6,
6,
6,
8,
7,
5,
4,
8,
6,
8,
6,
8,
10,
8,
8,
8,
7,
6,
8,
7,
6,
5,
8,
6,
8,
6,
8,
8,
8,
8,
10,
9,
8,
6,
7,
5,
6,
5,
8,
4,
7,
5,
6,
5,
6,
8,
7,
6,
7,
7,
7,
6,
8,
8,
10,
8,
9,
9,
8,
7,
8,
8,
8,
7,
8,
6,
8,
6,
7,
5,
7,
8,
5,
4,
8,
5,
5,
4,
8,
8,
6,
8,
6,
6,
8,
6,
9,
8,
8,
8,
8,
7,
8,
8,
6,
5,
5,
7,
5,
6,
6,
5,
5,
5,
4,
7,
7,
7,
6,
8,
6,
7,
6,
9,
8,
10,
8,
8,
6,
6,
6,
5,
6,
7,
4,
7,
6,
5,
8,
7,
4,
5,
8,
8,
7,
6,
8,
6,
8,
6,
9,
7,
8,
6,
7,
5,
8,
7,
5,
6,
7,
8,
5,
5,
5,
6,
6,
8,
8,
7,
9,
8,
7,
6,
8,
8,
9,
9,
6,
8,
7,
5,
4,
6,
4,
4,
3,
4,
4,
5,
6,
4,
6,
6,
8,
8,
8,
9,
9,
9,
8,
10,
10,
8,
8,
8,
9,
7,
6,
7,
6,
5,
4,
5,
4,
5,
5,
6,
5,
8,
10,
6,
8,
8,
10,
9,
9,
11,
9,
8,
8,
8,
6,
8,
5,
5,
7,
6,
4,
5,
4,
5,
6,
7,
6,
8,
7,
8,
7,
8,
9,
6,
6,
8,
6,
6,
6,
6,
5,
5,
8,
6,
6,
6,
6,
8,
8,
7,
5,
7,
8,
8,
9,
9,
7,
8,
8,
6,
6,
6,
5,
4,
8,
6,
6,
6,
6,
6,
6,
7,
5,
6,
7,
8,
8,
8,
8,
8,
6,
7,
6,
8,
7,
6,
6,
8,
8,
8,
5,
5,
6,
7,
8,
7,
8,
6,
7,
8,
6,
6,
6,
5,
7,
6,
6,
7,
7,
6,
8,
7,
8,
8,
7,
9,
7,
8,
8,
8,
7,
8,
8,
6,
6,
6,
4,
6,
6,
7,
4,
4,
4,
6,
8,
7,
6,
8,
8,
7,
9,
8,
8,
9,
7,
7,
8,
4,
8,
8,
8,
6,
8,
8,
8,
6,
8,
6,
7,
7,
8,
6,
8,
7,
6,
6,
6,
7,
4,
8,
5,
4,
7,
6,
4,
6,
8,
6,
8,
8,
9,
8,
9,
8,
10,
10,
7,
10,
7,
6,
7,
4,
4,
5,
4,
4,
5,
4,
5,
5,
4,
9,
5,
7,
7,
9,
10,
9,
12,
10,
12,
10,
10,
8,
8,
7,
7,
4,
6,
3,
2,
1,
5,
2,
3,
4,
6,
4,
6,
8,
8,
9,
10,
10,
10,
10,
10,
9,
10,
8,
8,
8,
6,
7,
4,
4,
5,
5,
3,
3,
4,
5,
6,
7,
6,
9,
10,
9,
10,
10,
12,
10,
11,
8,
8,
6,
5,
6,
6,
4,
6,
4,
4,
2,
4,
4,
7,
8,
7,
8,
9,
7,
10,
11,
8,
10,
7,
7,
5,
6,
6,
5,
6,
6,
6,
7,
6,
5,
8,
8,
6,
6,
8,
8,
8,
7,
7,
8,
6,
5,
6,
4,
5,
6,
6,
5,
6,
6,
4,
8,
7,
6,
6,
9,
8,
10,
8,
8,
8,
8,
7,
8,
4,
5,
5,
3,
4,
3,
2,
4,
4,
5,
7,
9,
9,
8,
10,
8,
10,
10,
10,
9,
11,
8,
8,
8,
7,
4,
2,
4,
2,
3,
3,
0,
5,
4,
3,
6,
8,
6,
9,
10,
11,
10,
10,
11,
11,
10,
10,
10,
8,
7,
5,
5,
3,
4,
2,
2,
2,
3,
3,
4,
6,
4,
8,
9,
10,
11,
12,
10,
11,
12,
12,
8,
8,
9,
7,
8,
5,
2,
3,
2,
0,
3,
3,
4,
4,
6,
7,
4,
4,
8,
10,
9,
10,
10,
10,
11,
11,
10,
11,
11,
9,
9,
10,
10,
10,
8,
6,
5,
7,
4,
1,
-1,
-1,
-4,
-4,
-4,
-6,
-8,
-8,
-5,
-5,
-1,
4,
7,
14,
19,
28,
32,
37,
36,
40,
41,
38,
32,
26,
16,
5,
-6,
-19,
-29,
-35,
-46,
-48,
-48,
-44,
-38,
-26,
-11,
2,
18,
33,
48,
56,
68,
71,
72,
66,
60,
45,
33,
18,
-1,
-15,
-32,
-42,
-51,
-56,
-56,
-53,
-44,
-32,
-22,
-4,
11,
27,
41,
52,
60,
64,
62,
60,
51,
42,
30,
17,
3,
-11,
-20,
-30,
-36,
-40,
-40,
-34,
-30,
-22,
-12,
-2,
10,
19,
29,
36,
40,
44,
42,
38,
35,
28,
18,
13,
5,
-3,
-9,
-15,
-18,
-19,
-18,
-15,
-11,
-8,
-2,
4,
9,
14,
21,
21,
24,
25,
24,
21,
20,
14,
10,
8,
2,
0,
-2,
-3,
-4,
-3,
-4,
-2,
-2,
3,
3,
8,
11,
11,
12,
15,
15,
12,
13,
12,
10,
8,
6,
4,
3,
1,
4,
3,
0,
3,
4,
4,
4,
6,
7,
9,
8,
10,
12,
11,
11,
10,
10,
10,
8,
10,
8,
4,
4,
6,
3,
6,
2,
3,
3,
6,
5,
5,
8,
9,
8,
9,
9,
8,
10,
8,
10,
8,
6,
10,
7,
8,
5,
3,
5,
4,
5,
4,
6,
5,
4,
4,
6,
8,
6,
9,
8,
8,
9,
9,
8,
6,
7,
6,
6,
8,
4,
4,
7,
5,
6,
5,
5,
5,
5,
8,
4,
7,
8,
4,
8,
8,
8,
8,
8,
9,
10,
8,
8,
10,
7,
8,
6,
7,
5,
5,
5,
4,
6,
6,
5,
4,
4,
7,
7,
7,
8,
8,
8,
7,
6,
8,
9,
8,
8,
5,
7,
9,
5,
4,
5,
5,
7,
5,
6,
9,
6,
8,
7,
7,
8,
7,
8,
8,
8,
5,
5,
6,
5,
6,
5,
6,
4,
6,
5,
5,
7,
6,
6,
7,
8,
7,
8,
8,
7,
8,
8,
7,
6,
7,
8,
5,
8,
8,
8,
8,
8,
6,
8,
7,
7,
10,
7,
7,
6,
4,
4,
2,
4,
2,
2,
0,
1,
1,
2,
3,
4,
5,
6,
7,
8,
10,
11,
12,
9,
8,
10,
10,
10,
6,
8,
7,
6,
10,
11,
14,
15,
15,
18,
21,
20,
22,
17,
16,
13,
9,
2,
-4,
-11,
-15,
-20,
-25,
-28,
-28,
-25,
-22,
-16,
-9,
-4,
5,
15,
23,
32,
38,
44,
48,
46,
48,
42,
36,
30,
20,
13,
1,
-4,
-13,
-22,
-25,
-30,
-32,
-31,
-27,
-24,
-16,
-8,
0,
8,
17,
26,
31,
35,
37,
40,
40,
34,
30,
24,
18,
8,
1,
-5,
-12,
-18,
-19,
-22,
-20,
-19,
-13,
-8,
-3,
2,
10,
15,
21,
27,
30,
29,
30,
28,
23,
20,
16,
9,
4,
0,
-4,
-8,
-8,
-10,
-11,
-9,
-8,
-4,
0,
3,
8,
12,
16,
16,
18,
18,
19,
16,
19,
14,
12,
10,
7,
4,
2,
0,
0,
-2,
-2,
-2,
2,
2,
5,
4,
8,
9,
12,
11,
12,
11,
8,
8,
8,
9,
8,
7,
4,
4,
4,
2,
4,
3,
4,
4,
5,
6,
8,
8,
11,
10,
10,
10,
8,
8,
9,
4,
7,
6,
6,
3,
1,
3,
2,
3,
3,
3,
4,
8,
6,
11,
11,
11,
12,
15,
16,
14,
12,
14,
10,
10,
8,
4,
4,
0,
0,
-2,
-2,
-4,
-3,
-2,
0,
0,
0,
6,
8,
9,
13,
14,
16,
18,
20,
20,
18,
17,
16,
12,
9,
7,
4,
0,
-2,
-2,
-3,
-4,
-5,
-5,
-2,
0,
3,
8,
8,
10,
12,
14,
16,
19,
16,
14,
13,
14,
8,
7,
5,
3,
2,
1,
0,
-1,
1,
0,
5,
3,
5,
8,
8,
10,
9,
12,
12,
14,
13,
10,
8,
8,
7,
7,
2,
3,
4,
3,
3,
0,
6,
5,
6,
9,
10,
10,
8,
12,
10,
10,
12,
10,
6,
9,
7,
6,
5,
4,
3,
1,
3,
5,
3,
7,
6,
8,
6,
6,
8,
10,
10,
9,
8,
8,
9,
8,
5,
5,
6,
4,
5,
4,
5,
6,
6,
7,
8,
9,
8,
12,
11,
8,
9,
8,
6,
7,
8,
6,
3,
4,
1,
0,
2,
3,
2,
2,
6,
4,
10,
8,
12,
12,
12,
12,
13,
10,
12,
9,
8,
7,
4,
1,
1,
1,
2,
1,
2,
0,
4,
2,
6,
6,
8,
9,
12,
11,
13,
12,
11,
12,
12,
10,
9,
8,
7,
5,
4,
2,
4,
3,
5,
3,
4,
4,
5,
6,
5,
6,
4,
6,
6,
7,
8,
7,
6,
8,
8,
7,
8,
6,
6,
6,
8,
8,
9,
7,
8,
8,
6,
6,
4,
5,
7,
6,
8,
10,
8,
8,
10,
10,
9,
9,
12,
10,
9,
7,
5,
3,
1,
-1,
-2,
-3,
-3,
-2,
-1,
0,
1,
4,
9,
11,
13,
18,
18,
20,
21,
22,
20,
19,
15,
12,
9,
5,
0,
-4,
-7,
-10,
-10,
-12,
-11,
-7,
-5,
-2,
2,
8,
12,
15,
18,
23,
22,
24,
23,
20,
18,
15,
10,
6,
4,
-3,
-6,
-4,
-10,
-6,
-7,
-7,
-4,
1,
4,
7,
10,
13,
15,
18,
20,
17,
16,
16,
14,
11,
7,
4,
0,
0,
-2,
-2,
-3,
-3,
-2,
2,
2,
4,
8,
11,
13,
15,
13,
16,
16,
14,
13,
10,
9,
8,
6,
4,
4,
0,
1,
0,
0,
2,
2,
4,
6,
6,
8,
7,
10,
11,
11,
8,
8,
9,
8,
10,
8,
8,
8,
6,
7,
5,
6,
5,
6,
8,
6,
7,
8,
5,
5,
7,
4,
6,
5,
4,
4,
4,
7,
6,
6,
9,
5,
8,
10,
8,
10,
10,
9,
8,
9,
8,
8,
7,
5,
6,
4,
4,
4,
4,
3,
4,
4,
6,
6,
5,
6,
10,
8,
6,
10,
8,
9,
9,
8,
8,
7,
8,
7,
7,
7,
6,
6,
5,
4,
4,
5,
7,
4,
4,
6,
6,
8,
8,
4,
6,
5,
6,
7,
5,
7,
6,
7,
8,
7,
7,
9,
8,
8,
8,
8,
10,
11,
9,
8,
7,
4,
8,
4,
3,
5,
4,
5,
2,
6,
3,
4,
7,
4,
8,
10,
9,
8,
9,
12,
10,
9,
8,
8,
7,
8,
8,
8,
6,
4,
3,
3,
4,
4,
4,
4,
6,
4,
5,
7,
7,
8,
8,
10,
8,
8,
10,
9,
8,
8,
8,
9,
8,
6,
8,
6,
5,
7,
6,
4,
3,
4,
5,
5,
5,
6,
6,
6,
7,
8,
8,
9,
7,
8,
8,
9,
6,
8,
9,
8,
8,
6,
6,
8,
6,
6,
6,
6,
4,
5,
5,
6,
5,
5,
7,
7,
7,
8,
7,
8,
7,
6,
7,
6,
8,
4,
9,
6,
7,
6,
6,
7,
8,
6,
8,
5,
7,
6,
8,
5,
4,
5,
8,
6,
6,
9,
5,
8,
7,
8,
4,
8,
8,
8,
8,
8,
7,
10,
8,
8,
7,
6,
5,
6,
4,
5,
4,
5,
5,
5,
5,
4,
6,
7,
7,
8,
8,
7,
9,
9,
8,
10,
10,
8,
8,
7,
6,
7,
4,
6,
6,
4,
4,
4,
5,
4,
5,
5,
5,
7,
8,
9,
9,
9,
9,
10,
8,
10,
9,
7,
5,
5,
4,
5,
4,
4,
5,
6,
4,
4,
6,
4,
6,
8,
7,
8,
8,
10,
7,
8,
8,
9,
7,
9,
5,
8,
4,
4,
6,
4,
3,
5,
4,
4,
6,
6,
8,
5,
8,
7,
9,
10,
8,
9,
12,
10,
8,
8,
7,
6,
5,
5,
4,
5,
3,
4,
3,
5,
4,
4,
6,
6,
6,
6,
6,
6,
8,
6,
7,
8,
7,
8,
8,
8,
9,
8,
9,
10,
6,
6,
6,
6,
5,
5,
5,
4,
6,
4,
4,
4,
3,
4,
5,
6,
5,
6,
8,
8,
8,
10,
8,
8,
9,
8,
9,
8,
10,
6,
8,
7,
6,
8,
8,
4,
6,
4,
8,
3,
5,
5,
4,
6,
4,
4,
8,
6,
7,
6,
6,
8,
6,
7,
8,
8,
8,
8,
7,
6,
7,
7,
6,
5,
6,
7,
5,
6,
7,
7,
8,
7,
8,
6,
8,
8,
10,
6,
8,
8,
4,
6,
6,
7,
5,
6,
4,
6,
8,
4,
8,
6,
8,
8,
7,
10,
7,
10,
10,
8,
8,
6,
7,
7,
8,
4,
5,
4,
4,
4,
6,
7,
6,
8,
8,
10,
10,
10,
10,
7,
10,
8,
7,
6,
4,
4,
3,
4,
2,
4,
4,
4,
4,
3,
7,
8,
7,
10,
10,
8,
10,
9,
10,
8,
9,
10,
8,
4,
6,
6,
3,
6,
4,
5,
5,
6,
6,
7,
5,
7,
8,
8,
8,
7,
8,
9,
9,
8,
9,
7,
5,
6,
4,
4,
5,
4,
6,
4,
6,
8,
6,
7,
8,
8,
6,
9,
8,
8,
8,
8,
7,
7,
7,
6,
7,
6,
3,
5,
5,
8,
6,
5,
8,
6,
8,
6,
6,
7,
8,
8,
8,
4,
8,
8,
8,
6,
7,
6,
7,
9,
8,
6,
7,
8,
7,
8,
6,
5,
4,
7,
5,
6,
8,
5,
6,
8,
8,
6,
7,
5,
8,
5,
8,
7,
7,
8,
8,
6,
8,
8,
6,
8,
6,
4,
6,
7,
6,
8,
8,
4,
6,
7,
6,
6,
6,
6,
8,
6,
7,
8,
7,
8,
6,
9,
8,
8,
8,
8,
8,
7,
9,
8,
7,
9,
5,
5,
5,
4,
4,
4,
4,
5,
6,
6,
6,
8,
8,
7,
10,
10,
9,
10,
12,
9,
8,
8,
8,
6,
8,
7,
5,
4,
4,
4,
3,
4,
5,
4,
5,
5,
7,
6,
8,
10,
8,
10,
9,
9,
8,
9,
8,
8,
8,
4,
4,
6,
4,
3,
4,
5,
3,
6,
6,
5,
4,
8,
8,
9,
8,
10,
8,
8,
10,
8,
9,
8,
6,
6,
4,
6,
4,
6,
4,
3,
8,
6,
5,
4,
8,
9,
6,
6,
9,
9,
8,
8,
8,
9,
8,
8,
9,
6,
7,
10,
4,
5,
8,
6,
6,
8,
7,
6,
8,
5,
6,
5,
6,
6,
7,
6,
5,
7,
8,
5,
8,
8,
7,
8,
6,
8,
8,
7,
6,
5,
6,
5,
4,
7,
6,
6,
7,
4,
6,
6,
8,
8,
8,
8,
8,
7,
9,
8,
6,
5,
8,
6,
6,
6,
6,
6,
5,
6,
8,
6,
7,
8,
7,
6,
7,
6,
11,
9,
8,
5,
6,
8,
6,
8,
6,
6,
6,
5,
4,
4,
6,
7,
6,
7,
7,
8,
8,
7,
8,
8,
8,
8,
8,
8,
9,
6,
8,
6,
5,
4,
4,
5,
6,
5,
7,
5,
6,
8,
8,
8,
8,
8,
9,
8,
6,
8,
6,
9,
8,
6,
7,
