TP_CND/tp_volsurf/mesures_bak/DS0012.CSV

Memory Length,4000,
Trigger Level,2.000E-02,
Source,CH1,
Probe,1X,
Vertical Units,V,
Vertical Scale,1.000E-01,
Vertical Position,0.000E+00,
Horizontal Units,s,
Horizontal Scale,2.500E-05,
Horizontal Position,4.800E-05,
Horizontal Mode,Main,
Sampling Period,1.000E-07,
Firmware, V1.24,
Time, ,
Mode,Fast,
Waveform Data,
3,
3,
2,
2,
2,
2,
2,
2,
3,
0,
2,
2,
2,
2,
2,
3,
2,
2,
3,
2,
2,
3,
3,
2,
2,
3,
3,
2,
3,
3,
1,
3,
2,
2,
2,
2,
3,
2,
2,
2,
3,
2,
4,
2,
3,
2,
2,
2,
3,
3,
2,
2,
3,
3,
2,
2,
4,
2,
2,
3,
2,
3,
2,
2,
3,
2,
3,
2,
2,
3,
3,
3,
3,
2,
2,
3,
2,
2,
2,
2,
2,
2,
2,
2,
3,
2,
4,
1,
4,
2,
2,
2,
2,
3,
3,
3,
2,
3,
4,
1,
2,
2,
3,
3,
2,
2,
2,
2,
4,
2,
2,
3,
2,
2,
2,
3,
3,
2,
3,
2,
2,
2,
2,
2,
2,
2,
1,
2,
1,
3,
2,
2,
2,
2,
2,
2,
2,
4,
2,
3,
4,
1,
2,
2,
2,
2,
2,
2,
3,
1,
2,
2,
3,
2,
2,
2,
2,
3,
2,
1,
2,
3,
2,
3,
2,
2,
3,
2,
2,
2,
2,
0,
2,
2,
2,
3,
2,
2,
2,
2,
1,
3,
3,
3,
3,
2,
2,
3,
2,
2,
2,
3,
3,
1,
1,
2,
2,
2,
3,
2,
2,
4,
2,
4,
2,
3,
2,
2,
1,
3,
3,
2,
2,
3,
2,
2,
2,
3,
2,
3,
3,
1,
4,
3,
1,
3,
2,
3,
2,
2,
3,
3,
3,
2,
1,
2,
4,
3,
3,
2,
2,
3,
2,
1,
2,
2,
3,
1,
3,
1,
2,
2,
2,
1,
4,
2,
3,
2,
2,
3,
2,
1,
2,
3,
2,
3,
3,
2,
2,
3,
2,
1,
2,
2,
2,
3,
2,
2,
3,
3,
2,
3,
2,
2,
1,
2,
2,
1,
2,
2,
2,
3,
2,
3,
3,
2,
3,
1,
2,
1,
3,
2,
2,
3,
3,
3,
2,
2,
2,
2,
2,
2,
3,
4,
2,
2,
2,
4,
2,
2,
2,
3,
2,
2,
3,
2,
3,
2,
3,
2,
2,
1,
2,
3,
3,
1,
2,
2,
3,
3,
2,
3,
2,
3,
2,
2,
2,
2,
1,
3,
3,
2,
2,
3,
2,
3,
3,
1,
3,
2,
2,
3,
1,
2,
3,
2,
2,
3,
2,
2,
2,
2,
3,
2,
2,
2,
3,
2,
2,
2,
2,
3,
3,
2,
2,
3,
3,
4,
2,
1,
2,
3,
1,
2,
2,
2,
3,
4,
3,
3,
2,
3,
2,
2,
3,
3,
3,
2,
2,
2,
2,
2,
3,
2,
2,
3,
2,
2,
2,
4,
3,
1,
3,
2,
4,
1,
3,
2,
2,
3,
3,
2,
2,
2,
3,
3,
3,
3,
3,
2,
2,
2,
3,
2,
3,
3,
2,
2,
3,
2,
2,
3,
2,
1,
3,
3,
2,
2,
3,
2,
2,
2,
3,
2,
3,
0,
0,
3,
3,
1,
2,
3,
3,
3,
4,
2,
2,
2,
2,
2,
2,
2,
3,
2,
2,
3,
2,
2,
3,
3,
2,
2,
3,
3,
2,
2,
2,
2,
2,
2,
2,
2,
2,
3,
2,
2,
3,
3,
2,
1,
2,
2,
3,
2,
2,
2,
3,
4,
2,
2,
3,
2,
2,
4,
3,
2,
3,
2,
2,
2,
2,
3,
2,
3,
3,
2,
2,
2,
2,
4,
2,
3,
3,
2,
3,
2,
2,
3,
2,
3,
2,
3,
4,
2,
3,
2,
2,
3,
2,
2,
2,
2,
3,
2,
3,
2,
2,
1,
2,
2,
3,
2,
2,
2,
3,
2,
2,
0,
2,
3,
2,
3,
2,
2,
2,
2,
2,
3,
3,
2,
4,
2,
3,
3,
3,
3,
4,
2,
2,
3,
2,
3,
2,
1,
3,
2,
2,
3,
2,
3,
2,
2,
3,
2,
2,
2,
2,
3,
2,
2,
3,
2,
2,
2,
1,
1,
2,
2,
2,
2,
2,
4,
2,
3,
2,
3,
1,
2,
3,
2,
2,
3,
3,
2,
4,
4,
3,
2,
2,
1,
3,
3,
2,
2,
2,
2,
3,
2,
2,
2,
2,
2,
2,
2,
3,
2,
2,
2,
2,
2,
2,
2,
2,
2,
0,
3,
2,
2,
3,
2,
2,
3,
2,
2,
2,
2,
2,
2,
2,
2,
2,
2,
3,
3,
2,
2,
2,
2,
2,
2,
3,
2,
2,
3,
2,
3,
3,
2,
2,
2,
2,
3,
4,
2,
4,
3,
3,
2,
4,
3,
3,
3,
3,
3,
2,
2,
4,
2,
3,
1,
2,
1,
2,
3,
3,
3,
2,
2,
2,
2,
3,
2,
3,
3,
3,
2,
3,
2,
2,
3,
3,
2,
2,
3,
2,
2,
2,
2,
2,
3,
3,
2,
3,
3,
3,
2,
2,
2,
2,
2,
2,
1,
2,
2,
2,
3,
4,
2,
3,
3,
3,
3,
2,
2,
2,
2,
3,
2,
3,
2,
3,
2,
2,
1,
3,
2,
3,
2,
2,
2,
2,
2,
3,
3,
3,
2,
2,
3,
2,
2,
2,
2,
1,
2,
2,
3,
4,
2,
3,
3,
3,
4,
2,
2,
2,
3,
2,
2,
2,
2,
2,
3,
2,
2,
2,
2,
2,
2,
4,
3,
2,
2,
2,
3,
2,
2,
2,
2,
3,
2,
2,
2,
4,
2,
2,
2,
3,
2,
2,
2,
1,
3,
0,
3,
2,
2,
1,
2,
1,
3,
2,
2,
2,
2,
2,
1,
3,
2,
2,
3,
2,
2,
3,
2,
4,
2,
0,
1,
2,
2,
3,
3,
2,
3,
3,
2,
2,
3,
2,
2,
3,
2,
2,
2,
3,
3,
2,
2,
2,
2,
2,
2,
4,
3,
4,
2,
3,
2,
2,
2,
2,
3,
2,
2,
2,
2,
2,
2,
2,
2,
3,
2,
3,
3,
2,
2,
3,
2,
2,
2,
3,
3,
3,
1,
3,
2,
2,
1,
2,
2,
3,
2,
3,
3,
2,
3,
1,
2,
2,
1,
2,
2,
3,
3,
2,
3,
3,
2,
3,
2,
2,
2,
2,
3,
2,
2,
2,
2,
2,
2,
2,
2,
3,
3,
2,
2,
2,
3,
4,
2,
2,
2,
2,
2,
3,
2,
2,
2,
2,
3,
3,
3,
3,
3,
1,
2,
2,
3,
3,
3,
2,
3,
2,
2,
1,
2,
2,
2,
2,
1,
3,
2,
2,
2,
2,
2,
3,
2,
3,
2,
2,
2,
3,
2,
3,
2,
2,
2,
2,
2,
2,
2,
4,
2,
2,
2,
3,
2,
3,
3,
3,
3,
2,
1,
3,
2,
2,
2,
2,
2,
2,
3,
3,
3,
2,
2,
2,
2,
2,
2,
1,
2,
3,
3,
3,
2,
3,
2,
2,
1,
1,
3,
2,
3,
2,
3,
2,
2,
3,
2,
3,
2,
2,
2,
3,
2,
2,
2,
3,
2,
3,
2,
2,
2,
2,
2,
2,
2,
4,
2,
2,
2,
4,
2,
2,
2,
3,
4,
3,
2,
2,
3,
1,
2,
2,
2,
3,
3,
2,
2,
3,
3,
2,
3,
3,
2,
1,
1,
2,
1,
2,
2,
2,
2,
2,
2,
2,
3,
2,
3,
4,
2,
3,
2,
2,
3,
2,
2,
3,
2,
2,
4,
3,
2,
3,
2,
3,
4,
3,
2,
2,
3,
2,
2,
2,
2,
2,
2,
2,
2,
2,
3,
2,
2,
2,
3,
1,
2,
2,
3,
2,
3,
3,
2,
2,
2,
3,
2,
2,
3,
3,
2,
3,
2,
2,
2,
3,
2,
3,
3,
3,
3,
2,
2,
2,
2,
2,
3,
1,
2,
3,
2,
2,
2,
2,
2,
3,
3,
3,
2,
2,
2,
3,
2,
2,
2,
2,
2,
2,
2,
2,
1,
3,
2,
3,
2,
2,
4,
3,
2,
3,
2,
2,
3,
2,
3,
2,
2,
3,
2,
3,
2,
3,
2,
2,
3,
2,
2,
4,
2,
2,
2,
3,
1,
2,
2,
4,
2,
2,
2,
3,
3,
2,
3,
2,
1,
2,
3,
2,
2,
2,
3,
2,
2,
2,
2,
2,
3,
3,
3,
2,
2,
2,
1,
3,
2,
3,
3,
4,
2,
2,
2,
3,
2,
3,
2,
3,
1,
3,
3,
3,
2,
2,
2,
3,
2,
2,
2,
2,
2,
3,
2,
1,
2,
2,
1,
4,
2,
2,
2,
2,
1,
3,
2,
3,
2,
2,
2,
4,
2,
3,
2,
4,
1,
3,
2,
2,
2,
2,
3,
3,
1,
3,
2,
2,
3,
3,
2,
2,
2,
2,
2,
2,
3,
4,
2,
3,
2,
2,
3,
3,
3,
2,
3,
3,
3,
3,
1,
3,
2,
2,
1,
3,
2,
1,
2,
3,
2,
2,
1,
2,
1,
2,
2,
2,
3,
3,
4,
3,
2,
3,
2,
2,
2,
2,
2,
3,
2,
2,
2,
3,
3,
3,
2,
2,
3,
2,
3,
1,
2,
2,
1,
3,
2,
2,
2,
2,
2,
2,
2,
2,
3,
4,
3,
2,
0,
2,
2,
2,
2,
2,
2,
3,
2,
4,
2,
2,
3,
2,
2,
2,
1,
2,
2,
3,
2,
3,
2,
2,
2,
2,
3,
3,
2,
2,
2,
3,
3,
2,
2,
2,
3,
2,
2,
2,
2,
2,
3,
3,
0,
1,
2,
2,
2,
2,
2,
2,
-3,
27,
52,
-26,
-44,
13,
-1,
-3,
20,
-4,
-9,
11,
4,
0,
4,
0,
1,
4,
0,
1,
2,
0,
2,
-128,
-128,
127,
-128,
-128,
-128,
-128,
-128,
127,
127,
-128,
-128,
127,
127,
-128,
-128,
18,
127,
-48,
-128,
102,
127,
-78,
-128,
70,
124,
-40,
-72,
58,
43,
-58,
-30,
74,
42,
-54,
-42,
43,
38,
-17,
-16,
14,
8,
-17,
4,
26,
9,
-21,
-6,
24,
17,
-1,
-2,
4,
0,
-4,
4,
5,
-4,
-9,
2,
16,
9,
-4,
0,
10,
3,
-1,
3,
1,
0,
-1,
8,
6,
8,
4,
-3,
-1,
3,
6,
-1,
0,
8,
10,
2,
-10,
-7,
15,
16,
-12,
-17,
16,
32,
0,
-32,
-15,
24,
31,
-1,
-24,
-9,
20,
20,
-2,
-13,
3,
14,
6,
-6,
-3,
7,
6,
-1,
-4,
3,
6,
4,
0,
2,
4,
4,
2,
1,
3,
2,
2,
4,
3,
1,
2,
3,
3,
3,
2,
3,
3,
3,
4,
3,
2,
4,
4,
3,
2,
2,
1,
2,
2,
2,
1,
3,
3,
3,
3,
2,
3,
4,
4,
3,
2,
2,
2,
2,
2,
4,
1,
1,
3,
3,
3,
2,
2,
2,
3,
3,
3,
1,
2,
3,
2,
1,
3,
2,
3,
2,
2,
3,
2,
3,
2,
3,
3,
3,
3,
3,
2,
3,
2,
1,
2,
0,
2,
2,
3,
2,
2,
3,
3,
3,
3,
2,
1,
2,
3,
2,
3,
2,
2,
2,
2,
2,
2,
3,
3,
2,
2,
2,
3,
4,
3,
2,
2,
2,
2,
1,
4,
3,
2,
1,
0,
2,
2,
2,
3,
1,
3,
2,
3,
2,
4,
3,
2,
2,
2,
2,
2,
4,
3,
2,
3,
2,
3,
2,
2,
2,
2,
3,
2,
2,
2,
1,
2,
3,
2,
2,
3,
3,
3,
3,
3,
2,
3,
3,
-2,
0,
22,
26,
-28,
-60,
12,
91,
39,
-77,
-77,
38,
93,
15,
-70,
-44,
40,
56,
-2,
-40,
-12,
24,
20,
-6,
-12,
2,
12,
5,
-3,
0,
6,
4,
0,
0,
4,
4,
3,
1,
2,
2,
3,
2,
2,
2,
2,
2,
4,
4,
2,
4,
2,
2,
3,
4,
2,
2,
2,
2,
3,
3,
3,
2,
3,
3,
3,
2,
-5,
-1,
16,
20,
-8,
-28,
-2,
34,
24,
-17,
-28,
4,
29,
13,
-13,
-14,
7,
16,
6,
-6,
-2,
6,
6,
1,
0,
3,
4,
2,
0,
1,
3,
3,
2,
2,
2,
3,
2,
1,
2,
3,
2,
3,
3,
2,
1,
2,
3,
3,
3,
2,
2,
2,
0,
3,
2,
2,
2,
2,
2,
2,
3,
3,
2,
1,
-1,
0,
10,
11,
-6,
-17,
2,
24,
14,
-12,
-16,
6,
20,
8,
-9,
-7,
6,
12,
4,
-4,
-1,
6,
6,
3,
0,
2,
3,
4,
3,
2,
3,
3,
2,
2,
3,
3,
2,
2,
2,
3,
3,
2,
2,
2,
3,
3,
2,
2,
2,
3,
2,
2,
1,
2,
2,
3,
3,
2,
3,
2,
3,
3,
3,
2,
0,
2,
8,
9,
-4,
-10,
4,
18,
10,
-8,
-10,
6,
15,
4,
-6,
-4,
6,
9,
3,
-2,
1,
5,
5,
2,
2,
3,
4,
3,
2,
3,
3,
2,
3,
2,
2,
2,
4,
2,
2,
4,
3,
2,
2,
2,
3,
3,
1,
3,
2,
3,
2,
1,
2,
3,
2,
2,
3,
3,
2,
3,
3,
4,
4,
3,
0,
2,
6,
6,
-4,
-5,
4,
13,
6,
-7,
-4,
7,
11,
2,
-5,
0,
7,
6,
1,
-1,
2,
5,
4,
0,
0,
3,
2,
2,
2,
1,
0,
2,
3,
3,
2,
2,
2,
2,
3,
3,
2,
2,
2,
3,
3,
3,
1,
1,
2,
3,
3,
3,
2,
3,
4,
3,
2,
2,
4,
4,
3,
3,
2,
2,
1,
2,
6,
4,
0,
-3,
5,
10,
3,
-4,
-2,
6,
10,
0,
-4,
0,
7,
5,
1,
0,
1,
4,
3,
2,
2,
3,
4,
2,
2,
3,
2,
2,
1,
2,
2,
3,
2,
1,
2,
2,
2,
3,
3,
2,
1,
2,
2,
3,
3,
2,
1,
3,
4,
4,
2,
2,
3,
3,
2,
2,
3,
3,
2,
2,
2,
2,
4,
4,
0,
-1,
4,
8,
3,
-3,
-1,
5,
8,
2,
-2,
2,
6,
4,
2,
2,
3,
4,
4,
1,
2,
3,
3,
3,
3,
2,
2,
2,
2,
1,
2,
2,
3,
2,
2,
2,
3,
2,
2,
2,
3,
2,
2,
2,
3,
2,
2,
3,
2,
2,
2,
2,
3,
4,
3,
2,
2,
3,
2,
2,
3,
3,
4,
2,
0,
0,
4,
6,
3,
-1,
0,
4,
5,
2,
0,
2,
3,
3,
2,
2,
3,
2,
3,
2,
2,
2,
2,
4,
3,
3,
3,
2,
2,
2,
2,
2,
2,
2,
3,
2,
3,
3,
3,
3,
2,
2,
2,
3,
2,
2,
3,
2,
4,
2,
3,
2,
2,
2,
2,
2,
3,
2,
2,
2,
1,
3,
3,
3,
0,
1,
3,
4,
2,
0,
1,
4,
4,
2,
0,
1,
4,
3,
2,
1,
4,
4,
3,
1,
2,
3,
3,
2,
3,
2,
3,
3,
2,
2,
2,
3,
3,
2,
2,
4,
2,
2,
3,
2,
2,
2,
3,
3,
2,
3,
2,
3,
2,
2,
2,
2,
2,
3,
2,
3,
3,
2,
2,
2,
3,
2,
4,
2,
2,
1,
4,
5,
2,
1,
1,
4,
4,
0,
1,
2,
4,
2,
1,
2,
3,
3,
3,
2,
1,
3,
4,
2,
2,
4,
3,
2,
3,
2,
3,
3,
2,
2,
3,
2,
2,
3,
3,
3,
3,
2,
2,
3,
3,
3,
3,
4,
1,
3,
2,
3,
2,
2,
3,
2,
2,
2,
2,
2,
2,
1,
3,
3,
2,
1,
3,
4,
3,
1,
1,
4,
4,
2,
1,
2,
4,
3,
2,
1,
1,
4,
3,
3,
2,
2,
2,
3,
2,
3,
2,
2,
3,
3,
4,
3,
4,
3,
2,
2,
3,
2,
3,
1,
2,
3,
1,
1,
2,
3,
2,
3,
3,
3,
2,
3,
2,
2,
2,
3,
2,
2,
1,
2,
3,
3,
2,
4,
2,
2,
2,
3,
3,
2,
2,
3,
2,
1,
2,
2,
2,
2,
2,
2,
3,
2,
2,
2,
3,
3,
2,
2,
3,
3,
2,
2,
2,
2,
3,
1,
2,
2,
4,
2,
2,
2,
2,
2,
3,
2,
2,
2,
2,
3,
3,
2,
2,
2,
3,
3,
3,
3,
3,
2,
3,
1,
2,
4,
3,
2,
3,
3,
2,
2,
2,
3,
2,
2,
2,
4,
3,
2,
1,
2,
4,
4,
4,
2,
2,
2,
3,
3,
3,
3,
4,
2,
2,
3,
3,
2,
2,
2,
4,
2,
2,
3,
3,
2,
2,
2,
2,
3,
3,
2,
3,
2,
3,
2,
3,
2,
2,
3,
2,
2,
2,
3,
2,
3,
2,
2,
2,
2,
2,
2,
2,
2,
2,
2,
2,
3,
2,
0,
4,
4,
4,
2,
2,
3,
2,
4,
3,
3,
2,
3,
4,
2,
3,
3,
2,
2,
2,
2,
2,
3,
3,
4,
3,
3,
3,
2,
2,
1,
3,
3,
2,
2,
2,
2,
2,
2,
2,
3,
3,
1,
4,
2,
2,
2,
3,
3,
3,
2,
1,
1,
2,
2,
2,
3,
3,
3,
2,
2,
4,
4,
3,
2,
2,
3,
3,
2,
3,
2,
5,
3,
2,
2,
2,
3,
3,
3,
3,
2,
2,
3,
3,
2,
2,
2,
3,
2,
2,
4,
4,
2,
2,
3,
3,
2,
3,
3,
2,
3,
2,
3,
3,
2,
2,
3,
3,
3,
3,
2,
2,
4,
2,
2,
2,
3,
2,
2,
2,
3,
2,
2,
2,
3,
2,
3,
4,
1,
3,
3,
3,
2,
2,
4,
2,
2,
3,
2,
4,
2,
3,
3,
3,
2,
3,
2,
1,
3,
3,
2,
2,
2,
3,
3,
3,
2,
3,
2,
2,
1,
2,
2,
3,
2,
2,
3,
2,
4,
3,
3,
2,
2,
1,
3,
3,
3,
2,
2,
3,
2,
3,
3,
2,
2,
3,
4,
2,
1,
3,
3,
3,
3,
2,
3,
3,
3,
2,
4,
2,
3,
3,
2,
2,
3,
3,
2,
3,
3,
2,
2,
3,
4,
3,
2,
1,
2,
3,
2,
2,
3,
2,
3,
3,
2,
3,
2,
3,
3,
2,
3,
3,
2,
3,
3,
2,
3,
2,
2,
2,
3,
2,
3,
2,
3,
3,
2,
2,
3,
3,
3,
3,
1,
3,
3,
3,
2,
2,
2,
3,
2,
2,
3,
3,
0,
2,
3,
3,
3,
2,
3,
4,
2,
2,
2,
3,
2,
3,
3,
3,
2,
2,
3,
2,
3,
2,
2,
2,
3,
2,
4,
3,
3,
2,
2,
2,
2,
2,
2,
3,
3,
3,
3,
2,
3,
3,
2,
2,
3,
2,
2,
3,
3,
2,
4,
2,
2,
3,
2,
3,
2,
1,
2,
3,
2,
2,
4,
3,
2,
3,
3,
4,
2,
2,
3,
4,
3,
2,
2,
3,
2,
2,
2,
3,
2,
2,
3,
2,
2,
3,
3,
2,
3,
2,
2,
2,
2,
2,
3,
3,
3,
2,
2,
2,
2,
3,
3,
2,
2,
2,
2,
2,
2,
3,
3,
3,
4,
3,
2,
2,
3,
2,
3,
2,
3,
2,
2,
2,
3,
3,
3,
2,
2,
2,
2,
3,
3,
2,
3,
2,
2,
2,
2,
3,
2,
3,
2,
2,
3,
3,
2,
3,
3,
1,
3,
3,
2,
2,
2,
2,
3,
3,
2,
4,
3,
3,
2,
2,
3,
2,
3,
3,
3,
1,
3,
2,
2,
2,
2,
3,
3,
3,
2,
2,
3,
3,
2,
3,
3,
2,
1,
3,
2,
2,
3,
4,
2,
4,
2,
3,
3,
3,
2,
3,
3,
2,
3,
3,
2,
2,
2,
3,
3,
2,
3,
2,
3,
2,
2,
3,
2,
3,
2,
2,
3,
2,
2,
2,
3,
2,
3,
2,
2,
3,
2,
3,
3,
2,
2,
4,
2,
2,
3,
2,
2,
3,
3,
2,
3,
2,
3,
2,
2,
2,
2,
3,
2,
2,
3,
2,
3,
3,
2,
2,
2,
2,
2,
3,
2,
4,
3,
3,
2,
4,
4,
2,
2,
2,
2,
2,
1,
4,
4,
2,
3,
3,
4,
2,
2,
2,
4,
2,
2,
3,
2,
2,
2,
2,
2,
2,
3,
2,
3,
2,
2,
4,
2,
4,
2,
2,
2,
2,
3,
2,
2,
3,
3,
1,
2,
2,
2,
3,
2,
2,
2,
2,
2,
3,
1,
4,
2,
2,
3,
3,
2,
1,
3,
2,
3,
2,
2,
2,
3,
2,
2,
3,
2,
2,
3,
2,
2,
2,
2,
2,
3,
4,
2,
1,
2,
2,
3,
4,
4,
3,
3,
3,
2,
2,
2,
2,
2,
3,
2,
2,
2,
4,
3,
2,
3,
2,
2,
2,
3,
0,
2,
2,
2,
2,
2,
2,
2,
3,
2,
2,
1,
3,
3,
3,
2,
3,
3,
1,
4,
3,
2,
2,
3,
2,
2,
1,
2,
3,
3,
4,
3,
2,
4,
4,
3,
4,
2,
2,
3,
2,
2,
1,
2,
2,
3,
3,
3,
3,
2,
2,
2,
3,
2,
2,
2,
2,
2,
2,
1,
3,
2,
2,
2,
2,
2,
2,
2,
3,
2,
3,
2,
3,
2,
2,
2,
2,
2,
4,
4,
2,
2,
2,
3,
2,
3,
3,
3,
3,
3,
3,
2,
3,
3,
3,
2,
2,
2,
2,
3,
2,
1,
2,
3,
3,
2,
2,
3,
2,
3,
3,
3,
3,
2,
2,
2,
3,
2,
2,
2,
3,
2,
3,
3,
2,
2,
2,
3,
2,
2,
2,
3,
4,
2,
2,
3,
2,
3,
3,
3,
3,
4,
2,
2,
2,
3,
2,
1,
2,
2,
2,
2,
3,
2,
2,
2,
2,
2,
2,
2,
3,
3,
2,
4,
2,
2,
3,
3,
3,
2,
2,
2,
2,
3,
2,
2,
3,
3,
2,
3,
1,
2,
3,
4,
4,
2,
3,
3,
1,
3,
3,
2,
4,
2,
1,
3,
3,
3,
2,
2,
3,
1,
3,
2,
2,
2,
3,
2,
2,
2,
2,
2,
2,
2,
3,
2,
2,
2,
2,
3,
3,
2,
2,
2,
4,
2,
3,
3,
2,
3,
3,
2,
1,
1,
2,
2,
3,
1,
3,
2,
3,
2,
2,
2,
2,
2,
2,
3,
2,
2,
2,
4,
2,
2,
2,
2,
3,
2,
2,
2,
3,
3,
2,
3,
2,
2,
2,
3,
2,
3,
3,
1,
2,
1,
2,
3,
2,
2,
3,
2,
2,
2,
3,
3,
3,
3,
2,
2,
2,
2,
2,
2,
2,
2,
2,
2,
2,
2,
4,
3,
2,
2,
2,
2,
2,
2,
2,
2,
3,
2,
2,
3,
2,
3,
1,
3,
3,
2,
4,
3,
3,
2,
2,
3,
2,
2,
3,
3,
2,
2,
3,
3,
3,
2,
3,
2,
2,
2,
2,
2,
3,
2,
3,
2,
2,
2,
2,
2,
3,
2,
2,
3,
2,
2,
2,
3,
2,
2,
1,
2,
3,
2,
2,
2,
2,
2,
3,
3,
2,
2,
3,
2,
3,
2,
2,
4,
2,
2,
1,
2,
2,
3,
2,
2,
1,
3,
3,
3,
2,
2,
4,
3,
2,
3,
3,
2,
3,
3,
2,
2,
3,
3,
2,
2,
2,
2,
2,
3,
3,
2,
2,
3,
2,
3,
2,
2,
2,
1,
3,
3,
2,
2,
2,
4,
2,
3,
3,
3,
3,
3,
3,
2,
2,
3,
2,
2,
4,
2,
3,
2,
2,
2,
2,
2,
4,
1,
3,
2,
3,
1,
2,
3,
3,
1,
1,
2,
2,
3,
3,
2,
2,
2,
4,
2,
2,
2,
2,
3,
2,
3,
2,
3,
3,
2,
2,
2,
2,
2,
3,
2,
3,
2,
3,
3,
2,
2,
2,
3,
3,
3,
4,
3,
1,
2,
3,
2,
4,
1,
3,
3,
2,
2,
2,
2,
2,
2,
2,
2,
2,
3,
3,
2,
2,
2,
2,
3,
3,
3,
3,
2,
3,
3,
3,
2,
2,
3,
3,
3,
3,
3,
2,
3,
3,
1,
2,
3,
2,
3,
2,
4,
2,
2,
4,
3,
2,
2,
3,
3,
1,
2,
3,
3,
2,
3,
4,
2,
2,
3,
3,
2,
2,
4,
2,
2,
3,
3,
2,
1,
2,
2,
4,
2,
2,
2,
3,
2,
2,
2,
2,
3,
2,
2,
1,
2,
2,
3,
3,
3,
3,
2,
2,
2,
3,
2,
3,
3,
3,
2,
2,
3,
2,
3,
3,
3,
3,
2,
3,
1,
4,
3,
3,
3,
2,
2,
4,
3,
3,
2,
2,
2,
3,
3,
2,
2,
2,
2,
2,
3,
2,
3,
3,
3,
2,
2,
4,
2,
2,
2,
4,
3,
3,
2,
3,
2,
2,
3,
2,
2,
3,
1,
3,
4,
4,
2,
3,
2,
2,
2,
2,
2,
2,
4,
3,
2,
2,
2,
3,
4,
2,
2,
2,
2,
3,
2,
2,
2,
2,
2,
3,
3,
3,
2,
2,
2,
2,
2,
2,
3,
2,
3,
2,
2,
2,
3,
3,
3,
3,
1,
3,
2,
2,
3,
2,
3,
2,
1,
2,
2,
3,
3,
2,
2,
