TP_CND/tp_volsurf/mesures/DS0003.CSV

Memory Length,4000,
Trigger Level,-3.000E-02,
Source,CH1,
Probe,1X,
Vertical Units,V,
Vertical Scale,1.000E-01,
Vertical Position,-1.600E-02,
Horizontal Units,s,
Horizontal Scale,5.000E-06,
Horizontal Position,3.320E-05,
Horizontal Mode,Main,
Sampling Period,2.000E-08,
Firmware, V1.24,
Time, ,
Mode,Fast,
Waveform Data,
2,
2,
2,
3,
2,
2,
3,
2,
3,
2,
3,
0,
1,
1,
1,
1,
0,
2,
1,
1,
2,
2,
3,
4,
4,
4,
3,
4,
3,
2,
4,
3,
2,
1,
0,
2,
2,
1,
1,
1,
2,
1,
2,
3,
2,
4,
3,
3,
4,
4,
4,
4,
3,
3,
2,
3,
0,
2,
0,
1,
1,
2,
0,
2,
2,
2,
2,
3,
3,
4,
4,
4,
4,
3,
4,
3,
2,
3,
3,
2,
2,
1,
2,
2,
2,
1,
1,
2,
2,
3,
3,
2,
3,
2,
3,
3,
2,
2,
2,
0,
2,
3,
1,
1,
1,
2,
4,
3,
3,
4,
3,
5,
4,
4,
4,
4,
3,
3,
2,
0,
1,
0,
1,
0,
0,
0,
0,
0,
0,
1,
1,
2,
4,
4,
6,
5,
6,
5,
5,
6,
6,
4,
3,
4,
1,
1,
0,
0,
0,
0,
-2,
0,
0,
1,
0,
2,
1,
4,
4,
3,
4,
6,
5,
6,
6,
5,
3,
4,
3,
3,
2,
0,
2,
0,
0,
0,
-1,
0,
0,
0,
1,
2,
2,
3,
4,
4,
5,
4,
5,
4,
5,
5,
3,
3,
3,
2,
0,
0,
1,
-1,
1,
1,
0,
1,
2,
2,
2,
2,
4,
2,
4,
3,
3,
4,
4,
4,
5,
2,
4,
3,
3,
2,
2,
2,
2,
1,
2,
0,
0,
2,
2,
0,
2,
2,
1,
2,
3,
2,
3,
3,
4,
3,
3,
4,
4,
4,
4,
4,
2,
3,
1,
4,
4,
1,
2,
2,
0,
0,
0,
-1,
-1,
1,
0,
2,
1,
3,
2,
3,
3,
4,
4,
4,
6,
4,
5,
5,
3,
2,
3,
2,
1,
1,
0,
-1,
0,
0,
0,
1,
0,
0,
2,
3,
4,
4,
4,
5,
4,
4,
3,
3,
3,
1,
3,
1,
3,
0,
1,
1,
0,
1,
1,
0,
2,
1,
2,
3,
3,
2,
3,
3,
3,
3,
2,
2,
3,
1,
2,
2,
3,
3,
1,
1,
3,
2,
4,
2,
3,
4,
2,
3,
2,
3,
17,
35,
31,
8,
-15,
-28,
-64,
23,
-11,
8,
-8,
2,
2,
-2,
5,
-1,
6,
5,
3,
4,
3,
3,
3,
2,
3,
1,
2,
2,
1,
2,
2,
2,
2,
3,
3,
3,
2,
2,
2,
2,
2,
2,
2,
4,
4,
4,
3,
2,
3,
3,
2,
2,
1,
-1,
2,
0,
2,
-1,
2,
2,
2,
3,
4,
4,
4,
6,
4,
4,
4,
3,
3,
2,
3,
0,
1,
-1,
0,
0,
1,
0,
-1,
0,
2,
2,
4,
3,
5,
4,
6,
6,
6,
4,
4,
4,
2,
1,
1,
0,
-1,
0,
0,
0,
-1,
0,
1,
2,
1,
2,
3,
4,
4,
4,
4,
4,
4,
3,
2,
2,
2,
1,
1,
0,
1,
1,
0,
1,
2,
2,
4,
3,
4,
3,
3,
4,
3,
3,
4,
2,
2,
0,
1,
0,
2,
1,
0,
2,
1,
2,
4,
2,
3,
4,
3,
4,
4,
3,
3,
3,
3,
1,
2,
0,
-1,
0,
0,
0,
1,
2,
1,
3,
4,
4,
4,
5,
4,
4,
5,
4,
2,
2,
3,
2,
0,
0,
-1,
0,
1,
-2,
-1,
0,
1,
1,
1,
4,
4,
4,
5,
5,
6,
4,
6,
4,
4,
3,
2,
1,
0,
0,
0,
0,
1,
-1,
0,
0,
0,
1,
1,
2,
3,
4,
3,
5,
5,
4,
5,
5,
3,
3,
4,
2,
1,
1,
1,
0,
0,
-1,
0,
0,
1,
0,
2,
2,
2,
3,
3,
3,
4,
4,
4,
3,
3,
4,
4,
4,
1,
0,
1,
1,
2,
1,
2,
1,
2,
2,
2,
3,
1,
4,
4,
3,
4,
3,
3,
2,
3,
2,
0,
2,
1,
0,
2,
1,
1,
0,
1,
0,
2,
2,
2,
2,
4,
3,
4,
4,
3,
3,
5,
4,
4,
4,
3,
1,
1,
1,
0,
1,
0,
0,
0,
0,
1,
2,
2,
2,
2,
3,
3,
3,
2,
4,
4,
3,
3,
2,
2,
2,
2,
2,
2,
3,
1,
3,
2,
2,
4,
2,
3,
4,
2,
2,
0,
1,
1,
2,
2,
2,
1,
2,
1,
2,
2,
2,
3,
4,
4,
4,
4,
4,
4,
3,
4,
2,
3,
2,
1,
0,
1,
-1,
0,
0,
-1,
0,
0,
1,
3,
2,
4,
4,
6,
5,
4,
4,
4,
5,
5,
4,
3,
3,
2,
0,
-1,
0,
0,
0,
0,
0,
0,
0,
0,
2,
2,
4,
4,
3,
4,
4,
4,
3,
5,
3,
3,
2,
2,
2,
1,
1,
2,
0,
1,
0,
1,
1,
2,
1,
2,
2,
3,
2,
3,
2,
2,
3,
2,
3,
1,
3,
2,
2,
2,
3,
2,
2,
2,
3,
3,
2,
2,
4,
3,
3,
1,
2,
3,
3,
1,
1,
1,
2,
2,
3,
0,
1,
2,
1,
1,
2,
2,
4,
2,
3,
4,
3,
3,
4,
3,
4,
3,
2,
3,
2,
2,
2,
2,
0,
1,
1,
1,
2,
0,
1,
2,
2,
2,
3,
4,
4,
4,
4,
4,
3,
3,
4,
2,
3,
2,
0,
1,
1,
2,
0,
1,
2,
1,
2,
3,
2,
3,
3,
3,
3,
2,
4,
2,
1,
2,
2,
0,
0,
3,
2,
1,
2,
2,
3,
2,
3,
3,
2,
4,
4,
4,
4,
3,
4,
4,
2,
3,
1,
1,
2,
0,
3,
1,
0,
1,
0,
2,
2,
2,
3,
3,
4,
3,
4,
4,
3,
3,
3,
3,
3,
3,
2,
3,
2,
2,
2,
1,
2,
3,
1,
1,
3,
2,
3,
3,
2,
3,
2,
3,
2,
2,
2,
1,
0,
1,
1,
2,
2,
1,
2,
2,
3,
3,
3,
3,
4,
4,
4,
4,
4,
3,
4,
4,
3,
4,
2,
1,
2,
1,
0,
0,
0,
0,
0,
0,
2,
2,
2,
2,
3,
3,
4,
3,
4,
4,
4,
4,
4,
3,
2,
2,
2,
2,
1,
0,
1,
2,
2,
2,
2,
2,
2,
1,
2,
2,
3,
4,
3,
2,
2,
3,
4,
3,
4,
4,
2,
4,
2,
2,
3,
2,
3,
2,
2,
2,
1,
2,
0,
1,
2,
1,
2,
1,
2,
2,
4,
2,
3,
4,
4,
4,
4,
4,
4,
4,
3,
3,
2,
1,
1,
0,
0,
0,
0,
0,
2,
2,
2,
2,
3,
2,
3,
5,
4,
4,
3,
5,
4,
3,
4,
3,
3,
2,
2,
2,
3,
2,
1,
2,
2,
1,
1,
0,
4,
3,
3,
2,
4,
5,
4,
4,
4,
4,
3,
3,
2,
2,
1,
1,
0,
0,
0,
1,
1,
0,
2,
3,
4,
3,
4,
5,
4,
4,
6,
4,
4,
4,
2,
3,
2,
1,
2,
0,
0,
-1,
0,
-1,
1,
2,
1,
2,
3,
3,
4,
3,
3,
5,
4,
4,
4,
5,
3,
3,
1,
2,
2,
2,
2,
0,
0,
2,
1,
2,
2,
2,
2,
4,
2,
4,
4,
4,
4,
4,
4,
4,
2,
3,
3,
3,
2,
2,
2,
2,
3,
2,
2,
1,
0,
2,
2,
2,
2,
2,
3,
2,
3,
4,
2,
3,
2,
3,
2,
1,
3,
2,
1,
1,
2,
1,
1,
2,
2,
2,
3,
1,
4,
3,
3,
4,
3,
3,
2,
3,
1,
2,
1,
2,
0,
3,
2,
1,
1,
2,
1,
2,
3,
2,
3,
2,
4,
3,
3,
4,
2,
2,
3,
3,
2,
3,
2,
1,
2,
2,
1,
2,
4,
2,
2,
2,
1,
3,
2,
2,
3,
2,
2,
2,
2,
3,
3,
3,
3,
3,
3,
3,
3,
4,
3,
3,
2,
3,
2,
0,
0,
1,
0,
1,
1,
1,
1,
0,
2,
2,
3,
4,
2,
4,
5,
4,
4,
4,
4,
3,
3,
3,
2,
2,
2,
1,
1,
2,
0,
2,
0,
1,
1,
2,
2,
1,
2,
2,
1,
3,
3,
3,
4,
2,
3,
4,
2,
4,
3,
2,
3,
3,
3,
2,
2,
2,
1,
2,
1,
2,
2,
0,
2,
2,
1,
2,
2,
2,
3,
3,
3,
4,
4,
5,
4,
4,
4,
2,
2,
2,
2,
2,
2,
1,
0,
0,
0,
1,
1,
0,
2,
2,
2,
3,
2,
4,
4,
4,
5,
4,
5,
4,
5,
4,
3,
3,
4,
0,
1,
1,
0,
0,
-1,
0,
0,
0,
2,
1,
2,
3,
2,
4,
4,
5,
4,
4,
4,
4,
4,
4,
3,
3,
2,
3,
2,
1,
1,
1,
2,
0,
2,
2,
3,
4,
3,
4,
3,
5,
4,
3,
4,
3,
2,
2,
1,
0,
1,
2,
1,
1,
1,
1,
1,
1,
2,
2,
2,
2,
4,
2,
3,
4,
3,
3,
2,
4,
4,
3,
3,
2,
3,
2,
2,
2,
2,
2,
3,
2,
1,
2,
3,
2,
2,
2,
2,
2,
1,
2,
3,
3,
2,
0,
2,
1,
2,
1,
2,
1,
3,
3,
3,
4,
2,
3,
2,
4,
2,
2,
3,
3,
4,
4,
4,
4,
3,
1,
2,
3,
1,
1,
2,
2,
2,
0,
1,
2,
1,
2,
2,
2,
2,
3,
3,
3,
4,
3,
4,
4,
4,
3,
4,
4,
2,
2,
1,
2,
0,
0,
1,
1,
1,
1,
1,
2,
2,
3,
3,
4,
2,
2,
4,
3,
4,
3,
4,
4,
4,
3,
3,
4,
3,
3,
2,
2,
2,
1,
2,
1,
1,
2,
2,
2,
2,
1,
2,
3,
2,
3,
4,
2,
5,
4,
2,
3,
3,
3,
3,
3,
2,
1,
2,
0,
1,
2,
0,
1,
0,
2,
2,
2,
3,
3,
3,
5,
4,
4,
4,
4,
4,
5,
4,
3,
3,
3,
2,
1,
1,
0,
0,
0,
0,
0,
1,
0,
0,
2,
3,
4,
4,
4,
4,
4,
4,
3,
3,
2,
2,
2,
3,
2,
0,
0,
-1,
1,
0,
0,
1,
0,
2,
3,
3,
3,
4,
4,
4,
3,
4,
4,
3,
2,
3,
2,
1,
3,
2,
3,
1,
0,
2,
1,
2,
2,
2,
4,
2,
3,
3,
4,
3,
4,
4,
3,
2,
2,
1,
1,
1,
2,
0,
2,
0,
2,
2,
2,
3,
3,
4,
4,
3,
4,
3,
3,
2,
4,
3,
2,
2,
2,
1,
1,
0,
0,
2,
3,
0,
2,
1,
3,
2,
3,
3,
3,
3,
3,
2,
2,
2,
2,
1,
2,
3,
2,
2,
3,
1,
0,
2,
2,
3,
2,
2,
2,
4,
3,
2,
3,
3,
2,
2,
3,
2,
2,
4,
0,
3,
1,
3,
2,
3,
2,
3,
2,
4,
2,
4,
2,
2,
3,
2,
3,
2,
3,
2,
2,
1,
3,
2,
3,
1,
2,
2,
1,
4,
3,
3,
2,
2,
3,
3,
4,
3,
2,
3,
3,
2,
2,
2,
3,
2,
2,
3,
3,
1,
2,
2,
2,
2,
2,
1,
3,
2,
2,
3,
3,
4,
3,
4,
3,
3,
3,
2,
2,
2,
3,
2,
1,
2,
2,
3,
2,
1,
2,
3,
2,
3,
4,
2,
4,
4,
2,
4,
2,
4,
3,
2,
1,
-1,
1,
-1,
-2,
-2,
-2,
-2,
-1,
-2,
1,
3,
5,
9,
14,
17,
20,
22,
24,
24,
22,
18,
12,
5,
-4,
-14,
-22,
-31,
-38,
-42,
-44,
-44,
-38,
-30,
-18,
-8,
8,
22,
36,
47,
55,
62,
63,
62,
56,
46,
33,
16,
1,
-16,
-32,
-44,
-56,
-61,
-64,
-62,
-56,
-46,
-32,
-17,
0,
19,
33,
48,
59,
64,
67,
65,
59,
48,
36,
20,
4,
-12,
-27,
-41,
-50,
-56,
-57,
-57,
-49,
-40,
-29,
-13,
0,
16,
31,
40,
50,
56,
56,
54,
49,
41,
30,
16,
4,
-9,
-21,
-32,
-40,
-44,
-45,
-42,
-38,
-30,
-22,
-9,
2,
14,
23,
31,
38,
40,
40,
40,
33,
27,
19,
11,
1,
-8,
-15,
-20,
-24,
-27,
-26,
-24,
-21,
-15,
-9,
-1,
6,
10,
16,
20,
22,
23,
23,
20,
17,
12,
6,
2,
-4,
-7,
-10,
-13,
-14,
-13,
-12,
-9,
-7,
-3,
2,
5,
8,
12,
14,
14,
14,
12,
12,
11,
6,
4,
1,
0,
-2,
-6,
-4,
-6,
-6,
-4,
-3,
-2,
0,
2,
5,
5,
8,
8,
8,
8,
8,
7,
4,
4,
2,
0,
-2,
-2,
-2,
-3,
-2,
0,
2,
4,
7,
10,
13,
13,
15,
16,
12,
10,
6,
-1,
-7,
-12,
-19,
-24,
-27,
-28,
-26,
-25,
-19,
-11,
0,
8,
19,
26,
36,
40,
44,
46,
41,
38,
30,
18,
8,
-2,
-13,
-23,
-30,
-36,
-41,
-41,
-38,
-33,
-25,
-17,
-6,
4,
14,
22,
31,
36,
39,
40,
37,
33,
27,
20,
10,
1,
-7,
-14,
-20,
-25,
-27,
-26,
-24,
-21,
-17,
-11,
-4,
2,
8,
15,
18,
22,
24,
24,
23,
20,
18,
12,
7,
1,
-2,
-6,
-10,
-11,
-14,
-15,
-12,
-11,
-8,
-5,
-2,
2,
4,
8,
11,
12,
13,
14,
12,
12,
10,
6,
5,
3,
2,
0,
0,
-3,
-3,
-3,
-4,
-3,
-1,
0,
1,
2,
1,
2,
3,
2,
4,
3,
2,
1,
2,
1,
2,
3,
3,
2,
3,
4,
4,
6,
5,
5,
6,
6,
5,
4,
2,
2,
2,
0,
-1,
-2,
-3,
-3,
-2,
-2,
-2,
-1,
0,
1,
3,
4,
4,
5,
6,
7,
8,
7,
6,
6,
5,
4,
3,
3,
2,
1,
0,
-1,
0,
-2,
-1,
-1,
-1,
-1,
-2,
0,
1,
1,
3,
3,
6,
4,
6,
5,
7,
4,
5,
5,
5,
2,
3,
2,
1,
0,
2,
-1,
0,
-2,
0,
0,
0,
1,
1,
2,
4,
4,
4,
4,
4,
4,
4,
4,
4,
2,
2,
1,
0,
0,
0,
1,
1,
1,
3,
1,
2,
3,
2,
3,
3,
4,
3,
3,
4,
4,
4,
3,
2,
2,
2,
2,
2,
3,
2,
1,
2,
2,
3,
2,
3,
4,
2,
3,
0,
2,
2,
2,
2,
2,
2,
2,
2,
0,
2,
1,
1,
2,
3,
3,
3,
3,
4,
4,
3,
4,
4,
3,
4,
4,
4,
3,
2,
0,
1,
-1,
-1,
-1,
-2,
-2,
-1,
-1,
0,
2,
3,
4,
6,
6,
7,
9,
6,
7,
7,
6,
8,
4,
4,
2,
0,
-3,
-2,
-4,
-4,
-4,
-6,
-2,
-3,
-2,
0,
2,
3,
6,
6,
8,
10,
8,
8,
8,
7,
6,
4,
4,
3,
1,
-2,
-2,
-4,
-5,
-4,
-2,
-4,
-3,
-1,
-1,
2,
3,
4,
5,
7,
8,
7,
8,
8,
7,
6,
4,
4,
3,
1,
0,
0,
-2,
-2,
-1,
-3,
-1,
-1,
-1,
0,
1,
3,
4,
4,
6,
6,
6,
6,
7,
6,
4,
4,
3,
3,
2,
0,
0,
-1,
-1,
-1,
-1,
-2,
-2,
0,
0,
1,
3,
4,
4,
4,
6,
4,
6,
6,
6,
6,
5,
4,
3,
2,
3,
0,
0,
1,
0,
1,
0,
0,
1,
2,
2,
3,
4,
2,
3,
2,
4,
3,
2,
4,
1,
2,
1,
2,
2,
1,
2,
2,
2,
2,
3,
2,
3,
2,
0,
1,
2,
0,
0,
0,
2,
0,
0,
0,
2,
3,
3,
4,
4,
6,
7,
6,
7,
7,
6,
5,
4,
3,
2,
0,
0,
-2,
-4,
-5,
-5,
-4,
-3,
-1,
-1,
2,
2,
4,
6,
10,
9,
8,
11,
8,
8,
8,
5,
4,
2,
0,
-2,
-2,
-4,
-4,
-6,
-5,
-3,
-4,
0,
-1,
2,
4,
6,
7,
8,
8,
10,
9,
8,
7,
6,
4,
3,
2,
0,
-1,
-3,
-3,
-3,
-3,
-3,
-2,
-2,
-1,
1,
4,
4,
6,
7,
7,
8,
8,
8,
6,
5,
6,
4,
3,
2,
-1,
-1,
-2,
-2,
0,
-1,
-2,
-1,
-1,
2,
2,
3,
4,
4,
6,
5,
6,
5,
6,
5,
6,
5,
4,
2,
1,
0,
0,
0,
-2,
-1,
0,
0,
0,
0,
1,
2,
2,
4,
5,
5,
5,
5,
5,
5,
4,
4,
4,
2,
2,
1,
2,
0,
0,
0,
1,
-2,
1,
0,
1,
2,
0,
4,
3,
2,
4,
3,
2,
4,
3,
3,
2,
2,
2,
2,
4,
3,
3,
3,
3,
3,
4,
4,
3,
3,
3,
2,
2,
0,
0,
0,
-1,
0,
-1,
0,
0,
1,
2,
2,
3,
5,
6,
7,
6,
7,
7,
6,
4,
4,
3,
1,
0,
0,
-1,
-2,
-2,
-4,
-3,
-3,
-1,
0,
2,
2,
3,
6,
6,
6,
7,
8,
7,
6,
5,
4,
4,
2,
3,
0,
-2,
-2,
-2,
-3,
-2,
-2,
0,
0,
0,
2,
1,
4,
6,
6,
6,
6,
7,
7,
6,
6,
3,
4,
3,
2,
0,
0,
-1,
0,
-2,
-2,
-1,
0,
0,
0,
2,
3,
2,
4,
4,
4,
4,
5,
4,
4,
4,
3,
3,
2,
1,
2,
0,
1,
0,
1,
1,
2,
2,
2,
2,
3,
4,
3,
4,
3,
3,
3,
4,
3,
1,
1,
0,
2,
1,
2,
2,
3,
3,
3,
4,
3,
4,
3,
3,
3,
4,
4,
3,
2,
3,
2,
2,
1,
0,
1,
0,
0,
1,
3,
1,
2,
3,
4,
3,
3,
4,
3,
4,
4,
4,
3,
2,
1,
2,
0,
1,
1,
2,
2,
2,
3,
2,
3,
4,
4,
5,
6,
4,
5,
4,
4,
3,
3,
0,
1,
0,
-1,
0,
-1,
-1,
-3,
-2,
0,
1,
1,
4,
3,
4,
5,
6,
7,
6,
5,
6,
6,
3,
3,
3,
2,
2,
-1,
1,
0,
1,
-1,
0,
0,
1,
1,
3,
3,
2,
3,
2,
4,
5,
4,
4,
4,
4,
3,
4,
3,
3,
2,
2,
2,
2,
3,
0,
1,
1,
0,
0,
0,
1,
0,
2,
2,
2,
3,
4,
3,
6,
5,
6,
5,
5,
4,
4,
3,
4,
2,
2,
0,
1,
0,
0,
0,
-1,
1,
0,
2,
3,
3,
3,
3,
4,
4,
3,
4,
4,
4,
3,
3,
2,
2,
3,
2,
2,
0,
2,
2,
3,
2,
2,
3,
2,
2,
2,
2,
2,
2,
2,
2,
2,
1,
2,
1,
0,
2,
3,
1,
3,
3,
2,
3,
2,
3,
4,
3,
4,
4,
3,
4,
2,
2,
3,
2,
2,
1,
1,
0,
0,
1,
2,
0,
1,
2,
2,
3,
2,
3,
3,
2,
4,
4,
4,
4,
4,
3,
4,
3,
2,
2,
2,
0,
0,
1,
-1,
0,
0,
0,
0,
0,
2,
1,
3,
3,
3,
4,
5,
4,
4,
4,
5,
3,
4,
3,
3,
1,
1,
0,
-1,
0,
0,
0,
0,
1,
2,
2,
2,
3,
4,
4,
4,
5,
6,
4,
4,
3,
3,
3,
1,
2,
0,
-1,
2,
0,
-1,
0,
-1,
1,
1,
3,
3,
2,
5,
4,
4,
5,
7,
6,
4,
5,
4,
2,
2,
0,
0,
0,
-2,
-1,
0,
-1,
0,
2,
0,
1,
2,
4,
4,
4,
6,
5,
6,
4,
4,
4,
4,
3,
3,
1,
0,
1,
0,
0,
-1,
-1,
-1,
0,
1,
2,
1,
2,
4,
4,
5,
4,
6,
5,
6,
5,
4,
3,
3,
4,
2,
1,
1,
0,
-1,
0,
-1,
-1,
0,
1,
1,
2,
3,
3,
3,
4,
4,
5,
4,
4,
5,
4,
4,
4,
4,
2,
1,
0,
0,
0,
0,
0,
0,
0,
0,
0,
1,
2,
2,
3,
2,
4,
4,
4,
4,
4,
3,
4,
3,
3,
4,
4,
2,
2,
2,
2,
2,
2,
3,
2,
1,
2,
2,
2,
2,
2,
4,
2,
3,
2,
0,
2,
2,
1,
1,
2,
2,
2,
3,
3,
2,
2,
3,
3,
4,
4,
3,
4,
4,
4,
2,
2,
2,
2,
2,
0,
0,
1,
1,
2,
0,
0,
2,
3,
2,
4,
3,
3,
4,
4,
4,
5,
4,
3,
4,
2,
3,
2,
2,
1,
1,
2,
1,
2,
0,
2,
2,
2,
2,
3,
3,
4,
3,
3,
1,
3,
3,
1,
3,
2,
1,
0,
2,
1,
2,
3,
2,
4,
2,
3,
3,
4,
4,
3,
3,
2,
4,
2,
2,
0,
1,
2,
0,
0,
0,
0,
0,
2,
1,
2,
4,
4,
4,
5,
4,
5,
5,
6,
6,
5,
5,
3,
3,
2,
1,
1,
0,
1,
-1,
0,
-1,
-1,
0,
-1,
2,
0,
2,
2,
4,
4,
4,
4,
5,
4,
5,
4,
4,
4,
2,
3,
2,
0,
2,
0,
1,
0,
0,
0,
0,
1,
1,
2,
2,
3,
2,
3,
5,
3,
3,
4,
3,
3,
3,
4,
3,
3,
1,
2,
0,
1,
2,
2,
2,
1,
2,
4,
2,
2,
1,
3,
3,
2,
3,
3,
3,
3,
4,
2,
2,
1,
2,
1,
2,
3,
2,
2,
3,
2,
3,
3,
2,
4,
4,
2,
5,
2,
3,
3,
2,
3,
1,
2,
2,
2,
0,
0,
0,
0,
1,
0,
1,
4,
2,
3,
3,
5,
4,
4,
4,
4,
3,
3,
4,
3,
3,
2,
1,
2,
0,
0,
1,
0,
1,
1,
2,
0,
3,
1,
4,
3,
3,
4,
2,
3,
3,
2,
2,
4,
3,
3,
1,
3,
3,
3,
3,
2,
4,
3,
2,
3,
2,
2,
2,
2,
0,
1,
0,
2,
2,
2,
1,
3,
1,
3,
2,
3,
3,
3,
4,
3,
3,
4,
2,
4,
3,
3,
2,
2,
1,
2,
0,
1,
2,
1,
0,
2,
1,
2,
2,
2,
2,
2,
1,
2,
3,
3,
2,
2,
2,
2,
2,
1,
2,
2,
2,
2,
2,
4,
2,
2,
2,
1,
3,
2,
2,
3,
2,
2,
3,
2,
2,
2,
2,
0,
2,
2,
2,
2,
2,
2,
1,
3,
2,
3,
2,
2,
4,
4,
3,
3,
4,
3,
4,
4,
4,
2,
2,
3,
2,
2,
2,
0,
0,
0,
0,
0,
-1,
2,
0,
3,
2,
3,
4,
3,
6,
4,
5,
5,
5,
4,
2,
4,
2,
1,
1,
0,
0,
0,
-1,
-1,
0,
1,
2,
2,
3,
4,
5,
5,
7,
6,
5,
7,
5,
4,
3,
2,
1,
0,
0,
-1,
-1,
-2,
-1,
0,
0,
2,
2,
4,
4,
4,
4,
6,
5,
6,
4,
5,
4,
4,
1,
2,
0,
0,
0,
-1,
-1,
-1,
-2,
0,
1,
2,
3,
4,
4,
5,
4,
6,
6,
6,
6,
3,
4,
2,
1,
1,
0,
1,
-1,
0,
-1,
0,
0,
1,
2,
3,
4,
4,
6,
4,
5,
5,
4,
4,
5,
3,
3,
2,
0,
0,
1,
0,
0,
0,
-1,
1,
1,
2,
3,
4,
4,
3,
5,
6,
6,
5,
5,
3,
2,
2,
2,
1,
0,
-1,
0,
0,
1,
0,
1,
1,
2,
3,
4,
3,
5,
5,
4,
4,
4,
5,
4,
3,
2,
1,
1,
0,
0,
0,
-1,
0,
0,
2,
0,
3,
2,
2,
5,
3,
4,
5,
4,
4,
6,
4,
4,
3,
3,
3,
2,
0,
-1,
0,
0,
0,
0,
1,
0,
2,
2,
4,
3,
4,
4,
4,
5,
4,
4,
4,
4,
3,
2,
2,
2,
0,
0,
2,
0,
1,
2,
1,
3,
2,
2,
2,
4,
4,
4,
5,
4,
4,
4,
2,
3,
3,
2,
2,
1,
1,
0,
0,
0,
0,
1,
2,
2,
2,
3,
5,
4,
4,
6,
4,
4,
4,
4,
2,
2,
3,
0,
0,
-2,
-1,
-2,
-2,
-1,
0,
-1,
2,
3,
3,
4,
5,
6,
7,
6,
8,
5,
6,
4,
4,
3,
2,
0,
0,
0,
-1,
-2,
-2,
-1,
-2,
-1,
2,
0,
2,
4,
4,
6,
6,
7,
6,
6,
4,
4,
4,
2,
1,
2,
0,
-2,
0,
-1,
-1,
-1,
-1,
0,
1,
1,
2,
2,
4,
4,
5,
5,
6,
5,
4,
4,
3,
4,
2,
2,
1,
0,
2,
0,
0,
2,
1,
2,
2,
2,
3,
2,
4,
3,
4,
4,
4,
3,
3,
2,
1,
3,
1,
2,
0,
2,
2,
3,
2,
4,
0,
4,
3,
4,
4,
2,
3,
3,
3,
2,
2,
2,
2,
2,
1,
2,
0,
2,
1,
1,
2,
1,
2,
2,
1,
4,
3,
2,
4,
3,
3,
3,
3,
2,
2,
2,
2,
2,
2,
0,
2,
2,
2,
3,
2,
2,
3,
2,
3,
2,
4,
2,
2,
2,
1,
2,
1,
2,
1,
0,
1,
2,
0,
2,
2,
