TP_CND/tp_volsurf/mesures/DS0013.CSV

Memory Length,4000,
Trigger Level,2.000E-02,
Source,CH1,
Probe,1X,
Vertical Units,V,
Vertical Scale,1.000E+00,
Vertical Position,0.000E+00,
Horizontal Units,s,
Horizontal Scale,5.000E-07,
Horizontal Position,2.140E-06,
Horizontal Mode,Main,
Sampling Period,5.000E-09,
Firmware, V1.24,
Time, ,
Mode,Fast,
Waveform Data,
3,
2,
3,
2,
3,
2,
2,
3,
3,
3,
2,
2,
3,
2,
4,
3,
3,
2,
3,
2,
3,
3,
2,
2,
3,
3,
4,
3,
3,
2,
2,
3,
3,
2,
3,
3,
3,
3,
4,
3,
3,
2,
3,
3,
2,
2,
3,
2,
2,
3,
3,
2,
3,
3,
3,
2,
3,
2,
3,
2,
3,
2,
4,
3,
3,
3,
3,
2,
3,
2,
3,
3,
3,
2,
3,
3,
3,
3,
3,
3,
3,
2,
3,
3,
2,
2,
3,
2,
3,
2,
3,
3,
3,
2,
3,
2,
2,
3,
3,
3,
2,
2,
3,
2,
3,
2,
3,
2,
3,
3,
3,
3,
2,
2,
3,
2,
3,
3,
3,
3,
2,
2,
3,
2,
3,
3,
3,
3,
3,
3,
3,
2,
3,
2,
2,
3,
3,
3,
2,
3,
3,
2,
3,
2,
2,
2,
3,
2,
2,
3,
3,
3,
3,
3,
3,
2,
3,
2,
2,
2,
2,
2,
3,
2,
3,
3,
3,
3,
2,
2,
3,
2,
3,
2,
2,
3,
2,
2,
3,
3,
3,
3,
3,
2,
3,
2,
4,
2,
3,
2,
3,
3,
4,
3,
2,
2,
3,
3,
3,
3,
3,
3,
2,
2,
4,
2,
3,
3,
3,
3,
3,
3,
3,
2,
3,
2,
3,
3,
3,
3,
3,
3,
3,
2,
3,
2,
3,
2,
2,
2,
2,
3,
3,
2,
3,
2,
2,
2,
2,
2,
2,
2,
4,
3,
2,
2,
2,
2,
3,
2,
3,
2,
2,
2,
3,
2,
2,
2,
3,
3,
2,
3,
3,
2,
3,
2,
3,
3,
2,
3,
3,
3,
3,
2,
3,
3,
2,
3,
4,
2,
3,
3,
3,
2,
2,
2,
3,
2,
3,
2,
3,
2,
3,
3,
3,
2,
3,
3,
3,
3,
2,
2,
3,
3,
3,
3,
3,
3,
3,
3,
4,
2,
3,
3,
2,
3,
3,
2,
3,
3,
3,
2,
3,
2,
3,
2,
3,
3,
2,
2,
3,
3,
3,
2,
2,
3,
2,
3,
3,
2,
3,
2,
4,
3,
3,
2,
3,
3,
3,
2,
3,
2,
3,
2,
3,
3,
3,
3,
3,
3,
2,
2,
3,
2,
3,
2,
4,
2,
3,
3,
3,
2,
3,
3,
3,
3,
3,
2,
3,
3,
3,
3,
4,
3,
2,
3,
3,
2,
3,
2,
2,
3,
3,
2,
2,
2,
3,
2,
2,
3,
2,
3,
3,
3,
2,
2,
3,
3,
3,
2,
3,
3,
3,
3,
3,
2,
3,
2,
3,
2,
2,
2,
3,
2,
2,
2,
3,
3,
2,
3,
3,
2,
2,
2,
3,
2,
2,
2,
2,
3,
3,
2,
3,
2,
3,
2,
3,
2,
3,
3,
3,
3,
3,
3,
3,
3,
3,
2,
3,
2,
3,
2,
2,
2,
3,
3,
3,
3,
3,
2,
4,
3,
2,
2,
3,
2,
3,
3,
3,
2,
2,
3,
3,
2,
3,
3,
3,
3,
3,
3,
3,
2,
3,
3,
3,
3,
2,
2,
2,
2,
2,
2,
3,
2,
3,
3,
3,
2,
2,
3,
3,
3,
3,
3,
2,
3,
3,
2,
3,
2,
3,
2,
2,
2,
2,
2,
3,
3,
2,
2,
3,
2,
2,
3,
3,
2,
3,
2,
3,
2,
3,
2,
3,
3,
4,
3,
3,
3,
3,
2,
3,
2,
3,
2,
3,
2,
3,
2,
3,
2,
2,
2,
3,
2,
3,
2,
2,
3,
3,
2,
3,
2,
3,
2,
2,
3,
3,
2,
4,
3,
2,
2,
3,
2,
3,
2,
2,
2,
2,
2,
3,
3,
2,
2,
3,
2,
2,
3,
3,
2,
2,
3,
3,
2,
3,
2,
2,
2,
3,
3,
2,
2,
3,
3,
3,
2,
4,
2,
2,
3,
2,
2,
2,
3,
2,
3,
2,
2,
2,
2,
3,
3,
3,
2,
2,
2,
3,
2,
3,
2,
3,
2,
3,
2,
3,
2,
3,
2,
3,
2,
3,
2,
3,
2,
2,
3,
3,
3,
3,
3,
3,
2,
2,
3,
3,
3,
3,
2,
3,
2,
3,
3,
3,
2,
3,
3,
3,
2,
3,
3,
2,
2,
3,
2,
2,
2,
3,
2,
3,
3,
3,
2,
3,
2,
2,
2,
3,
2,
2,
2,
2,
2,
3,
3,
3,
2,
2,
3,
3,
2,
3,
3,
3,
3,
3,
3,
3,
3,
3,
3,
3,
2,
3,
2,
3,
2,
3,
3,
3,
3,
2,
2,
3,
2,
3,
2,
3,
3,
3,
3,
4,
2,
2,
2,
3,
2,
2,
2,
2,
2,
3,
2,
3,
2,
2,
2,
2,
3,
3,
2,
3,
3,
3,
2,
3,
2,
3,
2,
3,
2,
2,
2,
3,
2,
3,
2,
2,
2,
3,
2,
2,
2,
3,
3,
3,
3,
3,
3,
3,
2,
3,
2,
3,
3,
3,
3,
3,
3,
3,
3,
3,
3,
3,
3,
3,
2,
2,
3,
3,
2,
3,
2,
3,
2,
2,
2,
3,
2,
3,
3,
3,
3,
3,
3,
3,
2,
2,
2,
3,
2,
3,
2,
2,
2,
3,
2,
3,
3,
2,
2,
3,
3,
3,
2,
3,
2,
3,
3,
3,
2,
3,
3,
3,
3,
2,
2,
3,
3,
3,
2,
3,
2,
3,
3,
3,
2,
3,
3,
3,
3,
3,
2,
2,
2,
3,
2,
2,
2,
3,
3,
3,
2,
2,
2,
3,
3,
3,
3,
3,
2,
2,
2,
3,
2,
3,
2,
3,
2,
2,
2,
3,
2,
3,
2,
2,
2,
3,
2,
3,
2,
2,
3,
3,
3,
3,
3,
2,
3,
3,
2,
3,
3,
2,
2,
2,
2,
3,
3,
3,
2,
3,
2,
2,
2,
3,
2,
3,
2,
2,
2,
3,
2,
3,
2,
2,
2,
3,
2,
2,
2,
2,
3,
3,
2,
2,
2,
2,
2,
3,
3,
2,
3,
3,
3,
3,
2,
2,
2,
3,
2,
2,
2,
3,
2,
2,
3,
3,
3,
3,
2,
3,
3,
3,
3,
3,
2,
2,
2,
4,
2,
2,
3,
3,
2,
3,
2,
3,
3,
3,
3,
2,
3,
3,
2,
3,
2,
3,
2,
3,
2,
2,
2,
3,
3,
3,
2,
3,
3,
3,
2,
3,
3,
2,
2,
3,
2,
2,
3,
3,
2,
3,
3,
2,
2,
3,
2,
2,
2,
3,
3,
3,
2,
3,
2,
2,
3,
3,
2,
3,
2,
4,
3,
3,
3,
3,
3,
3,
3,
3,
2,
3,
3,
3,
3,
3,
2,
2,
3,
3,
3,
2,
2,
3,
2,
3,
2,
3,
2,
3,
3,
3,
2,
4,
2,
3,
3,
3,
2,
3,
2,
4,
2,
2,
2,
2,
3,
2,
3,
3,
2,
2,
2,
2,
2,
2,
2,
3,
3,
3,
2,
2,
2,
3,
2,
2,
3,
3,
3,
3,
3,
3,
2,
3,
3,
2,
2,
3,
3,
2,
2,
3,
2,
3,
2,
2,
3,
2,
3,
3,
2,
3,
3,
2,
3,
2,
2,
4,
2,
2,
3,
2,
3,
3,
2,
3,
2,
3,
2,
3,
2,
3,
3,
3,
2,
3,
2,
3,
2,
3,
2,
3,
3,
3,
2,
4,
2,
3,
3,
2,
3,
3,
2,
3,
2,
2,
3,
3,
2,
2,
2,
3,
2,
3,
2,
3,
2,
3,
3,
3,
2,
3,
3,
2,
2,
2,
3,
3,
3,
3,
3,
3,
2,
3,
2,
3,
3,
4,
3,
3,
3,
3,
2,
3,
2,
3,
3,
3,
2,
3,
3,
3,
3,
3,
2,
3,
2,
3,
3,
3,
3,
3,
2,
2,
2,
3,
3,
2,
2,
2,
2,
2,
3,
2,
2,
3,
3,
3,
2,
3,
3,
3,
3,
3,
3,
2,
3,
3,
2,
2,
3,
3,
2,
2,
2,
2,
2,
2,
2,
3,
2,
3,
2,
3,
3,
2,
3,
3,
2,
3,
2,
3,
2,
2,
2,
2,
2,
3,
2,
3,
3,
2,
3,
3,
2,
3,
2,
4,
2,
3,
2,
3,
2,
3,
3,
3,
2,
3,
2,
2,
3,
3,
3,
3,
2,
3,
2,
2,
2,
3,
2,
2,
3,
3,
2,
2,
3,
3,
2,
2,
2,
2,
2,
2,
2,
3,
2,
2,
2,
3,
2,
3,
3,
3,
2,
3,
2,
2,
2,
3,
2,
3,
2,
3,
2,
2,
3,
3,
2,
3,
2,
3,
2,
3,
3,
3,
2,
3,
2,
2,
2,
2,
2,
4,
2,
2,
3,
2,
2,
2,
2,
2,
2,
3,
2,
3,
2,
3,
3,
3,
3,
3,
2,
3,
2,
2,
2,
3,
2,
2,
3,
2,
2,
2,
2,
3,
2,
2,
2,
3,
3,
3,
3,
2,
2,
3,
3,
2,
2,
3,
2,
2,
3,
3,
2,
2,
2,
3,
3,
3,
2,
2,
2,
2,
3,
2,
2,
3,
2,
3,
2,
2,
3,
2,
2,
2,
3,
3,
2,
2,
3,
2,
2,
3,
3,
3,
2,
3,
2,
3,
2,
3,
3,
3,
2,
3,
3,
3,
3,
2,
2,
3,
2,
3,
2,
3,
2,
2,
3,
3,
3,
2,
3,
2,
2,
3,
3,
3,
2,
2,
3,
3,
3,
3,
3,
3,
2,
2,
2,
2,
2,
3,
3,
3,
3,
3,
2,
2,
3,
3,
3,
3,
3,
3,
2,
3,
2,
3,
3,
3,
3,
3,
2,
3,
3,
3,
3,
3,
2,
3,
2,
3,
2,
3,
3,
2,
3,
3,
3,
2,
2,
3,
2,
3,
2,
3,
2,
3,
2,
3,
2,
3,
3,
3,
2,
2,
2,
3,
2,
2,
2,
3,
2,
3,
3,
3,
2,
3,
3,
3,
2,
2,
2,
2,
2,
3,
2,
2,
-5,
-15,
-26,
-35,
-47,
-59,
-72,
-78,
-82,
-82,
-82,
-80,
-82,
-80,
-82,
-81,
-82,
-81,
-82,
-77,
-64,
-34,
6,
40,
59,
65,
65,
62,
62,
61,
62,
62,
63,
62,
61,
60,
55,
45,
27,
6,
-14,
-25,
-33,
-32,
-32,
-29,
-28,
-22,
-16,
-6,
4,
14,
24,
32,
41,
46,
44,
35,
17,
0,
-14,
-21,
-26,
-28,
-32,
-33,
-37,
-37,
-36,
-31,
-26,
-18,
-10,
-3,
4,
12,
18,
24,
33,
40,
46,
48,
43,
32,
19,
10,
3,
0,
-4,
-6,
-10,
-10,
-13,
-12,
-14,
-13,
-12,
-12,
-12,
-10,
-9,
-7,
-7,
-6,
-6,
-4,
-3,
-1,
0,
2,
3,
7,
10,
13,
13,
15,
15,
18,
19,
22,
23,
24,
23,
21,
19,
16,
12,
10,
4,
1,
-3,
-5,
-10,
-11,
-13,
-14,
-17,
-17,
-18,
-18,
-18,
-16,
-14,
-11,
-10,
-7,
-6,
-3,
-2,
0,
2,
4,
6,
10,
14,
19,
21,
20,
18,
17,
16,
16,
17,
19,
18,
17,
16,
15,
12,
10,
6,
4,
-1,
-3,
-7,
-8,
-10,
-10,
-11,
-12,
-13,
-12,
-14,
-12,
-11,
-10,
-9,
-6,
-6,
-3,
-1,
0,
2,
4,
6,
10,
12,
14,
12,
12,
10,
10,
10,
12,
10,
11,
9,
10,
8,
8,
6,
6,
3,
3,
0,
0,
-3,
-3,
-5,
-5,
-7,
-6,
-6,
-5,
-6,
-4,
-4,
-2,
0,
2,
4,
6,
5,
7,
7,
9,
9,
11,
10,
10,
10,
8,
8,
6,
6,
5,
4,
4,
2,
1,
0,
-1,
-3,
-3,
-4,
-4,
-4,
-3,
-5,
-4,
-4,
-2,
-3,
-2,
-2,
0,
0,
1,
2,
4,
4,
6,
8,
8,
8,
9,
9,
10,
10,
11,
10,
11,
9,
10,
8,
8,
6,
6,
4,
3,
2,
0,
-1,
-1,
-3,
-4,
-6,
-5,
-6,
-5,
-6,
-5,
-6,
-4,
-4,
-4,
-3,
-1,
1,
2,
2,
3,
3,
5,
6,
8,
8,
9,
9,
10,
9,
10,
9,
9,
7,
9,
6,
7,
5,
5,
4,
4,
2,
2,
0,
0,
-2,
-1,
-2,
-2,
-2,
-2,
-2,
-2,
-2,
-1,
-3,
0,
0,
1,
1,
2,
3,
4,
4,
5,
6,
6,
6,
6,
6,
7,
6,
6,
6,
5,
5,
4,
3,
4,
2,
2,
1,
1,
-1,
0,
0,
0,
-1,
0,
-2,
0,
-1,
0,
0,
1,
1,
2,
2,
4,
3,
4,
4,
5,
5,
6,
6,
7,
7,
7,
6,
6,
6,
6,
6,
5,
4,
4,
2,
3,
2,
2,
1,
0,
-1,
-1,
-1,
-1,
-2,
-1,
-2,
-1,
-1,
0,
-2,
0,
0,
0,
1,
2,
2,
4,
3,
4,
4,
6,
6,
6,
6,
6,
6,
6,
6,
6,
5,
5,
5,
5,
4,
4,
2,
3,
2,
2,
1,
1,
0,
0,
0,
0,
0,
0,
0,
0,
0,
1,
0,
2,
1,
2,
2,
3,
3,
3,
3,
4,
4,
4,
4,
4,
4,
4,
4,
4,
4,
4,
4,
4,
3,
3,
2,
2,
2,
2,
1,
2,
1,
2,
2,
2,
2,
1,
2,
2,
2,
2,
2,
3,
2,
3,
3,
4,
3,
4,
4,
4,
4,
4,
4,
4,
4,
4,
4,
4,
4,
3,
2,
4,
2,
2,
2,
2,
2,
2,
1,
1,
0,
0,
1,
0,
1,
0,
1,
1,
1,
1,
2,
2,
2,
3,
2,
3,
3,
3,
4,
4,
4,
4,
5,
5,
4,
4,
4,
5,
5,
4,
4,
4,
4,
4,
3,
3,
2,
2,
2,
2,
1,
2,
1,
2,
1,
1,
1,
1,
1,
1,
1,
2,
1,
2,
1,
1,
2,
3,
2,
2,
2,
3,
3,
3,
3,
4,
3,
3,
3,
3,
3,
4,
3,
4,
4,
3,
3,
3,
2,
3,
3,
2,
2,
3,
3,
3,
2,
3,
2,
2,
2,
3,
2,
2,
2,
3,
2,
3,
3,
3,
2,
4,
3,
3,
3,
3,
2,
3,
2,
3,
3,
3,
2,
2,
2,
2,
2,
2,
2,
2,
2,
2,
2,
2,
2,
2,
2,
2,
2,
2,
2,
2,
2,
3,
3,
4,
3,
4,
3,
3,
4,
4,
3,
4,
3,
4,
4,
4,
3,
4,
3,
4,
3,
3,
2,
4,
2,
2,
1,
2,
2,
2,
1,
2,
1,
2,
1,
1,
1,
2,
1,
2,
2,
1,
2,
2,
2,
2,
2,
3,
3,
4,
3,
3,
3,
4,
3,
4,
3,
4,
3,
4,
3,
3,
2,
4,
3,
3,
3,
3,
2,
3,
2,
2,
2,
2,
2,
2,
2,
2,
2,
2,
2,
2,
2,
2,
2,
2,
2,
3,
2,
3,
2,
3,
2,
3,
3,
3,
3,
3,
3,
3,
2,
3,
2,
3,
2,
2,
2,
3,
2,
2,
2,
2,
2,
4,
3,
3,
2,
3,
3,
3,
3,
3,
2,
3,
2,
3,
3,
4,
3,
3,
3,
3,
4,
4,
2,
3,
3,
3,
2,
3,
3,
3,
2,
3,
2,
2,
2,
2,
2,
2,
2,
3,
1,
2,
2,
2,
2,
2,
2,
3,
2,
2,
2,
4,
3,
3,
3,
3,
3,
3,
3,
4,
2,
3,
3,
2,
3,
4,
3,
4,
3,
3,
2,
3,
2,
2,
2,
3,
2,
2,
2,
3,
2,
2,
3,
4,
3,
2,
2,
3,
2,
2,
2,
2,
2,
2,
2,
3,
2,
3,
2,
2,
2,
2,
2,
3,
2,
2,
3,
3,
3,
3,
3,
4,
3,
2,
2,
2,
2,
2,
2,
3,
3,
3,
2,
3,
3,
3,
3,
3,
3,
2,
2,
2,
2,
2,
2,
4,
3,
3,
3,
3,
3,
3,
2,
3,
2,
2,
2,
3,
2,
3,
2,
3,
2,
3,
3,
3,
2,
3,
3,
2,
2,
3,
3,
2,
3,
3,
3,
3,
3,
2,
3,
3,
2,
3,
2,
4,
2,
3,
3,
3,
3,
3,
3,
3,
3,
3,
2,
3,
3,
3,
2,
3,
3,
2,
2,
3,
2,
3,
3,
3,
2,
3,
2,
3,
2,
2,
2,
3,
2,
3,
2,
3,
2,
3,
3,
3,
2,
3,
2,
3,
3,
3,
3,
4,
2,
3,
3,
3,
3,
4,
3,
3,
2,
3,
2,
3,
2,
2,
2,
3,
2,
3,
2,
3,
2,
3,
2,
3,
2,
2,
2,
2,
2,
3,
3,
3,
2,
2,
2,
3,
3,
3,
2,
3,
2,
2,
2,
3,
3,
2,
2,
3,
3,
4,
2,
2,
2,
3,
2,
3,
2,
2,
3,
3,
2,
2,
3,
2,
3,
2,
3,
3,
2,
3,
3,
3,
2,
3,
2,
2,
2,
4,
2,
3,
2,
3,
3,
3,
2,
3,
2,
3,
2,
3,
2,
3,
2,
3,
2,
2,
3,
3,
2,
3,
2,
2,
2,
3,
3,
2,
2,
3,
2,
3,
2,
3,
3,
3,
3,
3,
3,
4,
3,
3,
3,
3,
3,
3,
3,
3,
3,
3,
2,
3,
3,
4,
2,
2,
3,
2,
3,
2,
2,
2,
2,
2,
2,
3,
3,
3,
2,
3,
2,
3,
3,
2,
3,
3,
2,
2,
3,
3,
2,
3,
2,
3,
3,
3,
2,
2,
3,
3,
2,
3,
3,
3,
2,
3,
3,
3,
2,
3,
2,
2,
3,
3,
2,
3,
3,
3,
2,
3,
2,
3,
2,
3,
3,
3,
3,
3,
2,
3,
3,
3,
3,
3,
3,
2,
2,
3,
2,
2,
3,
3,
2,
2,
2,
3,
2,
3,
3,
2,
2,
3,
2,
3,
2,
2,
2,
3,
3,
3,
2,
3,
2,
2,
2,
3,
2,
3,
3,
3,
3,
3,
3,
3,
2,
3,
3,
3,
3,
3,
3,
3,
2,
2,
3,
2,
3,
3,
3,
2,
2,
3,
3,
3,
3,
3,
3,
3,
3,
3,
2,
3,
2,
4,
3,
2,
2,
2,
2,
3,
3,
3,
3,
3,
2,
3,
2,
3,
3,
2,
2,
3,
3,
3,
3,
3,
2,
3,
3,
2,
3,
3,
2,
3,
3,
3,
3,
3,
2,
3,
3,
3,
2,
3,
2,
3,
2,
3,
3,
3,
2,
2,
2,
3,
2,
3,
3,
3,
2,
3,
2,
3,
3,
3,
2,
2,
2,
3,
2,
3,
2,
3,
3,
3,
3,
3,
2,
3,
3,
2,
2,
3,
2,
3,
3,
3,
3,
3,
2,
3,
2,
3,
3,
3,
2,
3,
3,
2,
3,
3,
2,
2,
2,
3,
2,
3,
2,
3,
3,
3,
3,
3,
2,
2,
3,
3,
2,
2,
2,
2,
3,
4,
2,
3,
3,
3,
2,
3,
2,
2,
2,
2,
2,
3,
3,
3,
2,
3,
2,
3,
2,
3,
3,
3,
2,
3,
2,
2,
3,
3,
2,
2,
2,
3,
2,
2,
2,
2,
2,
3,
3,
2,
3,
3,
2,
3,
3,
3,
2,
3,
2,
3,
2,
3,
2,
3,
2,
2,
2,
3,
3,
3,
3,
3,
2,
3,
3,
3,
2,
3,
2,
2,
2,
3,
2,
2,
2,
3,
2,
2,
2,
3,
2,
3,
2,
3,
2,
3,
2,
2,
2,
3,
2,
3,
3,
3,
2,
2,
3,
3,
3,
3,
2,
3,
3,
3,
2,
3,
3,
2,
3,
3,
2,
3,
2,
2,
3,
3,
2,
2,
2,
2,
2,
2,
2,
3,
2,
2,
2,
3,
2,
3,
2,
4,
2,
2,
3,
3,
2,
3,
2,
3,
2,
2,
2,
2,
2,
3,
3,
2,
3,
3,
2,
2,
2,
3,
2,
2,
2,
3,
3,
2,
3,
3,
2,
3,
2,
3,
2,
3,
2,
3,
3,
3,
2,
2,
2,
2,
2,
2,
3,
3,
2,
3,
3,
3,
2,
3,
3,
3,
2,
2,
3,
3,
2,
3,
2,
2,
3,
3,
2,
2,
2,
3,
3,
2,
2,
3,
2,
3,
3,
3,
2,
3,
3,
3,
2,
3,
3,
2,
2,
3,
3,
2,
2,
2,
2,
3,
3,
2,
2,
3,
2,
2,
2,
3,
2,
3,
2,
3,
3,
3,
3,
3,
2,
3,
2,
3,
2,
3,
2,
3,
2,
3,
2,
3,
3,
3,
2,
3,
3,
3,
2,
2,
2,
2,
2,
3,
2,
3,
2,
3,
2,
2,
2,
3,
3,
2,
2,
3,
2,
3,
2,
3,
2,
3,
3,
2,
2,
3,
3,
3,
3,
2,
3,
3,
2,
3,
3,
3,
3,
3,
2,
3,
2,
3,
2,
2,
3,
3,
2,
3,
2,
3,
2,
2,
3,
3,
2,
3,
3,
2,
2,
3,
3,
3,
2,
3,
2,
3,
3,
4,
3,
2,
3,
2,
2,
3,
2,
3,
3,
3,
2,
3,
3,
3,
2,
3,
2,
3,
2,
4,
3,
3,
2,
3,
2,
3,
2,
3,
3,
3,
2,
4,
2,
3,
3,
2,
2,
3,
2,
3,
2,
2,
2,
3,
2,
3,
2,
3,
2,
3,
3,
2,
2,
2,
2,
3,
3,
2,
3,
3,
2,
3,
2,
3,
2,
3,
3,
4,
2,
3,
3,
3,
3,
3,
3,
3,
2,
3,
3,
4,
3,
3,
3,
2,
3,
2,
2,
2,
2,
3,
3,
3,
2,
3,
2,
3,
2,
2,
2,
3,
2,
3,
2,
2,
3,
3,
2,
2,
3,
2,
2,
2,
3,
3,
2,
3,
2,
3,
2,
3,
2,
3,
2,
3,
2,
3,
2,
3,
2,
3,
2,
3,
2,
2,
2,
3,
2,
3,
3,
3,
3,
2,
2,
3,
3,
2,
2,
2,
2,
3,
2,
3,
2,
2,
3,
4,
2,
2,
2,
3,
2,
3,
3,
3,
2,
3,
2,
3,
2,
3,
3,
3,
2,
3,
2,
3,
2,
3,
2,
3,
2,
3,
2,
3,
2,
3,
3,
3,
2,
2,
2,
3,
3,
3,
2,
3,
3,
3,
2,
3,
3,
3,
3,
3,
3,
3,
2,
3,
3,
3,
2,
2,
2,
3,
3,
3,
3,
2,
2,
3,
2,
2,
3,
2,
3,
3,
2,
3,
3,
3,
2,
3,
3,
2,
2,
3,
3,
2,
3,
2,
2,
2,
3,
2,
2,
2,
3,
3,
3,
3,
3,
3,
3,
3,
2,
3,
2,
3,
2,
3,
3,
2,
3,
2,
3,
3,
3,
3,
2,
3,
3,
3,
3,
3,
2,
2,
2,
3,
2,
3,
3,
3,
2,
3,
2,
3,
2,
3,
3,
3,
3,
3,
2,
2,
2,
3,
3,
3,
2,
3,
2,
3,
3,
3,
2,
2,
2,
3,
3,
2,
3,
3,
2,
3,
2,
3,
2,
2,
2,
3,
2,
3,
2,
3,
3,
3,
2,
3,
3,
3,
2,
3,
2,
3,
2,
3,
3,
3,
2,
3,
3,
2,
2,
3,
2,
3,
2,
3,
2,
2,
3,
3,
3,
2,
3,
3,
2,
3,
2,
3,
3,
2,
2,
3,
2,
3,
2,
3,
2,
3,
3,
3,
2,
2,
2,
3,
3,
3,
2,
3,
2,
3,
3,
3,
2,
2,
2,
3,
2,
3,
3,
3,
2,
3,
3,
3,
3,
3,
2,
2,
3,
3,
3,
3,
2,
2,
3,
3,
2,
2,
2,
3,
2,
2,
3,
3,
2,
3,
2,
3,
3,
2,
3,
2,
2,
3,
3,
3,
2,
2,
2,
3,
3,
3,
2,
3,
3,
3,
3,
3,
2,
3,
3,
3,
3,
3,
2,
4,
3,
4,
3,
3,
2,
3,
2,
3,
2,
3,
2,
2,
2,
3,
2,
3,
2,
2,
2,
2,
3,
3,
2,
4,
3,
3,
3,
3,
3,
3,
2,
3,
2,
3,
3,
3,
2,
3,
2,
4,
2,
3,
2,
3,
2,
2,
3,
3,
2,
2,
2,
3,
2,
3,
2,
3,
3,
3,
2,
3,
2,
3,
2,
3,
2,
3,
3,
3,
3,
3,
2,
3,
3,
3,
2,
3,
3,
3,
2,
3,
2,
3,
3,
3,
3,
2,
3,
3,
2,
3,
3,
2,
3,
3,
2,
2,
2,
3,
2,
2,
3,
3,
2,
3,
2,
2,
3,
3,
2,
3,
2,
3,
3,
3,
2,
2,
2,
3,
3,
3,
2,
3,
3,
3,
3,
2,
2,
2,
2,
3,
3,
3,
2,
3,
3,
3,
2,
3,
3,
3,
2,
3,
2,
3,
2,
4,
3,
3,
2,
3,
3,
3,
3,
3,
2,
3,
2,
3,
3,
3,
3,
3,
2,
2,
2,
3,
3,
3,
3,
3,
3,
2,
3,
4,
2,
3,
2,
3,
2,
3,
3,
3,
2,
4,
3,
3,
3,
3,
3,
3,
3,
3,
3,
2,
2,
2,
2,
2,
2,
3,
3,
3,
2,
3,
3,
3,
2,
3,
2,
2,
3,
3,
2,
2,
3,
3,
3,
2,
2,
3,
2,
3,
2,
3,
3,
3,
2,
3,
3,
3,
2,
3,
2,
3,
2,
4,
2,
2,
2,
3,
2,
