TP_CND/tp_volsurf/mesures/DS0000.CSV

Memory Length,4000,
Trigger Level,0.000E+00,
Source,CH1,
Probe,1X,
Vertical Units,V,
Vertical Scale,1.000E-01,
Vertical Position,0.000E+00,
Horizontal Units,s,
Horizontal Scale,1.000E-05,
Horizontal Position,0.000E+00,
Horizontal Mode,Main,
Sampling Period,4.000E-08,
Firmware, V1.24,
Time, ,
Mode,Fast,
Waveform Data,
1,
1,
1,
2,
2,
3,
1,
2,
2,
2,
3,
2,
2,
2,
2,
2,
3,
2,
3,
3,
3,
1,
2,
2,
2,
1,
1,
2,
0,
2,
2,
3,
3,
3,
2,
0,
2,
1,
2,
1,
2,
2,
2,
2,
1,
1,
2,
2,
0,
1,
1,
1,
3,
4,
3,
2,
3,
2,
2,
2,
1,
2,
1,
2,
1,
3,
4,
3,
3,
2,
2,
0,
0,
0,
0,
2,
1,
2,
4,
4,
3,
2,
2,
1,
1,
0,
0,
1,
2,
2,
2,
2,
3,
2,
2,
3,
2,
1,
1,
2,
1,
2,
2,
2,
3,
4,
1,
2,
2,
1,
2,
2,
2,
1,
2,
2,
2,
3,
2,
1,
1,
2,
0,
2,
1,
1,
3,
2,
1,
4,
3,
1,
2,
1,
1,
1,
2,
1,
1,
2,
2,
2,
2,
1,
1,
2,
2,
1,
0,
1,
1,
1,
2,
2,
2,
4,
2,
2,
2,
0,
0,
1,
1,
1,
1,
2,
3,
4,
3,
2,
2,
0,
1,
2,
0,
2,
2,
3,
3,
3,
2,
2,
2,
2,
3,
2,
2,
2,
2,
2,
2,
3,
2,
2,
2,
2,
1,
2,
0,
2,
1,
1,
2,
1,
3,
2,
3,
2,
2,
4,
1,
1,
2,
2,
4,
1,
3,
2,
2,
2,
2,
1,
0,
0,
2,
1,
2,
3,
2,
2,
0,
2,
2,
2,
1,
1,
2,
1,
2,
3,
1,
3,
0,
3,
1,
1,
2,
2,
3,
1,
3,
2,
2,
0,
1,
1,
2,
1,
2,
2,
2,
1,
2,
3,
1,
1,
3,
1,
2,
1,
2,
3,
1,
2,
3,
2,
2,
1,
1,
1,
3,
1,
2,
1,
1,
1,
2,
1,
2,
2,
3,
2,
2,
3,
2,
3,
3,
1,
4,
1,
2,
2,
3,
2,
2,
3,
2,
2,
1,
2,
1,
4,
3,
3,
2,
3,
2,
2,
1,
2,
2,
0,
1,
1,
2,
2,
3,
1,
3,
2,
2,
1,
2,
2,
1,
3,
1,
2,
2,
3,
2,
3,
1,
2,
2,
1,
2,
0,
2,
0,
3,
2,
1,
2,
2,
2,
2,
2,
1,
1,
1,
0,
2,
3,
3,
3,
3,
3,
2,
3,
1,
2,
0,
1,
3,
1,
4,
3,
2,
2,
2,
1,
2,
2,
2,
2,
1,
2,
2,
2,
2,
2,
2,
2,
2,
1,
1,
2,
1,
2,
1,
3,
3,
1,
2,
1,
2,
2,
0,
1,
1,
2,
3,
3,
2,
3,
3,
3,
1,
1,
1,
2,
1,
2,
3,
2,
2,
2,
3,
2,
2,
1,
0,
2,
2,
2,
1,
2,
2,
2,
4,
2,
1,
2,
0,
1,
1,
2,
2,
1,
1,
2,
2,
3,
2,
3,
2,
2,
1,
2,
1,
1,
0,
2,
2,
2,
2,
4,
2,
2,
2,
2,
2,
0,
1,
0,
2,
3,
2,
1,
3,
1,
1,
1,
2,
1,
1,
1,
2,
2,
3,
1,
1,
1,
2,
2,
0,
2,
1,
2,
2,
3,
3,
2,
2,
2,
2,
2,
1,
2,
2,
1,
2,
3,
3,
4,
3,
2,
3,
0,
2,
1,
2,
2,
2,
2,
3,
2,
2,
2,
2,
2,
3,
2,
1,
2,
2,
2,
2,
0,
3,
1,
2,
3,
3,
2,
2,
1,
1,
2,
2,
2,
1,
2,
1,
2,
2,
0,
2,
1,
2,
2,
2,
1,
2,
2,
2,
3,
1,
0,
2,
1,
2,
0,
2,
2,
1,
2,
2,
2,
2,
1,
1,
1,
2,
2,
2,
0,
1,
2,
1,
1,
2,
2,
1,
2,
2,
2,
2,
1,
2,
2,
1,
2,
1,
2,
2,
3,
1,
3,
1,
3,
1,
0,
3,
1,
2,
3,
2,
1,
1,
3,
3,
2,
2,
2,
2,
2,
1,
2,
2,
1,
1,
2,
0,
2,
3,
2,
2,
2,
2,
2,
0,
1,
0,
1,
2,
1,
2,
4,
2,
2,
2,
0,
1,
1,
1,
1,
2,
4,
3,
1,
2,
3,
1,
0,
0,
2,
2,
3,
3,
2,
3,
3,
2,
1,
0,
1,
0,
2,
1,
1,
2,
3,
2,
1,
2,
2,
0,
2,
2,
2,
2,
2,
2,
2,
0,
1,
1,
3,
2,
2,
2,
1,
2,
3,
2,
2,
1,
2,
2,
2,
1,
2,
3,
2,
2,
3,
2,
2,
1,
1,
2,
2,
1,
2,
2,
3,
2,
2,
2,
2,
1,
1,
0,
2,
0,
2,
2,
2,
4,
1,
3,
2,
1,
1,
1,
0,
2,
0,
3,
2,
2,
3,
2,
1,
2,
2,
3,
2,
1,
0,
2,
1,
2,
3,
2,
2,
2,
2,
2,
2,
0,
0,
1,
1,
1,
2,
2,
3,
3,
3,
0,
2,
2,
2,
1,
1,
2,
3,
2,
2,
1,
4,
1,
0,
1,
2,
2,
2,
1,
2,
2,
3,
2,
3,
3,
3,
1,
0,
0,
2,
3,
2,
2,
2,
3,
2,
2,
0,
2,
1,
2,
1,
1,
2,
4,
1,
3,
2,
2,
2,
1,
2,
1,
2,
2,
0,
2,
2,
2,
2,
2,
1,
1,
0,
3,
2,
1,
0,
3,
3,
3,
2,
2,
2,
2,
0,
1,
1,
2,
2,
2,
3,
2,
3,
3,
2,
0,
1,
1,
2,
1,
1,
4,
2,
3,
3,
2,
2,
0,
1,
1,
1,
1,
2,
2,
2,
2,
4,
2,
2,
1,
0,
0,
1,
1,
2,
1,
3,
3,
3,
2,
2,
0,
2,
1,
1,
2,
2,
2,
4,
4,
2,
3,
2,
1,
2,
1,
0,
2,
1,
1,
2,
3,
4,
2,
3,
2,
2,
1,
1,
0,
0,
0,
2,
2,
2,
3,
3,
1,
2,
2,
1,
2,
1,
1,
2,
3,
2,
2,
3,
2,
2,
2,
2,
2,
2,
1,
2,
2,
3,
3,
2,
2,
3,
3,
1,
2,
2,
2,
1,
1,
2,
3,
2,
2,
2,
2,
2,
2,
2,
3,
2,
1,
3,
2,
4,
2,
2,
2,
3,
3,
3,
1,
2,
2,
1,
0,
2,
2,
2,
3,
3,
0,
1,
1,
2,
2,
1,
2,
2,
1,
3,
2,
3,
2,
2,
1,
1,
2,
2,
2,
2,
3,
2,
2,
2,
1,
1,
0,
0,
1,
1,
3,
1,
2,
4,
2,
2,
3,
0,
0,
0,
0,
2,
3,
3,
3,
3,
3,
2,
2,
1,
2,
2,
1,
2,
3,
1,
2,
3,
3,
2,
1,
2,
1,
1,
0,
3,
2,
3,
3,
2,
2,
1,
0,
1,
1,
1,
2,
2,
0,
2,
4,
2,
1,
2,
2,
2,
2,
1,
2,
2,
2,
1,
2,
2,
2,
2,
3,
2,
3,
3,
1,
1,
0,
2,
2,
1,
2,
2,
1,
2,
2,
2,
2,
2,
0,
1,
2,
2,
2,
3,
2,
3,
2,
2,
2,
2,
2,
0,
0,
2,
2,
3,
2,
3,
2,
2,
2,
1,
1,
3,
0,
0,
2,
2,
2,
3,
1,
3,
1,
1,
1,
2,
2,
2,
2,
2,
1,
3,
2,
3,
2,
2,
2,
1,
1,
2,
1,
0,
2,
3,
2,
2,
2,
3,
3,
3,
2,
2,
1,
1,
2,
0,
1,
0,
1,
1,
2,
30,
28,
-10,
-44,
-10,
-3,
4,
5,
2,
1,
0,
1,
2,
1,
1,
3,
2,
2,
4,
0,
1,
2,
1,
3,
3,
3,
1,
0,
2,
2,
2,
3,
1,
1,
0,
1,
1,
3,
2,
2,
2,
2,
2,
2,
1,
0,
3,
1,
0,
2,
2,
3,
2,
2,
3,
2,
1,
1,
2,
1,
1,
2,
3,
2,
2,
2,
4,
2,
2,
1,
2,
2,
2,
1,
2,
3,
1,
2,
2,
2,
2,
0,
2,
0,
1,
2,
2,
2,
1,
3,
2,
2,
3,
3,
0,
2,
2,
2,
1,
0,
0,
1,
2,
3,
2,
4,
2,
2,
4,
2,
1,
1,
1,
2,
1,
3,
3,
2,
2,
2,
2,
1,
2,
1,
0,
0,
3,
2,
3,
2,
2,
2,
2,
2,
2,
2,
1,
1,
2,
2,
2,
2,
2,
3,
2,
2,
2,
2,
2,
2,
0,
1,
2,
1,
3,
1,
1,
2,
3,
1,
1,
2,
3,
2,
0,
1,
2,
0,
2,
2,
2,
2,
2,
2,
3,
2,
2,
1,
2,
1,
2,
1,
2,
2,
2,
2,
2,
1,
3,
2,
3,
2,
1,
2,
3,
0,
2,
3,
2,
2,
2,
0,
0,
1,
2,
2,
3,
2,
2,
3,
2,
3,
2,
1,
1,
1,
0,
4,
0,
2,
0,
1,
3,
2,
3,
2,
2,
3,
0,
0,
1,
2,
3,
2,
2,
3,
3,
2,
4,
2,
2,
1,
0,
2,
2,
2,
2,
2,
3,
3,
3,
2,
2,
2,
2,
2,
1,
1,
2,
2,
2,
1,
2,
1,
2,
0,
3,
2,
1,
2,
1,
2,
2,
1,
2,
0,
2,
1,
2,
2,
2,
2,
2,
2,
2,
1,
1,
2,
1,
2,
2,
2,
3,
3,
2,
1,
0,
1,
2,
2,
2,
2,
3,
2,
2,
1,
2,
2,
2,
1,
2,
3,
3,
3,
3,
1,
2,
2,
2,
2,
2,
1,
0,
2,
3,
3,
1,
2,
2,
2,
3,
2,
2,
0,
2,
1,
1,
0,
2,
2,
2,
2,
2,
3,
3,
2,
2,
3,
2,
0,
0,
1,
2,
2,
2,
3,
4,
2,
4,
1,
0,
0,
1,
0,
1,
2,
0,
2,
4,
4,
2,
2,
2,
2,
0,
1,
2,
3,
3,
3,
2,
3,
3,
2,
2,
3,
4,
2,
2,
3,
1,
2,
2,
2,
2,
2,
3,
2,
2,
2,
2,
1,
2,
1,
2,
2,
2,
4,
2,
2,
2,
1,
2,
2,
2,
2,
1,
3,
3,
4,
1,
1,
1,
1,
2,
2,
2,
2,
2,
3,
2,
2,
2,
2,
3,
3,
0,
2,
3,
2,
2,
2,
1,
2,
3,
2,
2,
2,
0,
2,
2,
1,
1,
2,
2,
3,
2,
3,
2,
2,
2,
1,
2,
2,
2,
0,
0,
2,
2,
1,
3,
3,
2,
2,
3,
1,
0,
2,
3,
2,
2,
2,
2,
1,
3,
3,
0,
2,
0,
2,
1,
3,
2,
2,
0,
2,
3,
2,
2,
2,
2,
3,
2,
2,
2,
3,
1,
3,
1,
0,
0,
2,
2,
1,
2,
4,
3,
3,
3,
1,
2,
1,
1,
1,
0,
1,
1,
3,
3,
3,
4,
2,
0,
0,
1,
0,
2,
2,
2,
1,
4,
1,
2,
2,
1,
2,
3,
3,
2,
1,
2,
3,
2,
2,
2,
1,
1,
2,
2,
1,
0,
2,
2,
2,
2,
2,
3,
2,
3,
0,
2,
1,
2,
1,
2,
2,
2,
2,
3,
3,
2,
2,
2,
2,
2,
1,
2,
2,
2,
2,
2,
2,
2,
2,
2,
2,
2,
2,
2,
1,
2,
1,
2,
3,
2,
3,
2,
2,
2,
1,
0,
3,
2,
2,
1,
1,
3,
3,
0,
3,
4,
1,
1,
2,
3,
1,
2,
2,
1,
2,
1,
2,
3,
3,
2,
2,
1,
2,
2,
0,
1,
1,
4,
2,
3,
2,
2,
2,
1,
2,
2,
2,
1,
1,
2,
2,
2,
3,
3,
3,
2,
1,
2,
2,
2,
2,
2,
2,
0,
2,
2,
2,
2,
3,
2,
2,
1,
2,
2,
2,
1,
0,
0,
1,
0,
2,
2,
4,
1,
3,
3,
2,
2,
2,
3,
2,
2,
1,
2,
2,
4,
2,
2,
2,
0,
0,
2,
2,
2,
0,
2,
2,
3,
3,
2,
0,
2,
2,
0,
1,
3,
2,
3,
4,
3,
2,
2,
0,
1,
1,
1,
2,
3,
3,
2,
1,
1,
4,
4,
1,
2,
2,
2,
1,
2,
1,
2,
3,
2,
2,
2,
2,
2,
2,
2,
1,
1,
1,
2,
3,
2,
2,
2,
2,
2,
2,
2,
3,
0,
2,
1,
0,
2,
2,
2,
3,
2,
5,
2,
2,
3,
2,
2,
0,
2,
2,
2,
2,
2,
2,
2,
0,
0,
0,
2,
4,
7,
11,
12,
12,
8,
1,
-8,
-16,
-19,
-18,
-14,
-3,
8,
19,
26,
27,
22,
14,
0,
-12,
-20,
-22,
-17,
-10,
2,
12,
16,
20,
17,
11,
2,
-5,
-10,
-11,
-8,
-4,
2,
7,
11,
11,
10,
6,
2,
-2,
-4,
-5,
-5,
-3,
-1,
2,
4,
6,
8,
7,
6,
4,
2,
-1,
-3,
-4,
-2,
-1,
0,
2,
4,
6,
6,
4,
3,
1,
0,
0,
-1,
-1,
0,
2,
4,
4,
5,
4,
3,
2,
0,
0,
0,
1,
3,
3,
2,
2,
3,
2,
1,
-1,
0,
0,
1,
3,
3,
4,
3,
4,
2,
2,
1,
2,
0,
2,
3,
1,
2,
2,
2,
0,
2,
2,
1,
3,
1,
2,
3,
2,
3,
2,
2,
1,
2,
3,
3,
2,
2,
2,
2,
0,
1,
2,
2,
1,
3,
2,
1,
2,
2,
0,
0,
1,
1,
2,
4,
2,
2,
2,
1,
-1,
-2,
-2,
1,
4,
9,
14,
15,
14,
8,
-2,
-15,
-24,
-29,
-28,
-16,
1,
20,
37,
46,
45,
34,
12,
-12,
-33,
-46,
-49,
-37,
-16,
10,
32,
46,
48,
40,
21,
-2,
-21,
-36,
-38,
-31,
-17,
2,
20,
30,
32,
28,
16,
4,
-10,
-20,
-22,
-17,
-9,
1,
11,
18,
18,
15,
9,
0,
-5,
-7,
-8,
-7,
-1,
3,
6,
8,
8,
5,
1,
0,
-3,
-3,
-1,
1,
4,
4,
5,
4,
3,
2,
0,
-2,
-3,
-1,
0,
3,
5,
6,
7,
6,
4,
3,
0,
-2,
-4,
-6,
-4,
0,
2,
4,
8,
10,
10,
8,
4,
0,
-3,
-5,
-9,
-6,
-4,
1,
5,
8,
9,
10,
8,
5,
0,
-2,
-4,
-4,
-5,
-2,
2,
4,
7,
5,
5,
4,
2,
0,
-1,
-2,
-1,
0,
2,
4,
6,
4,
2,
3,
2,
2,
0,
-1,
0,
1,
3,
3,
4,
4,
4,
2,
2,
0,
-3,
-2,
-1,
0,
3,
8,
11,
13,
14,
10,
3,
-8,
-18,
-25,
-24,
-17,
-3,
15,
30,
40,
39,
29,
10,
-8,
-27,
-36,
-36,
-26,
-10,
10,
27,
36,
37,
26,
10,
-5,
-18,
-26,
-25,
-16,
-4,
8,
18,
22,
22,
13,
4,
-5,
-12,
-13,
-12,
-6,
2,
8,
11,
12,
10,
5,
0,
-4,
-6,
-7,
-4,
0,
5,
8,
8,
7,
5,
0,
0,
-2,
-1,
-1,
0,
3,
4,
6,
6,
5,
2,
1,
0,
-3,
-3,
-1,
0,
2,
4,
6,
8,
7,
4,
1,
-1,
-3,
-5,
-4,
-4,
1,
5,
9,
12,
10,
6,
2,
-3,
-5,
-7,
-7,
-4,
0,
7,
11,
12,
10,
6,
3,
-2,
-6,
-8,
-6,
-2,
0,
5,
8,
9,
8,
6,
2,
0,
-2,
-4,
-3,
-1,
2,
4,
6,
6,
5,
5,
2,
0,
-2,
-1,
0,
0,
2,
2,
5,
3,
4,
4,
1,
1,
1,
1,
0,
0,
0,
0,
2,
2,
2,
4,
6,
8,
9,
8,
2,
-5,
-12,
-17,
-17,
-12,
-2,
10,
22,
29,
29,
22,
11,
-4,
-16,
-26,
-27,
-22,
-10,
4,
16,
25,
28,
23,
14,
4,
-8,
-18,
-20,
-16,
-11,
-2,
8,
16,
17,
16,
12,
4,
-2,
-6,
-10,
-9,
-6,
-1,
4,
6,
8,
8,
5,
4,
2,
0,
-2,
-2,
0,
2,
4,
2,
3,
2,
1,
0,
-1,
1,
2,
3,
3,
4,
5,
2,
1,
0,
-1,
0,
0,
0,
2,
4,
4,
5,
4,
3,
4,
3,
-1,
-1,
-1,
0,
1,
2,
3,
3,
3,
2,
-1,
-1,
0,
2,
4,
6,
8,
7,
4,
0,
-4,
-9,
-7,
-6,
-2,
4,
9,
13,
12,
11,
6,
0,
-4,
-8,
-8,
-6,
-2,
4,
8,
9,
10,
8,
4,
0,
-2,
-5,
-5,
-3,
-1,
2,
4,
6,
7,
6,
4,
2,
0,
0,
-1,
-1,
1,
2,
4,
2,
3,
3,
4,
0,
0,
0,
2,
2,
4,
6,
8,
4,
2,
-4,
-10,
-12,
-10,
-4,
2,
12,
16,
21,
19,
13,
3,
-5,
-14,
-17,
-16,
-9,
0,
8,
16,
17,
16,
12,
4,
-2,
-8,
-11,
-10,
-6,
1,
4,
10,
10,
8,
5,
2,
-1,
-2,
-4,
-2,
0,
3,
4,
5,
4,
4,
2,
2,
0,
0,
1,
2,
4,
4,
4,
3,
2,
1,
0,
0,
1,
1,
1,
4,
3,
4,
2,
2,
2,
0,
0,
1,
0,
1,
1,
3,
1,
2,
4,
2,
3,
2,
3,
2,
3,
2,
0,
2,
-1,
-2,
-1,
-1,
2,
4,
6,
6,
8,
5,
3,
-1,
-4,
-5,
-5,
0,
2,
7,
10,
10,
8,
4,
0,
-4,
-6,
-7,
-4,
0,
4,
7,
9,
8,
7,
3,
0,
-1,
-4,
-4,
-1,
1,
4,
5,
6,
5,
3,
1,
0,
-1,
-2,
-1,
1,
2,
4,
4,
3,
3,
3,
2,
1,
0,
0,
1,
0,
2,
2,
4,
5,
7,
5,
5,
2,
0,
-4,
-6,
-8,
-5,
-1,
5,
11,
14,
15,
12,
8,
1,
-6,
-10,
-12,
-11,
-6,
0,
6,
11,
14,
14,
12,
6,
0,
-5,
-9,
-11,
-7,
-4,
2,
8,
10,
11,
11,
8,
4,
-2,
-5,
-5,
-4,
-4,
-1,
2,
6,
7,
8,
6,
4,
2,
0,
-1,
-2,
-1,
0,
0,
2,
4,
4,
4,
3,
2,
1,
1,
0,
2,
1,
2,
2,
4,
2,
2,
3,
2,
2,
0,
2,
2,
3,
3,
2,
3,
3,
2,
1,
0,
1,
-1,
0,
0,
1,
2,
4,
4,
3,
2,
1,
0,
-1,
-1,
4,
3,
6,
4,
4,
2,
0,
-4,
-3,
-2,
0,
2,
5,
8,
8,
7,
4,
0,
-2,
-5,
-4,
-3,
0,
4,
6,
8,
7,
4,
2,
0,
-2,
-2,
-4,
-2,
-1,
2,
5,
5,
5,
4,
3,
1,
0,
0,
0,
-1,
-1,
1,
3,
3,
4,
4,
3,
4,
4,
4,
3,
4,
1,
-1,
-4,
-4,
-5,
-1,
2,
6,
10,
11,
12,
9,
4,
-2,
-8,
-10,
-9,
-6,
0,
6,
12,
16,
14,
10,
3,
-4,
-10,
-11,
-10,
-6,
0,
7,
12,
14,
13,
8,
2,
-4,
-8,
-10,
-8,
-5,
2,
7,
11,
10,
10,
6,
2,
-2,
-4,
-5,
-4,
-1,
2,
4,
8,
7,
5,
3,
0,
0,
0,
0,
0,
0,
2,
4,
2,
4,
2,
2,
1,
1,
0,
1,
1,
2,
3,
2,
2,
3,
3,
3,
3,
1,
1,
2,
0,
2,
3,
2,
2,
3,
4,
2,
0,
0,
0,
2,
2,
4,
3,
3,
2,
1,
0,
0,
-1,
2,
3,
3,
5,
4,
2,
2,
0,
0,
0,
1,
2,
3,
3,
4,
4,
4,
0,
2,
0,
0,
0,
1,
2,
3,
3,
3,
4,
3,
2,
2,
2,
0,
1,
1,
1,
2,
3,
3,
2,
1,
2,
1,
2,
2,
2,
2,
2,
3,
2,
3,
1,
-1,
-1,
-1,
-1,
-1,
2,
4,
8,
8,
6,
4,
-1,
-3,
-6,
-6,
-2,
0,
5,
8,
11,
10,
5,
2,
-2,
-6,
-6,
-5,
-2,
2,
6,
10,
9,
6,
4,
0,
-2,
-4,
-4,
-2,
2,
2,
6,
6,
5,
3,
2,
0,
0,
-2,
0,
0,
4,
4,
4,
3,
3,
1,
1,
0,
1,
2,
0,
2,
2,
3,
2,
4,
0,
3,
1,
1,
0,
2,
1,
1,
2,
1,
1,
1,
2,
3,
2,
1,
3,
3,
3,
2,
1,
2,
2,
1,
1,
1,
1,
2,
2,
2,
2,
2,
2,
1,
0,
3,
0,
2,
3,
4,
4,
2,
3,
2,
0,
0,
0,
1,
3,
4,
4,
5,
4,
2,
0,
-2,
-2,
0,
0,
3,
4,
5,
6,
4,
3,
0,
0,
-2,
-1,
0,
2,
2,
4,
4,
3,
4,
2,
0,
1,
0,
2,
0,
2,
2,
3,
3,
3,
2,
2,
3,
2,
2,
2,
0,
-2,
-1,
-1,
1,
4,
6,
6,
4,
4,
2,
0,
-4,
-4,
-2,
-1,
0,
4,
5,
6,
5,
3,
1,
0,
0,
-3,
0,
0,
2,
3,
3,
4,
4,
4,
4,
4,
0,
-1,
0,
0,
1,
0,
2,
3,
5,
3,
4,
2,
1,
0,
-1,
-2,
0,
1,
2,
2,
3,
4,
4,
2,
2,
0,
1,
0,
0,
1,
2,
4,
2,
3,
4,
2,
2,
1,
0,
0,
1,
0,
2,
3,
3,
2,
2,
4,
2,
3,
0,
0,
2,
1,
0,
2,
1,
3,
4,
4,
4,
2,
2,
0,
0,
0,
2,
2,
2,
3,
2,
2,
1,
2,
2,
2,
1,
2,
2,
2,
1,
0,
0,
0,
0,
2,
2,
3,
4,
3,
2,
2,
1,
-1,
1,
1,
2,
1,
3,
3,
3,
2,
3,
2,
2,
1,
1,
1,
1,
2,
3,
2,
3,
2,
2,
1,
2,
2,
1,
2,
2,
2,
3,
1,
0,
0,
0,
1,
2,
4,
4,
4,
4,
3,
2,
2,
-1,
-2,
0,
1,
1,
3,
4,
4,
4,
2,
2,
2,
0,
0,
1,
0,
0,
0,
3,
4,
3,
3,
2,
2,
1,
1,
0,
1,
0,
3,
3,
3,
2,
2,
2,
2,
1,
1,
1,
2,
2,
2,
3,
3,
3,
1,
2,
0,
1,
2,
2,
3,
2,
4,
2,
3,
2,
2,
2,
1,
0,
2,
1,
1,
2,
0,
3,
3,
2,
2,
2,
3,
2,
3,
2,
1,
0,
0,
0,
2,
2,
3,
2,
4,
3,
4,
2,
2,
2,
0,
-1,
2,
1,
1,
2,
2,
3,
4,
4,
4,
2,
1,
0,
0,
-1,
2,
1,
2,
3,
3,
4,
1,
3,
1,
-1,
0,
2,
3,
2,
3,
2,
2,
3,
2,
1,
1,
2,
0,
1,
2,
2,
2,
2,
3,
2,
0,
2,
2,
1,
1,
3,
2,
2,
2,
2,
4,
2,
2,
1,
1,
0,
1,
1,
2,
4,
4,
3,
4,
3,
0,
0,
0,
0,
1,
2,
3,
3,
4,
4,
2,
2,
2,
2,
3,
2,
0,
2,
1,
2,
2,
0,
0,
0,
2,
2,
3,
2,
4,
4,
2,
1,
-1,
0,
0,
2,
3,
4,
4,
4,
2,
1,
0,
0,
0,
1,
0,
2,
2,
3,
4,
4,
1,
0,
2,
1,
1,
2,
2,
4,
2,
3,
2,
3,
1,
2,
1,
2,
1,
3,
2,
4,
3,
2,
4,
2,
0,
0,
1,
0,
1,
2,
2,
4,
3,
4,
4,
3,
2,
2,
1,
0,
0,
0,
0,
2,
3,
2,
4,
5,
4,
2,
2,
2,
2,
0,
0,
0,
2,
3,
3,
2,
3,
4,
3,
2,
1,
1,
1,
0,
2,
2,
1,
1,
4,
3,
3,
3,
2,
1,
1,
2,
1,
2,
1,
3,
1,
3,
3,
2,
2,
2,
2,
2,
2,
3,
2,
3,
2,
1,
1,
1,
0,
3,
3,
3,
2,
4,
2,
3,
0,
0,
2,
2,
1,
0,
3,
2,
2,
3,
2,
2,
1,
3,
3,
3,
2,
4,
2,
2,
1,
0,
2,
1,
2,
0,
3,
3,
2,
3,
2,
4,
3,
1,
2,
0,
3,
0,
0,
2,
1,
1,
3,
2,
2,
2,
3,
0,
0,
0,
1,
1,
2,
2,
2,
3,
2,
2,
2,
2,
2,
4,
1,
1,
2,
0,
1,
0,
2,
1,
3,
2,
2,
2,
2,
1,
0,
0,
-1,
0,
1,
1,
2,
3,
3,
2,
2,
3,
0,
0,
1,
0,
2,
3,
3,
2,
2,
2,
2,
2,
3,
2,
2,
1,
0,
0,
3,
2,
3,
2,
3,
1,
2,
2,
1,
2,
2,
0,
3,
2,
3,
2,
3,
2,
2,
0,
1,
1,
0,
0,
2,
3,
4,
3,
4,
2,
3,
2,
1,
1,
0,
3,
2,
2,
2,
2,
2,
1,
2,
2,
1,
2,
2,
2,
4,
3,
2,
2,
1,
1,
2,
2,
2,
4,
3,
2,
2,
2,
0,
2,
2,
1,
0,
1,
1,
4,
3,
2,
2,
4,
2,
2,
2,
0,
1,
0,
0,
1,
3,
4,
2,
3,
2,
2,
0,
0,
0,
0,
2,
2,
3,
3,
2,
3,
1,
0,
0,
0,
2,
2,
2,
3,
4,
2,
2,
2,
0,
2,
1,
1,
1,
1,
2,
1,
2,
2,
3,
2,
3,
3,
1,
2,
2,
0,
1,
0,
0,
2,
2,
3,
2,
3,
