TP_CND/tp_volsurf/mesures/DS0007.CSV

Memory Length,4000,
Trigger Level,2.000E-02,
Source,CH1,
Probe,1X,
Vertical Units,V,
Vertical Scale,5.000E-02,
Vertical Position,0.000E+00,
Horizontal Units,s,
Horizontal Scale,5.000E-06,
Horizontal Position,8.080E-05,
Horizontal Mode,Main,
Sampling Period,2.000E-08,
Firmware, V1.24,
Time, ,
Mode,Fast,
Waveform Data,
-3,
-3,
2,
9,
15,
20,
29,
34,
37,
36,
38,
35,
32,
25,
18,
11,
2,
-8,
-14,
-20,
-23,
-28,
-25,
-26,
-21,
-15,
-10,
-3,
7,
16,
20,
29,
32,
38,
36,
36,
34,
32,
22,
20,
10,
6,
0,
-4,
-10,
-12,
-16,
-14,
-12,
-10,
-6,
-2,
3,
5,
12,
15,
20,
21,
22,
25,
23,
19,
18,
16,
12,
9,
4,
1,
-3,
-1,
-6,
-6,
-6,
-4,
1,
0,
6,
8,
11,
13,
18,
17,
20,
20,
17,
16,
16,
12,
8,
5,
2,
0,
-1,
-3,
-4,
-5,
-4,
-3,
2,
4,
6,
8,
12,
13,
14,
16,
15,
16,
14,
12,
10,
6,
3,
2,
0,
-1,
-1,
-1,
-2,
0,
0,
3,
3,
7,
8,
10,
11,
8,
12,
11,
12,
8,
10,
7,
6,
7,
6,
4,
3,
3,
0,
4,
4,
3,
3,
4,
8,
8,
8,
11,
9,
8,
10,
8,
6,
6,
7,
6,
6,
8,
8,
7,
8,
8,
8,
8,
8,
10,
8,
10,
10,
9,
10,
6,
7,
7,
6,
4,
6,
6,
6,
8,
8,
8,
8,
11,
8,
10,
9,
10,
11,
10,
9,
8,
10,
8,
8,
7,
7,
8,
9,
8,
8,
6,
8,
7,
8,
8,
9,
6,
6,
8,
8,
7,
4,
7,
4,
3,
7,
5,
7,
4,
5,
6,
5,
4,
6,
7,
8,
10,
9,
8,
10,
8,
8,
9,
7,
9,
7,
6,
8,
4,
4,
5,
6,
4,
8,
5,
7,
4,
6,
5,
4,
6,
5,
7,
5,
7,
9,
9,
8,
12,
9,
10,
8,
8,
8,
7,
6,
7,
8,
4,
6,
6,
5,
4,
4,
4,
5,
5,
6,
6,
6,
6,
8,
7,
10,
9,
8,
9,
8,
10,
10,
8,
8,
7,
9,
8,
7,
6,
8,
6,
8,
7,
8,
6,
8,
6,
6,
6,
8,
6,
7,
8,
5,
7,
6,
7,
6,
10,
7,
8,
9,
12,
8,
8,
10,
10,
8,
8,
7,
8,
8,
6,
5,
5,
4,
4,
4,
6,
5,
6,
6,
7,
10,
9,
9,
9,
9,
10,
8,
11,
8,
6,
6,
9,
7,
6,
4,
4,
4,
4,
7,
4,
6,
6,
6,
5,
8,
7,
8,
10,
8,
8,
8,
5,
8,
8,
7,
6,
8,
7,
4,
6,
7,
5,
5,
4,
7,
6,
5,
6,
6,
6,
5,
6,
5,
8,
5,
10,
8,
6,
7,
7,
6,
7,
7,
5,
4,
8,
6,
5,
4,
6,
5,
4,
6,
7,
6,
7,
8,
8,
9,
7,
8,
8,
8,
6,
7,
8,
10,
7,
8,
5,
8,
6,
7,
7,
5,
8,
7,
9,
8,
8,
7,
10,
9,
8,
8,
10,
7,
9,
8,
5,
7,
5,
8,
6,
7,
6,
8,
7,
6,
6,
5,
6,
9,
8,
6,
7,
10,
8,
9,
10,
11,
9,
10,
10,
8,
6,
8,
7,
8,
5,
7,
5,
2,
3,
3,
5,
6,
4,
6,
3,
7,
6,
8,
8,
8,
11,
10,
11,
11,
10,
8,
10,
8,
8,
10,
5,
4,
3,
3,
2,
6,
3,
3,
2,
4,
5,
6,
7,
6,
7,
8,
8,
10,
9,
11,
11,
8,
8,
8,
8,
5,
5,
7,
4,
2,
4,
7,
4,
4,
4,
4,
5,
6,
10,
9,
8,
8,
8,
9,
8,
8,
7,
9,
7,
6,
7,
6,
4,
6,
4,
6,
8,
8,
6,
6,
8,
8,
7,
8,
8,
9,
7,
6,
7,
7,
8,
6,
7,
6,
4,
4,
6,
6,
5,
6,
6,
5,
6,
8,
6,
8,
8,
7,
8,
8,
7,
8,
7,
6,
7,
7,
6,
7,
4,
6,
7,
8,
6,
8,
7,
5,
8,
8,
6,
10,
8,
6,
7,
6,
7,
9,
7,
6,
8,
6,
4,
6,
4,
5,
2,
5,
4,
6,
4,
7,
4,
8,
8,
8,
10,
8,
8,
11,
8,
8,
6,
6,
8,
5,
4,
8,
6,
2,
5,
3,
4,
6,
5,
6,
8,
6,
8,
8,
9,
10,
6,
8,
7,
8,
7,
6,
6,
5,
8,
5,
4,
6,
5,
5,
6,
6,
4,
8,
6,
5,
6,
7,
7,
8,
8,
7,
8,
7,
9,
8,
8,
8,
6,
6,
4,
8,
4,
8,
6,
7,
6,
5,
6,
8,
6,
6,
6,
8,
8,
9,
5,
10,
7,
8,
8,
8,
8,
8,
9,
8,
8,
10,
9,
8,
8,
7,
8,
8,
5,
8,
4,
6,
4,
6,
5,
7,
6,
6,
7,
7,
9,
9,
13,
11,
9,
10,
9,
9,
9,
8,
6,
6,
5,
4,
5,
5,
6,
6,
4,
4,
5,
6,
7,
6,
7,
10,
8,
9,
10,
10,
10,
11,
11,
8,
10,
9,
7,
8,
7,
7,
4,
4,
5,
4,
4,
6,
4,
6,
4,
7,
7,
8,
7,
9,
10,
8,
11,
10,
9,
8,
9,
8,
7,
6,
6,
4,
6,
4,
5,
6,
7,
5,
4,
6,
5,
5,
6,
8,
9,
9,
8,
10,
8,
7,
8,
8,
6,
5,
4,
8,
5,
4,
5,
4,
5,
4,
4,
8,
5,
6,
8,
8,
7,
8,
8,
9,
8,
8,
7,
7,
6,
6,
4,
6,
6,
6,
6,
6,
4,
6,
6,
8,
8,
7,
9,
8,
9,
7,
9,
6,
6,
9,
7,
10,
5,
7,
6,
6,
6,
8,
4,
7,
8,
5,
8,
8,
7,
8,
8,
8,
8,
9,
7,
8,
8,
7,
8,
6,
8,
7,
7,
7,
3,
6,
6,
8,
6,
6,
5,
9,
8,
6,
6,
6,
4,
8,
8,
6,
5,
7,
7,
9,
9,
8,
8,
5,
5,
6,
7,
6,
6,
6,
7,
5,
9,
5,
6,
8,
8,
6,
7,
8,
8,
6,
9,
7,
7,
7,
8,
6,
7,
7,
6,
8,
10,
7,
8,
7,
6,
6,
6,
6,
6,
8,
6,
8,
6,
6,
5,
4,
5,
6,
6,
6,
8,
6,
6,
8,
8,
6,
11,
7,
10,
6,
10,
8,
5,
5,
6,
8,
5,
6,
5,
6,
4,
6,
5,
7,
8,
4,
6,
6,
8,
6,
9,
9,
10,
9,
10,
10,
8,
9,
8,
6,
7,
8,
6,
8,
6,
7,
5,
4,
5,
4,
8,
7,
8,
8,
7,
7,
8,
8,
10,
7,
7,
8,
8,
7,
9,
9,
7,
9,
8,
8,
6,
8,
7,
8,
5,
5,
6,
8,
6,
5,
7,
8,
7,
6,
7,
8,
7,
8,
7,
8,
6,
8,
8,
7,
8,
5,
6,
4,
6,
6,
6,
4,
6,
6,
6,
6,
8,
9,
6,
8,
8,
7,
8,
8,
7,
8,
7,
8,
5,
6,
6,
7,
5,
4,
6,
5,
5,
6,
8,
6,
5,
7,
7,
6,
8,
8,
8,
8,
6,
6,
8,
7,
8,
7,
7,
4,
5,
4,
4,
4,
5,
6,
5,
5,
4,
6,
6,
7,
7,
7,
7,
9,
9,
6,
9,
7,
9,
8,
9,
5,
8,
4,
7,
8,
5,
7,
4,
4,
3,
8,
5,
5,
5,
5,
7,
12,
6,
9,
10,
7,
8,
9,
9,
8,
8,
8,
7,
8,
7,
5,
6,
6,
5,
7,
6,
4,
5,
6,
6,
6,
5,
7,
9,
8,
10,
8,
6,
8,
8,
6,
5,
7,
7,
7,
4,
7,
7,
6,
5,
5,
7,
6,
7,
9,
8,
8,
9,
8,
8,
8,
5,
8,
4,
6,
7,
6,
5,
7,
8,
6,
6,
6,
8,
3,
7,
8,
6,
10,
8,
7,
8,
6,
7,
7,
8,
7,
5,
6,
7,
6,
7,
6,
8,
8,
6,
8,
8,
8,
8,
5,
7,
6,
5,
4,
5,
8,
8,
6,
6,
8,
5,
4,
6,
6,
7,
6,
6,
7,
7,
9,
4,
7,
7,
8,
5,
8,
6,
9,
8,
5,
8,
7,
7,
6,
8,
9,
8,
7,
8,
7,
8,
8,
8,
8,
8,
6,
8,
8,
7,
6,
6,
6,
5,
10,
6,
7,
8,
5,
7,
8,
4,
5,
8,
8,
6,
9,
6,
8,
8,
8,
7,
8,
8,
6,
7,
6,
6,
6,
5,
8,
4,
6,
3,
6,
7,
6,
8,
6,
10,
9,
10,
8,
6,
7,
6,
8,
7,
7,
7,
6,
5,
8,
6,
5,
5,
6,
8,
6,
8,
7,
6,
8,
5,
8,
8,
8,
8,
6,
9,
8,
6,
7,
6,
6,
6,
6,
6,
8,
5,
8,
8,
7,
7,
4,
8,
8,
6,
6,
6,
6,
6,
5,
6,
5,
8,
4,
6,
7,
5,
7,
8,
7,
9,
6,
8,
8,
6,
7,
8,
6,
8,
4,
6,
6,
4,
6,
5,
6,
5,
5,
5,
6,
6,
8,
8,
5,
8,
6,
8,
8,
8,
8,
7,
9,
8,
8,
7,
8,
6,
4,
6,
5,
6,
5,
5,
4,
4,
4,
6,
6,
7,
6,
8,
9,
8,
8,
11,
10,
8,
8,
8,
8,
6,
6,
7,
6,
5,
4,
7,
4,
6,
7,
4,
7,
6,
7,
8,
8,
9,
8,
6,
8,
8,
8,
8,
8,
6,
8,
6,
4,
6,
5,
6,
7,
6,
7,
6,
6,
6,
8,
8,
6,
6,
8,
8,
8,
6,
8,
8,
8,
8,
8,
7,
8,
6,
5,
8,
7,
6,
4,
5,
8,
6,
6,
6,
8,
8,
8,
8,
8,
8,
8,
10,
6,
8,
5,
7,
8,
5,
5,
6,
6,
5,
5,
8,
8,
6,
8,
6,
8,
7,
7,
9,
7,
9,
5,
8,
8,
7,
7,
7,
8,
6,
7,
7,
6,
5,
6,
6,
4,
5,
6,
6,
7,
8,
8,
8,
8,
8,
8,
11,
8,
7,
8,
6,
7,
6,
6,
5,
8,
4,
7,
4,
6,
4,
9,
6,
6,
6,
7,
6,
8,
7,
9,
8,
8,
9,
7,
8,
8,
6,
6,
8,
7,
5,
5,
6,
6,
4,
4,
5,
8,
6,
4,
7,
5,
7,
7,
7,
7,
8,
7,
8,
9,
8,
9,
8,
8,
8,
9,
8,
9,
7,
6,
8,
6,
4,
6,
6,
8,
6,
5,
6,
10,
6,
7,
7,
8,
5,
5,
8,
6,
6,
7,
8,
6,
7,
7,
7,
7,
8,
7,
8,
6,
8,
8,
8,
6,
7,
8,
8,
6,
4,
6,
7,
6,
5,
7,
5,
6,
6,
8,
6,
5,
6,
8,
9,
8,
8,
6,
7,
7,
6,
6,
5,
8,
8,
8,
6,
6,
8,
6,
6,
6,
9,
5,
6,
7,
5,
5,
7,
6,
5,
8,
7,
6,
4,
5,
8,
8,
8,
6,
10,
7,
7,
9,
9,
6,
7,
6,
6,
5,
7,
6,
6,
6,
6,
4,
8,
7,
8,
6,
5,
8,
7,
8,
6,
9,
7,
8,
8,
6,
6,
8,
8,
8,
8,
7,
7,
8,
8,
7,
8,
8,
8,
5,
8,
5,
7,
6,
4,
6,
6,
6,
5,
4,
6,
5,
8,
8,
5,
9,
8,
8,
6,
7,
10,
8,
8,
7,
4,
7,
7,
5,
3,
6,
5,
4,
4,
4,
5,
6,
7,
8,
8,
11,
10,
10,
9,
10,
11,
10,
9,
8,
7,
8,
5,
4,
3,
4,
3,
3,
3,
6,
4,
6,
4,
8,
6,
8,
9,
10,
11,
10,
11,
10,
9,
9,
9,
7,
6,
7,
6,
6,
6,
3,
3,
4,
6,
6,
4,
7,
5,
8,
6,
8,
8,
8,
8,
8,
9,
8,
10,
9,
8,
7,
6,
8,
6,
7,
6,
5,
4,
8,
5,
7,
6,
8,
8,
6,
8,
7,
9,
8,
8,
8,
8,
11,
8,
8,
7,
8,
7,
8,
7,
6,
6,
4,
6,
6,
5,
5,
5,
6,
4,
6,
8,
7,
8,
6,
9,
7,
8,
8,
9,
9,
8,
8,
8,
6,
7,
6,
7,
8,
8,
7,
6,
5,
7,
8,
7,
5,
8,
6,
8,
8,
8,
8,
9,
7,
8,
7,
8,
9,
8,
6,
4,
7,
6,
6,
5,
6,
4,
3,
5,
6,
6,
4,
5,
7,
6,
6,
6,
8,
8,
4,
7,
7,
9,
9,
8,
8,
7,
8,
9,
10,
10,
10,
12,
11,
10,
9,
10,
6,
4,
3,
3,
-1,
-1,
-5,
-3,
-3,
-2,
-1,
2,
3,
6,
8,
13,
16,
18,
21,
22,
23,
20,
20,
17,
15,
10,
8,
3,
0,
-2,
-5,
-4,
-8,
-8,
-7,
-4,
0,
0,
5,
8,
11,
13,
16,
18,
18,
16,
16,
16,
14,
11,
8,
7,
5,
3,
1,
2,
2,
2,
4,
4,
5,
4,
6,
7,
6,
10,
8,
8,
7,
8,
8,
7,
6,
5,
7,
8,
7,
6,
8,
9,
8,
10,
8,
10,
9,
8,
8,
6,
7,
5,
6,
5,
7,
4,
5,
4,
8,
8,
10,
11,
10,
10,
10,
9,
7,
4,
3,
-2,
-4,
-9,
-13,
-13,
-14,
-12,
-12,
-6,
-2,
7,
13,
22,
31,
40,
46,
54,
56,
56,
52,
47,
35,
25,
11,
-5,
-20,
-36,
-47,
-59,
-63,
-67,
-62,
-55,
-45,
-30,
-11,
5,
24,
44,
56,
70,
78,
82,
80,
77,
66,
52,
37,
20,
3,
-14,
-32,
-42,
-51,
-56,
-56,
-53,
-46,
-36,
-24,
-9,
5,
18,
32,
39,
46,
50,
49,
47,
41,
34,
28,
19,
8,
0,
-8,
-12,
-16,
-15,
-18,
-16,
-12,
-9,
-4,
4,
6,
11,
13,
15,
15,
16,
16,
14,
13,
11,
11,
6,
7,
5,
5,
6,
4,
8,
7,
6,
9,
10,
10,
6,
9,
8,
7,
6,
5,
3,
3,
4,
0,
2,
2,
2,
4,
5,
8,
8,
10,
10,
12,
12,
12,
13,
10,
12,
10,
10,
10,
8,
6,
6,
2,
4,
3,
4,
4,
4,
4,
2,
4,
5,
6,
6,
6,
8,
10,
9,
11,
10,
8,
11,
12,
9,
10,
9,
8,
6,
6,
5,
4,
2,
4,
0,
3,
5,
5,
3,
7,
5,
5,
8,
7,
10,
8,
11,
12,
10,
9,
8,
8,
6,
6,
7,
6,
7,
5,
4,
4,
6,
5,
6,
4,
5,
9,
6,
10,
10,
8,
10,
9,
8,
8,
8,
10,
8,
6,
7,
7,
6,
8,
6,
7,
6,
5,
5,
3,
5,
6,
6,
6,
7,
8,
8,
8,
8,
10,
10,
8,
11,
9,
8,
7,
6,
6,
5,
5,
4,
3,
4,
4,
6,
5,
5,
5,
6,
8,
8,
8,
9,
8,
10,
10,
10,
9,
6,
5,
6,
6,
4,
7,
3,
6,
6,
5,
4,
6,
8,
6,
8,
8,
8,
8,
8,
10,
8,
8,
10,
6,
6,
8,
8,
4,
5,
3,
6,
5,
5,
3,
3,
2,
4,
3,
3,
4,
8,
7,
9,
11,
12,
12,
15,
16,
17,
17,
15,
15,
14,
12,
8,
5,
2,
1,
-2,
-5,
-9,
-8,
-7,
-5,
-4,
2,
2,
8,
10,
12,
16,
18,
20,
22,
20,
22,
18,
16,
12,
9,
6,
2,
0,
-4,
-3,
-6,
-5,
-5,
-4,
-1,
2,
5,
9,
11,
12,
15,
14,
16,
14,
15,
12,
10,
9,
7,
4,
2,
2,
0,
2,
2,
0,
1,
5,
4,
7,
8,
10,
10,
13,
13,
12,
10,
8,
8,
10,
8,
7,
5,
5,
1,
2,
4,
4,
6,
5,
8,
8,
8,
8,
9,
11,
10,
8,
9,
9,
7,
6,
4,
5,
4,
1,
3,
2,
3,
4,
4,
4,
6,
8,
7,
9,
12,
10,
10,
10,
14,
11,
10,
10,
8,
7,
4,
6,
3,
3,
4,
2,
2,
4,
4,
5,
5,
6,
8,
4,
8,
9,
10,
10,
8,
11,
11,
10,
8,
8,
8,
8,
4,
5,
4,
3,
3,
3,
2,
5,
6,
8,
9,
8,
10,
10,
9,
12,
11,
11,
12,
9,
10,
11,
6,
7,
5,
5,
4,
2,
3,
2,
2,
4,
3,
4,
4,
7,
5,
8,
11,
9,
12,
10,
12,
10,
10,
9,
10,
8,
8,
7,
2,
3,
2,
4,
2,
2,
1,
3,
5,
4,
8,
8,
10,
9,
9,
12,
11,
13,
10,
11,
9,
8,
8,
7,
4,
4,
4,
2,
2,
4,
2,
4,
2,
4,
6,
5,
7,
8,
8,
11,
11,
11,
10,
10,
10,
8,
8,
8,
4,
6,
4,
4,
4,
4,
3,
6,
4,
6,
8,
10,
10,
12,
11,
14,
10,
12,
12,
10,
6,
4,
3,
1,
0,
-1,
-1,
-1,
-1,
0,
3,
6,
8,
6,
10,
13,
14,
15,
16,
16,
16,
15,
12,
10,
8,
6,
3,
0,
0,
-1,
-3,
-2,
-2,
0,
2,
5,
8,
7,
8,
13,
12,
16,
12,
14,
13,
15,
9,
11,
8,
5,
5,
2,
1,
0,
-1,
0,
-1,
1,
2,
4,
9,
8,
6,
12,
15,
13,
14,
15,
14,
12,
12,
11,
9,
6,
4,
0,
0,
-2,
-1,
-1,
-1,
1,
1,
5,
8,
8,
12,
12,
13,
16,
14,
15,
15,
13,
12,
8,
6,
6,
3,
2,
1,
2,
0,
1,
2,
1,
3,
3,
4,
6,
5,
9,
7,
10,
8,
9,
9,
9,
10,
10,
10,
12,
13,
15,
15,
15,
15,
16,
15,
12,
10,
6,
3,
0,
-3,
-8,
-12,
-15,
-15,
-17,
-16,
-13,
-8,
-4,
2,
9,
16,
23,
31,
35,
42,
42,
43,
42,
37,
31,
24,
13,
5,
-5,
-14,
-21,
-28,
-33,
-38,
-33,
-33,
-26,
-17,
-8,
2,
12,
24,
33,
38,
46,
49,
49,
47,
44,
35,
27,
19,
9,
-2,
-10,
-20,
-25,
-28,
-30,
-28,
-26,
-21,
-12,
-4,
4,
13,
21,
27,
33,
35,
35,
37,
34,
30,
24,
18,
14,
5,
0,
-6,
-9,
-14,
-14,
-14,
-13,
-10,
-8,
-2,
0,
7,
10,
14,
18,
20,
21,
21,
20,
18,
16,
13,
12,
8,
4,
2,
1,
0,
-2,
0,
-2,
0,
1,
4,
4,
6,
10,
9,
11,
9,
9,
12,
10,
11,
11,
9,
9,
7,
6,
5,
5,
6,
4,
5,
6,
7,
7,
7,
7,
8,
8,
8,
6,
8,
4,
4,
8,
5,
7,
6,
7,
5,
8,
8,
8,
6,
8,
8,
8,
9,
11,
8,
10,
6,
8,
8,
4,
4,
4,
2,
4,
6,
5,
4,
6,
6,
7,
8,
8,
10,
8,
5,
9,
9,
8,
8,
8,
6,
5,
4,
4,
3,
4,
4,
6,
5,
6,
7,
8,
9,
9,
10,
10,
8,
10,
8,
5,
8,
10,
8,
6,
5,
6,
4,
5,
4,
6,
4,
8,
8,
6,
8,
10,
10,
8,
11,
8,
8,
5,
9,
6,
6,
5,
4,
2,
4,
3,
4,
4,
6,
8,
6,
7,
7,
8,
8,
9,
12,
10,
8,
10,
8,
8,
6,
6,
6,
6,
8,
5,
4,
6,
4,
5,
5,
4,
8,
8,
6,
6,
8,
9,
8,
8,
8,
8,
6,
8,
8,
8,
8,
6,
5,
7,
5,
6,
8,
8,
6,
6,
7,
7,
8,
6,
7,
6,
8,
7,
7,
6,
5,
4,
6,
6,
6,
6,
8,
7,
6,
9,
8,
7,
8,
10,
6,
8,
10,
6,
7,
8,
6,
6,
6,
7,
2,
2,
2,
4,
1,
4,
6,
5,
6,
6,
8,
9,
10,
10,
10,
10,
10,
11,
11,
10,
8,
7,
6,
7,
6,
5,
5,
5,
4,
5,
4,
4,
5,
4,
5,
8,
6,
6,
7,
6,
8,
6,
8,
7,
7,
10,
6,
10,
8,
8,
8,
8,
7,
8,
6,
8,
8,
6,
6,
6,
6,
6,
6,
8,
4,
4,
6,
6,
5,
4,
5,
5,
6,
7,
5,
7,
9,
9,
8,
9,
8,
8,
8,
8,
6,
9,
8,
7,
7,
6,
5,
6,
7,
6,
8,
7,
8,
5,
5,
8,
6,
4,
7,
7,
6,
6,
8,
6,
6,
7,
6,
6,
8,
8,
8,
9,
6,
9,
6,
8,
7,
5,
7,
7,
4,
7,
5,
8,
7,
8,
6,
6,
5,
6,
7,
6,
8,
4,
8,
4,
6,
8,
6,
7,
10,
6,
6,
8,
6,
9,
8,
8,
8,
8,
8,
6,
6,
6,
6,
8,
6,
7,
7,
5,
7,
5,
5,
6,
7,
6,
6,
5,
5,
7,
7,
4,
4,
8,
7,
6,
6,
6,
7,
8,
7,
7,
7,
7,
8,
8,
6,
8,
7,
6,
8,
6,
6,
6,
6,
6,
8,
8,
6,
6,
8,
6,
6,
6,
8,
7,
6,
8,
7,
9,
7,
4,
8,
9,
8,
8,
7,
8,
8,
7,
5,
6,
6,
5,
4,
5,
7,
3,
4,
7,
4,
8,
4,
10,
9,
9,
7,
9,
10,
10,
10,
9,
9,
8,
7,
8,
6,
7,
4,
4,
3,
4,
3,
5,
3,
5,
6,
8,
8,
7,
6,
11,
9,
9,
8,
8,
8,
8,
8,
9,
5,
8,
4,
7,
6,
5,
5,
5,
4,
5,
6,
4,
6,
7,
8,
7,
8,
6,
8,
9,
8,
6,
6,
6,
8,
6,
8,
4,
8,
7,
6,
5,
5,
5,
7,
7,
5,
8,
5,
10,
8,
8,
7,
8,
8,
7,
6,
7,
4,
4,
7,
4,
3,
6,
6,
8,
8,
8,
6,
7,
8,
8,
8,
8,
10,
10,
9,
9,
8,
8,
7,
4,
8,
4,
3,
6,
4,
4,
3,
6,
5,
6,
5,
6,
6,
6,
8,
10,
8,
10,
10,
7,
11,
8,
8,
8,
7,
8,
8,
6,
6,
5,
4,
5,
4,
5,
5,
4,
6,
4,
6,
6,
6,
5,
5,
6,
6,
8,
8,
6,
6,
8,
8,
7,
8,
7,
8,
8,
9,
10,
8,
6,
6,
7,
8,
9,
6,
6,
6,
4,
6,
6,
3,
6,
5,
4,
5,
6,
6,
7,
8,
7,
7,
12,
7,
11,
10,
8,
9,
8,
8,
7,
8,
8,
6,
6,
5,
6,
5,
4,
4,
4,
4,
4,
5,
4,
8,
7,
9,
6,
8,
6,
10,
8,
8,
9,
8,
8,
7,
6,
8,
7,
6,
6,
5,
6,
4,
6,
5,
6,
4,
8,
8,
8,
6,
8,
6,
10,
7,
8,
8,
8,
4,
6,
5,
7,
7,
7,
6,
7,
8,
8,
7,
8,
7,
8,
8,
7,
6,
8,
7,
7,
5,
8,
6,
4,
8,
5,
6,
6,
6,
6,
6,
6,
7,
8,
8,
8,
8,
6,
8,
7,
6,
7,
6,
6,
6,
7,
6,
6,
5,
6,
7,
6,
5,
4,
7,
7,
7,
9,
7,
6,
8,
10,
9,
9,
9,
5,
9,
9,
8,
8,
9,
4,
7,
5,
6,
6,
4,
6,
5,
4,
8,
4,
5,
7,
6,
8,
8,
9,
10,
8,
10,
10,
8,
8,
8,
6,
8,
8,
5,
5,
5,
5,
5,
4,
6,
5,
6,
4,
4,
8,
5,
8,
9,
8,
9,
10,
9,
9,
9,
9,
9,
8,
8,
6,
6,
6,
6,
7,
7,
6,
6,
6,
3,
4,
7,
6,
7,
7,
6,
6,
6,
8,
5,
9,
7,
6,
8,
8,
9,
8,
7,
8,
5,
8,
8,
5,
6,
8,
5,
5,
4,
3,
4,
4,
6,
4,
6,
8,
4,
8,
9,
8,
9,
8,
8,
10,
8,
10,
8,
7,
5,
5,
7,
8,
6,
4,
6,
7,
5,
5,
4,
5,
7,
7,
7,
8,
8,
9,
8,
10,
8,
9,
10,
6,
7,
7,
6,
6,
8,
5,
3,
4,
4,
6,
4,
6,
6,
6,
6,
8,
8,
9,
6,
10,
8,
8,
8,
8,
9,
6,
7,
7,
6,
4,
8,
5,
6,
4,
6,
5,
5,
7,
7,
8,
5,
8,
8,
7,
8,
8,
7,
9,
4,
6,
8,
6,
6,
7,
6,
6,
8,
6,
8,
6,
7,
9,
6,
8,
7,
9,
10,
8,
6,
5,
7,
6,
6,
6,
6,
7,
6,
4,
8,
6,
6,
6,
8,
8,
7,
6,
8,
7,
6,
7,
7,
8,
6,
4,
7,
6,
6,
4,
6,
5,
6,
6,
4,
6,
8,
6,
8,
10,
6,
9,
10,
7,
8,
8,
5,
8,
7,
5,
4,
5,
4,
4,
5,
4,
6,
8,
6,
7,
6,
8,
8,
8,
8,
8,
8,
6,
8,
8,
6,
7,
8,
6,
6,
6,
5,
7,
6,
7,
2,
6,
6,
6,
6,
6,
7,
8,
5,
8,
8,
7,
9,
4,
8,
7,
6,
8,
6,
7,
